{"data":[{"id":"66b5fded80f6852924a1afb0","type":"files","attributes":{"guid":"5pbwk","checkout":null,"name":"240607_submissionform.pdf","kind":"file","path":"/66b5fded80f6852924a1afb0","size":187145,"provider":"osfstorage","materialized_path":"/Archive of OSF Storage/2 Materials/Materials and Graphics/240607_submissionform.pdf","last_touched":null,"date_modified":"2024-06-07T15:26:11.988523","date_created":"2024-06-07T15:26:11.988523Z","extra":{"hashes":{"md5":"7570b61031df1f3f21105e65b622076c","sha256":"bf4f477513ffa0d4dd7617deb77e0501a902d2bdf3b71ca5cb63f4100b710d21"},"downloads":0},"tags":[],"current_user_can_comment":false,"current_version":1,"show_as_unviewed":false},"relationships":{"parent_folder":{"links":{"related":{"href":"https://api.osf.io/v2/files/66b5fdec80f6852924a1afa2/","meta":{}}},"data":{"id":"66b5fdec80f6852924a1afa2","type":"files"}},"versions":{"links":{"related":{"href":"https://api.osf.io/v2/files/66b5fded80f6852924a1afb0/versions/","meta":{}}}},"comments":{"links":{"related":{"href":"https://api.osf.io/v2/registrations/c9rny/comments/?filter%5Btarget%5D=5pbwk","meta":{}}}},"node":{"links":{"related":{"href":"https://api.osf.io/v2/registrations/c9rny/","meta":{}}},"data":{"id":"c9rny","type":"registrations"}},"target":{"links":{"related":{"href":"https://api.osf.io/v2/registrations/c9rny/","meta":{"type":"registrations"}}},"data":{"type":"registrations","id":"c9rny"}},"cedar_metadata_records":{"links":{"related":{"href":"https://api.osf.io/v2/files/66b5fded80f6852924a1afb0/cedar_metadata_records/","meta":{}}}}},"links":{"info":"https://api.osf.io/v2/files/66b5fded80f6852924a1afb0/","move":"https://files.de-1.osf.io/v1/resources/c9rny/providers/osfstorage/66b5fded80f6852924a1afb0","upload":"https://files.de-1.osf.io/v1/resources/c9rny/providers/osfstorage/66b5fded80f6852924a1afb0","delete":"https://files.de-1.osf.io/v1/resources/c9rny/providers/osfstorage/66b5fded80f6852924a1afb0","download":"https://osf.io/download/5pbwk/","render":"https://mfr.de-1.osf.io/render?url=https%3A%2F%2Fosf.io%2Fdownload%2F5pbwk%2F%3Fdirect%26mode%3Drender","html":"https://osf.io/c9rny/files/osfstorage/66b5fded80f6852924a1afb0","self":"https://api.osf.io/v2/files/66b5fded80f6852924a1afb0/","iri":"https://osf.io/5pbwk"}},{"id":"66b5fded80f6852924a1afad","type":"files","attributes":{"guid":"q5hfj","checkout":null,"name":"230307_submissionform.pdf","kind":"file","path":"/66b5fded80f6852924a1afad","size":82373,"provider":"osfstorage","materialized_path":"/Archive of OSF Storage/2 Materials/Materials and Graphics/230307_submissionform.pdf","last_touched":null,"date_modified":"2023-03-07T13:57:51.940684","date_created":"2023-03-07T13:57:51.940684Z","extra":{"hashes":{"md5":"1e4cba8480e8f88dd3cb181c970b9524","sha256":"24905a20db71c0c32fbd380c756db877d0a1f4cdf3796ece0864a897222ba02e"},"downloads":0},"tags":[],"current_user_can_comment":false,"current_version":1,"show_as_unviewed":false},"relationships":{"parent_folder":{"links":{"related":{"href":"https://api.osf.io/v2/files/66b5fdec80f6852924a1afa2/","meta":{}}},"data":{"id":"66b5fdec80f6852924a1afa2","type":"files"}},"versions":{"links":{"related":{"href":"https://api.osf.io/v2/files/66b5fded80f6852924a1afad/versions/","meta":{}}}},"comments":{"links":{"related":{"href":"https://api.osf.io/v2/registrations/c9rny/comments/?filter%5Btarget%5D=q5hfj","meta":{}}}},"node":{"links":{"related":{"href":"https://api.osf.io/v2/registrations/c9rny/","meta":{}}},"data":{"id":"c9rny","type":"registrations"}},"target":{"links":{"related":{"href":"https://api.osf.io/v2/registrations/c9rny/","meta":{"type":"registrations"}}},"data":{"type":"registrations","id":"c9rny"}},"cedar_metadata_records":{"links":{"related":{"href":"https://api.osf.io/v2/files/66b5fded80f6852924a1afad/cedar_metadata_records/","meta":{}}}}},"links":{"info":"https://api.osf.io/v2/files/66b5fded80f6852924a1afad/","move":"https://files.de-1.osf.io/v1/resources/c9rny/providers/osfstorage/66b5fded80f6852924a1afad","upload":"https://files.de-1.osf.io/v1/resources/c9rny/providers/osfstorage/66b5fded80f6852924a1afad","delete":"https://files.de-1.osf.io/v1/resources/c9rny/providers/osfstorage/66b5fded80f6852924a1afad","download":"https://osf.io/download/q5hfj/","render":"https://mfr.de-1.osf.io/render?url=https%3A%2F%2Fosf.io%2Fdownload%2Fq5hfj%2F%3Fdirect%26mode%3Drender","html":"https://osf.io/c9rny/files/osfstorage/66b5fded80f6852924a1afad","self":"https://api.osf.io/v2/files/66b5fded80f6852924a1afad/","iri":"https://osf.io/q5hfj"}},{"id":"66b5fded80f6852924a1afa7","type":"files","attributes":{"guid":"2rv9z","checkout":null,"name":"soscisubmissions.R","kind":"file","path":"/66b5fded80f6852924a1afa7","size":17196,"provider":"osfstorage","materialized_path":"/Archive of OSF Storage/2 Materials/Materials and Graphics/soscisubmissions.R","last_touched":null,"date_modified":"2024-06-07T15:26:29.659667","date_created":"2023-03-20T15:19:10.420847Z","extra":{"hashes":{"md5":"551c1ab8085ca993ef82a6f01c069f87","sha256":"59b09c63b1e1d2317cd565e80cffc88f88c77d70387cc3515d5bd9a7da5db5a4"},"downloads":2},"tags":[],"current_user_can_comment":false,"current_version":14,"show_as_unviewed":false},"relationships":{"parent_folder":{"links":{"related":{"href":"https://api.osf.io/v2/files/66b5fdec80f6852924a1afa2/","meta":{}}},"data":{"id":"66b5fdec80f6852924a1afa2","type":"files"}},"versions":{"links":{"related":{"href":"https://api.osf.io/v2/files/66b5fded80f6852924a1afa7/versions/","meta":{}}}},"comments":{"links":{"related":{"href":"https://api.osf.io/v2/registrations/c9rny/comments/?filter%5Btarget%5D=2rv9z","meta":{}}}},"node":{"links":{"related":{"href":"https://api.osf.io/v2/registrations/c9rny/","meta":{}}},"data":{"id":"c9rny","type":"registrations"}},"target":{"links":{"related":{"href":"https://api.osf.io/v2/registrations/c9rny/","meta":{"type":"registrations"}}},"data":{"type":"registrations","id":"c9rny"}},"cedar_metadata_records":{"links":{"related":{"href":"https://api.osf.io/v2/files/66b5fded80f6852924a1afa7/cedar_metadata_records/","meta":{}}}}},"links":{"info":"https://api.osf.io/v2/files/66b5fded80f6852924a1afa7/","move":"https://files.de-1.osf.io/v1/resources/c9rny/providers/osfstorage/66b5fded80f6852924a1afa7","upload":"https://files.de-1.osf.io/v1/resources/c9rny/providers/osfstorage/66b5fded80f6852924a1afa7","delete":"https://files.de-1.osf.io/v1/resources/c9rny/providers/osfstorage/66b5fded80f6852924a1afa7","download":"https://osf.io/download/2rv9z/","render":"https://mfr.de-1.osf.io/render?url=https%3A%2F%2Fosf.io%2Fdownload%2F2rv9z%2F%3Fdirect%26mode%3Drender","html":"https://osf.io/c9rny/files/osfstorage/66b5fded80f6852924a1afa7","self":"https://api.osf.io/v2/files/66b5fded80f6852924a1afa7/","iri":"https://osf.io/2rv9z"}},{"id":"66b5fded80f6852924a1afab","type":"files","attributes":{"guid":null,"checkout":null,"name":"datasubmission_template.xlsx","kind":"file","path":"/66b5fded80f6852924a1afab","size":21153,"provider":"osfstorage","materialized_path":"/Archive of OSF Storage/2 Materials/Materials and Graphics/datasubmission_template.xlsx","last_touched":null,"date_modified":"2023-01-20T16:02:17.008787","date_created":"2023-01-20T16:02:17.008787Z","extra":{"hashes":{"md5":"73da6a8cae585dad805bbda2c317918d","sha256":"434c3ef524fca0e1545a5c9e81589ba4d832d67781dbe30d4156381139c905c8"},"downloads":0},"tags":[],"current_user_can_comment":false,"current_version":1,"show_as_unviewed":false},"relationships":{"parent_folder":{"links":{"related":{"href":"https://api.osf.io/v2/files/66b5fdec80f6852924a1afa2/","meta":{}}},"data":{"id":"66b5fdec80f6852924a1afa2","type":"files"}},"versions":{"links":{"related":{"href":"https://api.osf.io/v2/files/66b5fded80f6852924a1afab/versions/","meta":{}}}},"node":{"links":{"related":{"href":"https://api.osf.io/v2/registrations/c9rny/","meta":{}}},"data":{"id":"c9rny","type":"registrations"}},"target":{"links":{"related":{"href":"https://api.osf.io/v2/registrations/c9rny/","meta":{"type":"registrations"}}},"data":{"type":"registrations","id":"c9rny"}},"cedar_metadata_records":{"links":{"related":{"href":"https://api.osf.io/v2/files/66b5fded80f6852924a1afab/cedar_metadata_records/","meta":{}}}}},"links":{"info":"https://api.osf.io/v2/files/66b5fded80f6852924a1afab/","move":"https://files.de-1.osf.io/v1/resources/c9rny/providers/osfstorage/66b5fded80f6852924a1afab","upload":"https://files.de-1.osf.io/v1/resources/c9rny/providers/osfstorage/66b5fded80f6852924a1afab","delete":"https://files.de-1.osf.io/v1/resources/c9rny/providers/osfstorage/66b5fded80f6852924a1afab","download":"https://osf.io/download/66b5fded80f6852924a1afab/","render":"https://mfr.de-1.osf.io/render?url=https%3A%2F%2Fosf.io%2Fdownload%2F66b5fded80f6852924a1afab%2F%3Fdirect%26mode%3Drender","html":"https://osf.io/c9rny/files/osfstorage/66b5fded80f6852924a1afab","self":"https://api.osf.io/v2/files/66b5fded80f6852924a1afab/"}},{"id":"66b5fded80f6852924a1afa8","type":"files","attributes":{"guid":"d5r7c","checkout":null,"name":"Calls for Results.xlsx","kind":"file","path":"/66b5fded80f6852924a1afa8","size":10655,"provider":"osfstorage","materialized_path":"/Archive of OSF Storage/2 Materials/Materials and Graphics/Calls for Results.xlsx","last_touched":null,"date_modified":"2023-04-04T14:09:50.899262","date_created":"2023-04-04T14:09:50.899262Z","extra":{"hashes":{"md5":"81d9a2867f3f9081ea6bd84dea70c269","sha256":"b336882e47909ab6a9cd18a92128c08b7e5cc058b2dacf449b67a40052c0e32e"},"downloads":0},"tags":[],"current_user_can_comment":false,"current_version":1,"show_as_unviewed":false},"relationships":{"parent_folder":{"links":{"related":{"href":"https://api.osf.io/v2/files/66b5fdec80f6852924a1afa2/","meta":{}}},"data":{"id":"66b5fdec80f6852924a1afa2","type":"files"}},"versions":{"links":{"related":{"href":"https://api.osf.io/v2/files/66b5fded80f6852924a1afa8/versions/","meta":{}}}},"comments":{"links":{"related":{"href":"https://api.osf.io/v2/registrations/c9rny/comments/?filter%5Btarget%5D=d5r7c","meta":{}}}},"node":{"links":{"related":{"href":"https://api.osf.io/v2/registrations/c9rny/","meta":{}}},"data":{"id":"c9rny","type":"registrations"}},"target":{"links":{"related":{"href":"https://api.osf.io/v2/registrations/c9rny/","meta":{"type":"registrations"}}},"data":{"type":"registrations","id":"c9rny"}},"cedar_metadata_records":{"links":{"related":{"href":"https://api.osf.io/v2/files/66b5fded80f6852924a1afa8/cedar_metadata_records/","meta":{}}}}},"links":{"info":"https://api.osf.io/v2/files/66b5fded80f6852924a1afa8/","move":"https://files.de-1.osf.io/v1/resources/c9rny/providers/osfstorage/66b5fded80f6852924a1afa8","upload":"https://files.de-1.osf.io/v1/resources/c9rny/providers/osfstorage/66b5fded80f6852924a1afa8","delete":"https://files.de-1.osf.io/v1/resources/c9rny/providers/osfstorage/66b5fded80f6852924a1afa8","download":"https://osf.io/download/d5r7c/","render":"https://mfr.de-1.osf.io/render?url=https%3A%2F%2Fosf.io%2Fdownload%2Fd5r7c%2F%3Fdirect%26mode%3Drender","html":"https://osf.io/c9rny/files/osfstorage/66b5fded80f6852924a1afa8","self":"https://api.osf.io/v2/files/66b5fded80f6852924a1afa8/","iri":"https://osf.io/d5r7c"}},{"id":"66b5fdec80f6852924a1afa3","type":"files","attributes":{"guid":"y3fm8","checkout":null,"name":"0_validation_process.docx","kind":"file","path":"/66b5fdec80f6852924a1afa3","size":91016,"provider":"osfstorage","materialized_path":"/Archive of OSF Storage/2 Materials/Materials and Graphics/0_validation_process.docx","last_touched":null,"date_modified":"2024-08-09T09:28:28.002118","date_created":"2024-08-09T09:28:28.002118Z","extra":{"hashes":{"md5":"a28fb7f1b084b860a3dc95cd394677db","sha256":"8abd7de6705f2eb4a4434151cc76931fbbaf946c3dc247e6e4f6f2598370160a"},"downloads":0},"tags":[],"current_user_can_comment":false,"current_version":1,"show_as_unviewed":false},"relationships":{"parent_folder":{"links":{"related":{"href":"https://api.osf.io/v2/files/66b5fdec80f6852924a1afa2/","meta":{}}},"data":{"id":"66b5fdec80f6852924a1afa2","type":"files"}},"versions":{"links":{"related":{"href":"https://api.osf.io/v2/files/66b5fdec80f6852924a1afa3/versions/","meta":{}}}},"comments":{"links":{"related":{"href":"https://api.osf.io/v2/registrations/c9rny/comments/?filter%5Btarget%5D=y3fm8","meta":{}}}},"node":{"links":{"related":{"href":"https://api.osf.io/v2/registrations/c9rny/","meta":{}}},"data":{"id":"c9rny","type":"registrations"}},"target":{"links":{"related":{"href":"https://api.osf.io/v2/registrations/c9rny/","meta":{"type":"registrations"}}},"data":{"type":"registrations","id":"c9rny"}},"cedar_metadata_records":{"links":{"related":{"href":"https://api.osf.io/v2/files/66b5fdec80f6852924a1afa3/cedar_metadata_records/","meta":{}}}}},"links":{"info":"https://api.osf.io/v2/files/66b5fdec80f6852924a1afa3/","move":"https://files.de-1.osf.io/v1/resources/c9rny/providers/osfstorage/66b5fdec80f6852924a1afa3","upload":"https://files.de-1.osf.io/v1/resources/c9rny/providers/osfstorage/66b5fdec80f6852924a1afa3","delete":"https://files.de-1.osf.io/v1/resources/c9rny/providers/osfstorage/66b5fdec80f6852924a1afa3","download":"https://osf.io/download/y3fm8/","render":"https://mfr.de-1.osf.io/render?url=https%3A%2F%2Fosf.io%2Fdownload%2Fy3fm8%2F%3Fdirect%26mode%3Drender","html":"https://osf.io/c9rny/files/osfstorage/66b5fdec80f6852924a1afa3","self":"https://api.osf.io/v2/files/66b5fdec80f6852924a1afa3/","iri":"https://osf.io/y3fm8"}},{"id":"66b5fded80f6852924a1afa5","type":"files","attributes":{"guid":null,"checkout":null,"name":"Instruktion_Kodierung.docx","kind":"file","path":"/66b5fded80f6852924a1afa5","size":15574,"provider":"osfstorage","materialized_path":"/Archive of OSF Storage/2 Materials/Materials and Graphics/Instruktion_Kodierung.docx","last_touched":null,"date_modified":"2023-01-20T16:03:12.714913","date_created":"2023-01-20T16:03:12.714913Z","extra":{"hashes":{"md5":"b0469af6dc2842195ded4768879f8c94","sha256":"8c6c35988748503ab4aaa7db875515bb6f4349f0f7705b4ae9c6afd3abe6091b"},"downloads":0},"tags":[],"current_user_can_comment":false,"current_version":1,"show_as_unviewed":false},"relationships":{"parent_folder":{"links":{"related":{"href":"https://api.osf.io/v2/files/66b5fdec80f6852924a1afa2/","meta":{}}},"data":{"id":"66b5fdec80f6852924a1afa2","type":"files"}},"versions":{"links":{"related":{"href":"https://api.osf.io/v2/files/66b5fded80f6852924a1afa5/versions/","meta":{}}}},"node":{"links":{"related":{"href":"https://api.osf.io/v2/registrations/c9rny/","meta":{}}},"data":{"id":"c9rny","type":"registrations"}},"target":{"links":{"related":{"href":"https://api.osf.io/v2/registrations/c9rny/","meta":{"type":"registrations"}}},"data":{"type":"registrations","id":"c9rny"}},"cedar_metadata_records":{"links":{"related":{"href":"https://api.osf.io/v2/files/66b5fded80f6852924a1afa5/cedar_metadata_records/","meta":{}}}}},"links":{"info":"https://api.osf.io/v2/files/66b5fded80f6852924a1afa5/","move":"https://files.de-1.osf.io/v1/resources/c9rny/providers/osfstorage/66b5fded80f6852924a1afa5","upload":"https://files.de-1.osf.io/v1/resources/c9rny/providers/osfstorage/66b5fded80f6852924a1afa5","delete":"https://files.de-1.osf.io/v1/resources/c9rny/providers/osfstorage/66b5fded80f6852924a1afa5","download":"https://osf.io/download/66b5fded80f6852924a1afa5/","render":"https://mfr.de-1.osf.io/render?url=https%3A%2F%2Fosf.io%2Fdownload%2F66b5fded80f6852924a1afa5%2F%3Fdirect%26mode%3Drender","html":"https://osf.io/c9rny/files/osfstorage/66b5fded80f6852924a1afa5","self":"https://api.osf.io/v2/files/66b5fded80f6852924a1afa5/"}},{"id":"66b5fded80f6852924a1afaf","type":"files","attributes":{"guid":null,"checkout":null,"name":"Call for Collaborators.pdf","kind":"file","path":"/66b5fded80f6852924a1afaf","size":84536,"provider":"osfstorage","materialized_path":"/Archive of OSF Storage/2 Materials/Materials and Graphics/Call for Collaborators.pdf","last_touched":null,"date_modified":"2024-05-31T14:53:40.201309","date_created":"2023-10-23T14:51:50.446390Z","extra":{"hashes":{"md5":"6f04f7947f18e0df78d207e5d25497ad","sha256":"279978eb72a1fb81631a8ce8b102257ca915d2fc9b61b2e055f4858280f71d1d"},"downloads":0},"tags":[],"current_user_can_comment":false,"current_version":2,"show_as_unviewed":false},"relationships":{"parent_folder":{"links":{"related":{"href":"https://api.osf.io/v2/files/66b5fdec80f6852924a1afa2/","meta":{}}},"data":{"id":"66b5fdec80f6852924a1afa2","type":"files"}},"versions":{"links":{"related":{"href":"https://api.osf.io/v2/files/66b5fded80f6852924a1afaf/versions/","meta":{}}}},"node":{"links":{"related":{"href":"https://api.osf.io/v2/registrations/c9rny/","meta":{}}},"data":{"id":"c9rny","type":"registrations"}},"target":{"links":{"related":{"href":"https://api.osf.io/v2/registrations/c9rny/","meta":{"type":"registrations"}}},"data":{"type":"registrations","id":"c9rny"}},"cedar_metadata_records":{"links":{"related":{"href":"https://api.osf.io/v2/files/66b5fded80f6852924a1afaf/cedar_metadata_records/","meta":{}}}}},"links":{"info":"https://api.osf.io/v2/files/66b5fded80f6852924a1afaf/","move":"https://files.de-1.osf.io/v1/resources/c9rny/providers/osfstorage/66b5fded80f6852924a1afaf","upload":"https://files.de-1.osf.io/v1/resources/c9rny/providers/osfstorage/66b5fded80f6852924a1afaf","delete":"https://files.de-1.osf.io/v1/resources/c9rny/providers/osfstorage/66b5fded80f6852924a1afaf","download":"https://osf.io/download/66b5fded80f6852924a1afaf/","render":"https://mfr.de-1.osf.io/render?url=https%3A%2F%2Fosf.io%2Fdownload%2F66b5fded80f6852924a1afaf%2F%3Fdirect%26mode%3Drender","html":"https://osf.io/c9rny/files/osfstorage/66b5fded80f6852924a1afaf","self":"https://api.osf.io/v2/files/66b5fded80f6852924a1afaf/"}},{"id":"66b5fded80f6852924a1afae","type":"files","attributes":{"guid":"47zwe","checkout":null,"name":"Entering_FORRTrr_into_ReD.docx.pdf","kind":"file","path":"/66b5fded80f6852924a1afae","size":879887,"provider":"osfstorage","materialized_path":"/Archive of OSF Storage/2 Materials/Materials and Graphics/Entering_FORRTrr_into_ReD.docx.pdf","last_touched":null,"date_modified":"2024-03-05T15:59:33.994062","date_created":"2024-03-05T15:59:33.994062Z","extra":{"hashes":{"md5":"01144ac33a2292f11227c7838a174662","sha256":"69d727fb9935b79e1bcb369b3735e8b3cb14c18334390c89169ee48d8e94204a"},"downloads":0},"tags":[],"current_user_can_comment":false,"current_version":1,"show_as_unviewed":false},"relationships":{"parent_folder":{"links":{"related":{"href":"https://api.osf.io/v2/files/66b5fdec80f6852924a1afa2/","meta":{}}},"data":{"id":"66b5fdec80f6852924a1afa2","type":"files"}},"versions":{"links":{"related":{"href":"https://api.osf.io/v2/files/66b5fded80f6852924a1afae/versions/","meta":{}}}},"comments":{"links":{"related":{"href":"https://api.osf.io/v2/registrations/c9rny/comments/?filter%5Btarget%5D=47zwe","meta":{}}}},"node":{"links":{"related":{"href":"https://api.osf.io/v2/registrations/c9rny/","meta":{}}},"data":{"id":"c9rny","type":"registrations"}},"target":{"links":{"related":{"href":"https://api.osf.io/v2/registrations/c9rny/","meta":{"type":"registrations"}}},"data":{"type":"registrations","id":"c9rny"}},"cedar_metadata_records":{"links":{"related":{"href":"https://api.osf.io/v2/files/66b5fded80f6852924a1afae/cedar_metadata_records/","meta":{}}}}},"links":{"info":"https://api.osf.io/v2/files/66b5fded80f6852924a1afae/","move":"https://files.de-1.osf.io/v1/resources/c9rny/providers/osfstorage/66b5fded80f6852924a1afae","upload":"https://files.de-1.osf.io/v1/resources/c9rny/providers/osfstorage/66b5fded80f6852924a1afae","delete":"https://files.de-1.osf.io/v1/resources/c9rny/providers/osfstorage/66b5fded80f6852924a1afae","download":"https://osf.io/download/47zwe/","render":"https://mfr.de-1.osf.io/render?url=https%3A%2F%2Fosf.io%2Fdownload%2F47zwe%2F%3Fdirect%26mode%3Drender","html":"https://osf.io/c9rny/files/osfstorage/66b5fded80f6852924a1afae","self":"https://api.osf.io/v2/files/66b5fded80f6852924a1afae/","iri":"https://osf.io/47zwe"}},{"id":"66b5fded80f6852924a1afac","type":"files","attributes":{"guid":null,"checkout":null,"name":"ESconversion.xlsx","kind":"file","path":"/66b5fded80f6852924a1afac","size":13677,"provider":"osfstorage","materialized_path":"/Archive of OSF Storage/2 Materials/Materials and Graphics/ESconversion.xlsx","last_touched":null,"date_modified":"2023-01-26T14:18:21.871054","date_created":"2023-01-26T14:18:21.871054Z","extra":{"hashes":{"md5":"53c881f0194c1e687132846b8b1654b5","sha256":"74f3d91c4bf826d013f589cf3c0e223c6964217d47ef3224793056179a64e23f"},"downloads":0},"tags":[],"current_user_can_comment":false,"current_version":1,"show_as_unviewed":false},"relationships":{"parent_folder":{"links":{"related":{"href":"https://api.osf.io/v2/files/66b5fdec80f6852924a1afa2/","meta":{}}},"data":{"id":"66b5fdec80f6852924a1afa2","type":"files"}},"versions":{"links":{"related":{"href":"https://api.osf.io/v2/files/66b5fded80f6852924a1afac/versions/","meta":{}}}},"node":{"links":{"related":{"href":"https://api.osf.io/v2/registrations/c9rny/","meta":{}}},"data":{"id":"c9rny","type":"registrations"}},"target":{"links":{"related":{"href":"https://api.osf.io/v2/registrations/c9rny/","meta":{"type":"registrations"}}},"data":{"type":"registrations","id":"c9rny"}},"cedar_metadata_records":{"links":{"related":{"href":"https://api.osf.io/v2/files/66b5fded80f6852924a1afac/cedar_metadata_records/","meta":{}}}}},"links":{"info":"https://api.osf.io/v2/files/66b5fded80f6852924a1afac/","move":"https://files.de-1.osf.io/v1/resources/c9rny/providers/osfstorage/66b5fded80f6852924a1afac","upload":"https://files.de-1.osf.io/v1/resources/c9rny/providers/osfstorage/66b5fded80f6852924a1afac","delete":"https://files.de-1.osf.io/v1/resources/c9rny/providers/osfstorage/66b5fded80f6852924a1afac","download":"https://osf.io/download/66b5fded80f6852924a1afac/","render":"https://mfr.de-1.osf.io/render?url=https%3A%2F%2Fosf.io%2Fdownload%2F66b5fded80f6852924a1afac%2F%3Fdirect%26mode%3Drender","html":"https://osf.io/c9rny/files/osfstorage/66b5fded80f6852924a1afac","self":"https://api.osf.io/v2/files/66b5fded80f6852924a1afac/"}}],"links":{"first":null,"last":"https://api.osf.io/v2/registrations/c9rny/files/osfstorage/66b5fdec80f6852924a1afa2/?page=2","prev":null,"next":"https://api.osf.io/v2/registrations/c9rny/files/osfstorage/66b5fdec80f6852924a1afa2/?page=2","meta":{"total":14,"per_page":10}},"meta":{"version":"2.0"}}