{"data":[{"id":"5b85ac695f932f001ba50a2d","type":"files","attributes":{"guid":"gd567","checkout":null,"name":"clean_dois_filenames.py","kind":"file","path":"/5b85ac695f932f001ba50a2d","size":842,"provider":"osfstorage","materialized_path":"/Selection of Experiments/Code/clean_dois_filenames.py","last_touched":null,"date_modified":"2018-08-28T20:11:21.463863","date_created":"2018-08-28T20:11:21.463863Z","extra":{"hashes":{"md5":"4adaed1ce078012a0c46a3d0659eac2d","sha256":"726e682b324c2d36c32c55d3cd6e43de3751d567754d718e3246fba5b0af54cb"},"downloads":9},"tags":[],"current_user_can_comment":false,"current_version":1,"show_as_unviewed":false},"relationships":{"parent_folder":{"links":{"related":{"href":"https://api.osf.io/v2/files/5b85ac215f932f0019a55f06/","meta":{}}},"data":{"id":"5b85ac215f932f0019a55f06","type":"files"}},"versions":{"links":{"related":{"href":"https://api.osf.io/v2/files/5b85ac695f932f001ba50a2d/versions/","meta":{}}}},"comments":{"links":{"related":{"href":"https://api.osf.io/v2/nodes/6av7k/comments/?filter%5Btarget%5D=gd567","meta":{}}}},"node":{"links":{"related":{"href":"https://api.osf.io/v2/nodes/6av7k/","meta":{}}},"data":{"id":"6av7k","type":"nodes"}},"target":{"links":{"related":{"href":"https://api.osf.io/v2/nodes/6av7k/","meta":{"type":"nodes"}}},"data":{"type":"nodes","id":"6av7k"}},"cedar_metadata_records":{"links":{"related":{"href":"https://api.osf.io/v2/files/5b85ac695f932f001ba50a2d/cedar_metadata_records/","meta":{}}}}},"links":{"info":"https://api.osf.io/v2/files/5b85ac695f932f001ba50a2d/","move":"https://files.osf.io/v1/resources/6av7k/providers/osfstorage/5b85ac695f932f001ba50a2d","upload":"https://files.osf.io/v1/resources/6av7k/providers/osfstorage/5b85ac695f932f001ba50a2d","delete":"https://files.osf.io/v1/resources/6av7k/providers/osfstorage/5b85ac695f932f001ba50a2d","download":"https://osf.io/download/gd567/","render":"https://mfr.osf.io/render?url=https%3A%2F%2Fosf.io%2Fdownload%2Fgd567%2F%3Fdirect%26mode%3Drender","html":"https://osf.io/6av7k/files/osfstorage/5b85ac695f932f001ba50a2d","self":"https://api.osf.io/v2/files/5b85ac695f932f001ba50a2d/","iri":"https://osf.io/gd567"}},{"id":"672baf1e69302f39ecf5c83d","type":"files","attributes":{"guid":"4sy2g","checkout":null,"name":"Experiment_Selection_Code.zip","kind":"file","path":"/672baf1e69302f39ecf5c83d","size":23107,"provider":"osfstorage","materialized_path":"/Selection of Experiments/Code/Experiment_Selection_Code.zip","last_touched":null,"date_modified":"2024-11-06T18:02:06.474744","date_created":"2024-11-06T18:02:06.474744Z","extra":{"hashes":{"md5":"02b79d268ab55fe61d3fb54922260435","sha256":"bcdcbfb04e6e5f16c0ecc0f5d9f6016ec828a3dada5d6a24096d7a0853d99e55"},"downloads":8},"tags":[],"current_user_can_comment":false,"current_version":1,"show_as_unviewed":false},"relationships":{"parent_folder":{"links":{"related":{"href":"https://api.osf.io/v2/files/5b85ac215f932f0019a55f06/","meta":{}}},"data":{"id":"5b85ac215f932f0019a55f06","type":"files"}},"versions":{"links":{"related":{"href":"https://api.osf.io/v2/files/672baf1e69302f39ecf5c83d/versions/","meta":{}}}},"comments":{"links":{"related":{"href":"https://api.osf.io/v2/nodes/6av7k/comments/?filter%5Btarget%5D=4sy2g","meta":{}}}},"node":{"links":{"related":{"href":"https://api.osf.io/v2/nodes/6av7k/","meta":{}}},"data":{"id":"6av7k","type":"nodes"}},"target":{"links":{"related":{"href":"https://api.osf.io/v2/nodes/6av7k/","meta":{"type":"nodes"}}},"data":{"type":"nodes","id":"6av7k"}},"cedar_metadata_records":{"links":{"related":{"href":"https://api.osf.io/v2/files/672baf1e69302f39ecf5c83d/cedar_metadata_records/","meta":{}}}}},"links":{"info":"https://api.osf.io/v2/files/672baf1e69302f39ecf5c83d/","move":"https://files.osf.io/v1/resources/6av7k/providers/osfstorage/672baf1e69302f39ecf5c83d","upload":"https://files.osf.io/v1/resources/6av7k/providers/osfstorage/672baf1e69302f39ecf5c83d","delete":"https://files.osf.io/v1/resources/6av7k/providers/osfstorage/672baf1e69302f39ecf5c83d","download":"https://osf.io/download/4sy2g/","render":"https://mfr.osf.io/render?url=https%3A%2F%2Fosf.io%2Fdownload%2F4sy2g%2F%3Fdirect%26mode%3Drender","html":"https://osf.io/6av7k/files/osfstorage/672baf1e69302f39ecf5c83d","self":"https://api.osf.io/v2/files/672baf1e69302f39ecf5c83d/","iri":"https://osf.io/4sy2g"}},{"id":"5b85ac6a465d21001608a5df","type":"files","attributes":{"guid":"a3bnw","checkout":null,"name":"merge_wos_results.r","kind":"file","path":"/5b85ac6a465d21001608a5df","size":2254,"provider":"osfstorage","materialized_path":"/Selection of Experiments/Code/merge_wos_results.r","last_touched":null,"date_modified":"2018-08-28T20:11:22.294452","date_created":"2018-08-28T20:11:22.294452Z","extra":{"hashes":{"md5":"1ccc64150e791eb50fe3cc4330f17597","sha256":"67bbd8e6183e0795a6be9277e7003cf0aeb702a6d6794996157059e6a7e79374"},"downloads":22},"tags":[],"current_user_can_comment":false,"current_version":1,"show_as_unviewed":false},"relationships":{"parent_folder":{"links":{"related":{"href":"https://api.osf.io/v2/files/5b85ac215f932f0019a55f06/","meta":{}}},"data":{"id":"5b85ac215f932f0019a55f06","type":"files"}},"versions":{"links":{"related":{"href":"https://api.osf.io/v2/files/5b85ac6a465d21001608a5df/versions/","meta":{}}}},"comments":{"links":{"related":{"href":"https://api.osf.io/v2/nodes/6av7k/comments/?filter%5Btarget%5D=a3bnw","meta":{}}}},"node":{"links":{"related":{"href":"https://api.osf.io/v2/nodes/6av7k/","meta":{}}},"data":{"id":"6av7k","type":"nodes"}},"target":{"links":{"related":{"href":"https://api.osf.io/v2/nodes/6av7k/","meta":{"type":"nodes"}}},"data":{"type":"nodes","id":"6av7k"}},"cedar_metadata_records":{"links":{"related":{"href":"https://api.osf.io/v2/files/5b85ac6a465d21001608a5df/cedar_metadata_records/","meta":{}}}}},"links":{"info":"https://api.osf.io/v2/files/5b85ac6a465d21001608a5df/","move":"https://files.osf.io/v1/resources/6av7k/providers/osfstorage/5b85ac6a465d21001608a5df","upload":"https://files.osf.io/v1/resources/6av7k/providers/osfstorage/5b85ac6a465d21001608a5df","delete":"https://files.osf.io/v1/resources/6av7k/providers/osfstorage/5b85ac6a465d21001608a5df","download":"https://osf.io/download/a3bnw/","render":"https://mfr.osf.io/render?url=https%3A%2F%2Fosf.io%2Fdownload%2Fa3bnw%2F%3Fdirect%26mode%3Drender","html":"https://osf.io/6av7k/files/osfstorage/5b85ac6a465d21001608a5df","self":"https://api.osf.io/v2/files/5b85ac6a465d21001608a5df/","iri":"https://osf.io/a3bnw"}},{"id":"5b85ac4f465d21001508043e","type":"files","attributes":{"guid":"bwpzj","checkout":null,"name":"get_fulltext.r","kind":"file","path":"/5b85ac4f465d21001508043e","size":2902,"provider":"osfstorage","materialized_path":"/Selection of Experiments/Code/get_fulltext.r","last_touched":null,"date_modified":"2018-08-28T20:10:55.558620","date_created":"2018-08-28T20:10:55.558620Z","extra":{"hashes":{"md5":"56516b5f758768250de78e9211dc4981","sha256":"f0b8180c3b279d49d37412eed1cb72284747af125ae3e57486555460a648bcc8"},"downloads":7},"tags":[],"current_user_can_comment":false,"current_version":1,"show_as_unviewed":false},"relationships":{"parent_folder":{"links":{"related":{"href":"https://api.osf.io/v2/files/5b85ac215f932f0019a55f06/","meta":{}}},"data":{"id":"5b85ac215f932f0019a55f06","type":"files"}},"versions":{"links":{"related":{"href":"https://api.osf.io/v2/files/5b85ac4f465d21001508043e/versions/","meta":{}}}},"comments":{"links":{"related":{"href":"https://api.osf.io/v2/nodes/6av7k/comments/?filter%5Btarget%5D=bwpzj","meta":{}}}},"node":{"links":{"related":{"href":"https://api.osf.io/v2/nodes/6av7k/","meta":{}}},"data":{"id":"6av7k","type":"nodes"}},"target":{"links":{"related":{"href":"https://api.osf.io/v2/nodes/6av7k/","meta":{"type":"nodes"}}},"data":{"type":"nodes","id":"6av7k"}},"cedar_metadata_records":{"links":{"related":{"href":"https://api.osf.io/v2/files/5b85ac4f465d21001508043e/cedar_metadata_records/","meta":{}}}}},"links":{"info":"https://api.osf.io/v2/files/5b85ac4f465d21001508043e/","move":"https://files.osf.io/v1/resources/6av7k/providers/osfstorage/5b85ac4f465d21001508043e","upload":"https://files.osf.io/v1/resources/6av7k/providers/osfstorage/5b85ac4f465d21001508043e","delete":"https://files.osf.io/v1/resources/6av7k/providers/osfstorage/5b85ac4f465d21001508043e","download":"https://osf.io/download/bwpzj/","render":"https://mfr.osf.io/render?url=https%3A%2F%2Fosf.io%2Fdownload%2Fbwpzj%2F%3Fdirect%26mode%3Drender","html":"https://osf.io/6av7k/files/osfstorage/5b85ac4f465d21001508043e","self":"https://api.osf.io/v2/files/5b85ac4f465d21001508043e/","iri":"https://osf.io/bwpzj"}},{"id":"5b85ac6a5f932f001ba50a30","type":"files","attributes":{"guid":"3xmfv","checkout":null,"name":"shuffle_results.r","kind":"file","path":"/5b85ac6a5f932f001ba50a30","size":1796,"provider":"osfstorage","materialized_path":"/Selection of Experiments/Code/shuffle_results.r","last_touched":null,"date_modified":"2018-08-28T20:11:22.306587","date_created":"2018-08-28T20:11:22.306587Z","extra":{"hashes":{"md5":"52cd950287ffbdb06040003ad00c9d70","sha256":"78bfeecc3ce29d52aa94e68ac6ea194b1b1dc5bdfe2d7bf03336666fbc9507e7"},"downloads":15},"tags":[],"current_user_can_comment":false,"current_version":1,"show_as_unviewed":false},"relationships":{"parent_folder":{"links":{"related":{"href":"https://api.osf.io/v2/files/5b85ac215f932f0019a55f06/","meta":{}}},"data":{"id":"5b85ac215f932f0019a55f06","type":"files"}},"versions":{"links":{"related":{"href":"https://api.osf.io/v2/files/5b85ac6a5f932f001ba50a30/versions/","meta":{}}}},"comments":{"links":{"related":{"href":"https://api.osf.io/v2/nodes/6av7k/comments/?filter%5Btarget%5D=3xmfv","meta":{}}}},"node":{"links":{"related":{"href":"https://api.osf.io/v2/nodes/6av7k/","meta":{}}},"data":{"id":"6av7k","type":"nodes"}},"target":{"links":{"related":{"href":"https://api.osf.io/v2/nodes/6av7k/","meta":{"type":"nodes"}}},"data":{"type":"nodes","id":"6av7k"}},"cedar_metadata_records":{"links":{"related":{"href":"https://api.osf.io/v2/files/5b85ac6a5f932f001ba50a30/cedar_metadata_records/","meta":{}}}}},"links":{"info":"https://api.osf.io/v2/files/5b85ac6a5f932f001ba50a30/","move":"https://files.osf.io/v1/resources/6av7k/providers/osfstorage/5b85ac6a5f932f001ba50a30","upload":"https://files.osf.io/v1/resources/6av7k/providers/osfstorage/5b85ac6a5f932f001ba50a30","delete":"https://files.osf.io/v1/resources/6av7k/providers/osfstorage/5b85ac6a5f932f001ba50a30","download":"https://osf.io/download/3xmfv/","render":"https://mfr.osf.io/render?url=https%3A%2F%2Fosf.io%2Fdownload%2F3xmfv%2F%3Fdirect%26mode%3Drender","html":"https://osf.io/6av7k/files/osfstorage/5b85ac6a5f932f001ba50a30","self":"https://api.osf.io/v2/files/5b85ac6a5f932f001ba50a30/","iri":"https://osf.io/3xmfv"}},{"id":"5b85ac69465d21001707c86e","type":"files","attributes":{"guid":"tf459","checkout":null,"name":"sample_from_results.r","kind":"file","path":"/5b85ac69465d21001707c86e","size":2189,"provider":"osfstorage","materialized_path":"/Selection of Experiments/Code/sample_from_results.r","last_touched":null,"date_modified":"2018-08-28T20:11:21.492215","date_created":"2018-08-28T20:11:21.492215Z","extra":{"hashes":{"md5":"c4c03ebb1c673e66b19619f8c4ef6cda","sha256":"64d5350a32d66e80c8565231733d15600e3cca0a6ea58c69e4215671f09a02c3"},"downloads":8},"tags":[],"current_user_can_comment":false,"current_version":1,"show_as_unviewed":false},"relationships":{"parent_folder":{"links":{"related":{"href":"https://api.osf.io/v2/files/5b85ac215f932f0019a55f06/","meta":{}}},"data":{"id":"5b85ac215f932f0019a55f06","type":"files"}},"versions":{"links":{"related":{"href":"https://api.osf.io/v2/files/5b85ac69465d21001707c86e/versions/","meta":{}}}},"comments":{"links":{"related":{"href":"https://api.osf.io/v2/nodes/6av7k/comments/?filter%5Btarget%5D=tf459","meta":{}}}},"node":{"links":{"related":{"href":"https://api.osf.io/v2/nodes/6av7k/","meta":{}}},"data":{"id":"6av7k","type":"nodes"}},"target":{"links":{"related":{"href":"https://api.osf.io/v2/nodes/6av7k/","meta":{"type":"nodes"}}},"data":{"type":"nodes","id":"6av7k"}},"cedar_metadata_records":{"links":{"related":{"href":"https://api.osf.io/v2/files/5b85ac69465d21001707c86e/cedar_metadata_records/","meta":{}}}}},"links":{"info":"https://api.osf.io/v2/files/5b85ac69465d21001707c86e/","move":"https://files.osf.io/v1/resources/6av7k/providers/osfstorage/5b85ac69465d21001707c86e","upload":"https://files.osf.io/v1/resources/6av7k/providers/osfstorage/5b85ac69465d21001707c86e","delete":"https://files.osf.io/v1/resources/6av7k/providers/osfstorage/5b85ac69465d21001707c86e","download":"https://osf.io/download/tf459/","render":"https://mfr.osf.io/render?url=https%3A%2F%2Fosf.io%2Fdownload%2Ftf459%2F%3Fdirect%26mode%3Drender","html":"https://osf.io/6av7k/files/osfstorage/5b85ac69465d21001707c86e","self":"https://api.osf.io/v2/files/5b85ac69465d21001707c86e/","iri":"https://osf.io/tf459"}},{"id":"5b85ac5d465d210015080451","type":"files","attributes":{"guid":"gbew9","checkout":null,"name":"get_results_sheet.r","kind":"file","path":"/5b85ac5d465d210015080451","size":3325,"provider":"osfstorage","materialized_path":"/Selection of Experiments/Code/get_results_sheet.r","last_touched":null,"date_modified":"2018-08-28T20:11:09.085776","date_created":"2018-08-28T20:11:09.085776Z","extra":{"hashes":{"md5":"d0a499f7e503a2a892400bd9d402af16","sha256":"e83ec085f66db3420ae3f6073d055c301d63dad4e6b064dbb787e65984d2bd7a"},"downloads":7},"tags":[],"current_user_can_comment":false,"current_version":1,"show_as_unviewed":false},"relationships":{"parent_folder":{"links":{"related":{"href":"https://api.osf.io/v2/files/5b85ac215f932f0019a55f06/","meta":{}}},"data":{"id":"5b85ac215f932f0019a55f06","type":"files"}},"versions":{"links":{"related":{"href":"https://api.osf.io/v2/files/5b85ac5d465d210015080451/versions/","meta":{}}}},"comments":{"links":{"related":{"href":"https://api.osf.io/v2/nodes/6av7k/comments/?filter%5Btarget%5D=gbew9","meta":{}}}},"node":{"links":{"related":{"href":"https://api.osf.io/v2/nodes/6av7k/","meta":{}}},"data":{"id":"6av7k","type":"nodes"}},"target":{"links":{"related":{"href":"https://api.osf.io/v2/nodes/6av7k/","meta":{"type":"nodes"}}},"data":{"type":"nodes","id":"6av7k"}},"cedar_metadata_records":{"links":{"related":{"href":"https://api.osf.io/v2/files/5b85ac5d465d210015080451/cedar_metadata_records/","meta":{}}}}},"links":{"info":"https://api.osf.io/v2/files/5b85ac5d465d210015080451/","move":"https://files.osf.io/v1/resources/6av7k/providers/osfstorage/5b85ac5d465d210015080451","upload":"https://files.osf.io/v1/resources/6av7k/providers/osfstorage/5b85ac5d465d210015080451","delete":"https://files.osf.io/v1/resources/6av7k/providers/osfstorage/5b85ac5d465d210015080451","download":"https://osf.io/download/gbew9/","render":"https://mfr.osf.io/render?url=https%3A%2F%2Fosf.io%2Fdownload%2Fgbew9%2F%3Fdirect%26mode%3Drender","html":"https://osf.io/6av7k/files/osfstorage/5b85ac5d465d210015080451","self":"https://api.osf.io/v2/files/5b85ac5d465d210015080451/","iri":"https://osf.io/gbew9"}},{"id":"5b85ac5d465d21001808175f","type":"files","attributes":{"guid":"d74wp","checkout":null,"name":"count_occurrences.r","kind":"file","path":"/5b85ac5d465d21001808175f","size":3658,"provider":"osfstorage","materialized_path":"/Selection of Experiments/Code/count_occurrences.r","last_touched":null,"date_modified":"2018-08-28T20:11:09.884283","date_created":"2018-08-28T20:11:09.884283Z","extra":{"hashes":{"md5":"39c13fa9f0bf609ff6934482dc26a426","sha256":"88c393fbc0ae292e1dd5560a1e94dbbcd14eff8765baab10ef64ac04e0984da6"},"downloads":7},"tags":[],"current_user_can_comment":false,"current_version":1,"show_as_unviewed":false},"relationships":{"parent_folder":{"links":{"related":{"href":"https://api.osf.io/v2/files/5b85ac215f932f0019a55f06/","meta":{}}},"data":{"id":"5b85ac215f932f0019a55f06","type":"files"}},"versions":{"links":{"related":{"href":"https://api.osf.io/v2/files/5b85ac5d465d21001808175f/versions/","meta":{}}}},"comments":{"links":{"related":{"href":"https://api.osf.io/v2/nodes/6av7k/comments/?filter%5Btarget%5D=d74wp","meta":{}}}},"node":{"links":{"related":{"href":"https://api.osf.io/v2/nodes/6av7k/","meta":{}}},"data":{"id":"6av7k","type":"nodes"}},"target":{"links":{"related":{"href":"https://api.osf.io/v2/nodes/6av7k/","meta":{"type":"nodes"}}},"data":{"type":"nodes","id":"6av7k"}},"cedar_metadata_records":{"links":{"related":{"href":"https://api.osf.io/v2/files/5b85ac5d465d21001808175f/cedar_metadata_records/","meta":{}}}}},"links":{"info":"https://api.osf.io/v2/files/5b85ac5d465d21001808175f/","move":"https://files.osf.io/v1/resources/6av7k/providers/osfstorage/5b85ac5d465d21001808175f","upload":"https://files.osf.io/v1/resources/6av7k/providers/osfstorage/5b85ac5d465d21001808175f","delete":"https://files.osf.io/v1/resources/6av7k/providers/osfstorage/5b85ac5d465d21001808175f","download":"https://osf.io/download/d74wp/","render":"https://mfr.osf.io/render?url=https%3A%2F%2Fosf.io%2Fdownload%2Fd74wp%2F%3Fdirect%26mode%3Drender","html":"https://osf.io/6av7k/files/osfstorage/5b85ac5d465d21001808175f","self":"https://api.osf.io/v2/files/5b85ac5d465d21001808175f/","iri":"https://osf.io/d74wp"}},{"id":"5b85ac5d5f932f001ca50a15","type":"files","attributes":{"guid":"gqs3u","checkout":null,"name":"search_text_files.r","kind":"file","path":"/5b85ac5d5f932f001ca50a15","size":2587,"provider":"osfstorage","materialized_path":"/Selection of Experiments/Code/search_text_files.r","last_touched":null,"date_modified":"2018-08-28T20:11:09.526340","date_created":"2018-08-28T20:11:09.526340Z","extra":{"hashes":{"md5":"ea37b6c99c7da76391fb3ca8baf0913e","sha256":"3441976cc065cb14dfc173efb8f99f997d8ac4ff22da2dc962624855e7038906"},"downloads":6},"tags":[],"current_user_can_comment":false,"current_version":1,"show_as_unviewed":false},"relationships":{"parent_folder":{"links":{"related":{"href":"https://api.osf.io/v2/files/5b85ac215f932f0019a55f06/","meta":{}}},"data":{"id":"5b85ac215f932f0019a55f06","type":"files"}},"versions":{"links":{"related":{"href":"https://api.osf.io/v2/files/5b85ac5d5f932f001ca50a15/versions/","meta":{}}}},"comments":{"links":{"related":{"href":"https://api.osf.io/v2/nodes/6av7k/comments/?filter%5Btarget%5D=gqs3u","meta":{}}}},"node":{"links":{"related":{"href":"https://api.osf.io/v2/nodes/6av7k/","meta":{}}},"data":{"id":"6av7k","type":"nodes"}},"target":{"links":{"related":{"href":"https://api.osf.io/v2/nodes/6av7k/","meta":{"type":"nodes"}}},"data":{"type":"nodes","id":"6av7k"}},"cedar_metadata_records":{"links":{"related":{"href":"https://api.osf.io/v2/files/5b85ac5d5f932f001ca50a15/cedar_metadata_records/","meta":{}}}}},"links":{"info":"https://api.osf.io/v2/files/5b85ac5d5f932f001ca50a15/","move":"https://files.osf.io/v1/resources/6av7k/providers/osfstorage/5b85ac5d5f932f001ca50a15","upload":"https://files.osf.io/v1/resources/6av7k/providers/osfstorage/5b85ac5d5f932f001ca50a15","delete":"https://files.osf.io/v1/resources/6av7k/providers/osfstorage/5b85ac5d5f932f001ca50a15","download":"https://osf.io/download/gqs3u/","render":"https://mfr.osf.io/render?url=https%3A%2F%2Fosf.io%2Fdownload%2Fgqs3u%2F%3Fdirect%26mode%3Drender","html":"https://osf.io/6av7k/files/osfstorage/5b85ac5d5f932f001ca50a15","self":"https://api.osf.io/v2/files/5b85ac5d5f932f001ca50a15/","iri":"https://osf.io/gqs3u"}},{"id":"5b85ac635f932f0019a55f60","type":"files","attributes":{"guid":"j5y7s","checkout":null,"name":"pdf2text.r","kind":"file","path":"/5b85ac635f932f0019a55f60","size":1639,"provider":"osfstorage","materialized_path":"/Selection of Experiments/Code/pdf2text.r","last_touched":null,"date_modified":"2018-08-28T20:11:15.214167","date_created":"2018-08-28T20:11:15.214167Z","extra":{"hashes":{"md5":"09a3655a107c98537098bdce531954ec","sha256":"c9e4bf76030c80ebc4443ef60c18f51b84c9343bfab647b7bdd85114d389063e"},"downloads":13},"tags":[],"current_user_can_comment":false,"current_version":1,"show_as_unviewed":false},"relationships":{"parent_folder":{"links":{"related":{"href":"https://api.osf.io/v2/files/5b85ac215f932f0019a55f06/","meta":{}}},"data":{"id":"5b85ac215f932f0019a55f06","type":"files"}},"versions":{"links":{"related":{"href":"https://api.osf.io/v2/files/5b85ac635f932f0019a55f60/versions/","meta":{}}}},"comments":{"links":{"related":{"href":"https://api.osf.io/v2/nodes/6av7k/comments/?filter%5Btarget%5D=j5y7s","meta":{}}}},"node":{"links":{"related":{"href":"https://api.osf.io/v2/nodes/6av7k/","meta":{}}},"data":{"id":"6av7k","type":"nodes"}},"target":{"links":{"related":{"href":"https://api.osf.io/v2/nodes/6av7k/","meta":{"type":"nodes"}}},"data":{"type":"nodes","id":"6av7k"}},"cedar_metadata_records":{"links":{"related":{"href":"https://api.osf.io/v2/files/5b85ac635f932f0019a55f60/cedar_metadata_records/","meta":{}}}}},"links":{"info":"https://api.osf.io/v2/files/5b85ac635f932f0019a55f60/","move":"https://files.osf.io/v1/resources/6av7k/providers/osfstorage/5b85ac635f932f0019a55f60","upload":"https://files.osf.io/v1/resources/6av7k/providers/osfstorage/5b85ac635f932f0019a55f60","delete":"https://files.osf.io/v1/resources/6av7k/providers/osfstorage/5b85ac635f932f0019a55f60","download":"https://osf.io/download/j5y7s/","render":"https://mfr.osf.io/render?url=https%3A%2F%2Fosf.io%2Fdownload%2Fj5y7s%2F%3Fdirect%26mode%3Drender","html":"https://osf.io/6av7k/files/osfstorage/5b85ac635f932f0019a55f60","self":"https://api.osf.io/v2/files/5b85ac635f932f0019a55f60/","iri":"https://osf.io/j5y7s"}}],"links":{"first":null,"last":"https://api.osf.io/v2/nodes/6av7k/files/osfstorage/5b85ac215f932f0019a55f06/?page=2","prev":null,"next":"https://api.osf.io/v2/nodes/6av7k/files/osfstorage/5b85ac215f932f0019a55f06/?page=2","meta":{"total":11,"per_page":10}},"meta":{"version":"2.0"}}