{"data":[{"id":"66a3b0b6e29e0dc78d23fb9c","type":"files","attributes":{"guid":"txdnz","checkout":null,"name":"FReD_1.6.0.xlsx","kind":"file","path":"/66a3b0b6e29e0dc78d23fb9c","size":2593814,"provider":"osfstorage","materialized_path":"/0 Data/Archive/FReD_1.6.0.xlsx","last_touched":null,"date_modified":"2024-07-26T14:20:38.787332","date_created":"2024-07-26T14:20:38.787332Z","extra":{"hashes":{"md5":"ee05468166f979c44fd989a691a4e242","sha256":"b7340185c4c3bf048639766a5449f3cf403e88946f179862b42327666770ba53"},"downloads":3},"tags":[],"current_user_can_comment":false,"current_version":1,"show_as_unviewed":false},"relationships":{"parent_folder":{"links":{"related":{"href":"https://api.osf.io/v2/files/641b06fac74723165c10abd9/","meta":{}}},"data":{"id":"641b06fac74723165c10abd9","type":"files"}},"versions":{"links":{"related":{"href":"https://api.osf.io/v2/files/66a3b0b6e29e0dc78d23fb9c/versions/","meta":{}}}},"comments":{"links":{"related":{"href":"https://api.osf.io/v2/nodes/9r62x/comments/?filter%5Btarget%5D=txdnz","meta":{}}}},"node":{"links":{"related":{"href":"https://api.osf.io/v2/nodes/9r62x/","meta":{}}},"data":{"id":"9r62x","type":"nodes"}},"target":{"links":{"related":{"href":"https://api.osf.io/v2/nodes/9r62x/","meta":{"type":"nodes"}}},"data":{"type":"nodes","id":"9r62x"}},"cedar_metadata_records":{"links":{"related":{"href":"https://api.osf.io/v2/files/66a3b0b6e29e0dc78d23fb9c/cedar_metadata_records/","meta":{}}}}},"links":{"info":"https://api.osf.io/v2/files/66a3b0b6e29e0dc78d23fb9c/","move":"https://files.de-1.osf.io/v1/resources/9r62x/providers/osfstorage/66a3b0b6e29e0dc78d23fb9c","upload":"https://files.de-1.osf.io/v1/resources/9r62x/providers/osfstorage/66a3b0b6e29e0dc78d23fb9c","delete":"https://files.de-1.osf.io/v1/resources/9r62x/providers/osfstorage/66a3b0b6e29e0dc78d23fb9c","download":"https://osf.io/download/txdnz/","render":"https://mfr.de-1.osf.io/render?url=https%3A%2F%2Fosf.io%2Fdownload%2Ftxdnz%2F%3Fdirect%26mode%3Drender","html":"https://osf.io/9r62x/files/osfstorage/66a3b0b6e29e0dc78d23fb9c","self":"https://api.osf.io/v2/files/66a3b0b6e29e0dc78d23fb9c/","iri":"https://osf.io/txdnz"}},{"id":"65ddb97c325de50047dd09b0","type":"files","attributes":{"guid":"sgqnk","checkout":null,"name":"FReD_1.2.2.xlsx","kind":"file","path":"/65ddb97c325de50047dd09b0","size":1768407,"provider":"osfstorage","materialized_path":"/0 Data/Archive/FReD_1.2.2.xlsx","last_touched":null,"date_modified":"2024-02-27T10:29:16.838664","date_created":"2024-02-27T10:29:16.838664Z","extra":{"hashes":{"md5":"610917f9a741cf71c11dbfd6942dac9f","sha256":"6bea22c07133c708a8cd93f753290a84d957f14b126aa3ce0453ba9cc2237b84"},"downloads":5},"tags":[],"current_user_can_comment":false,"current_version":1,"show_as_unviewed":false},"relationships":{"parent_folder":{"links":{"related":{"href":"https://api.osf.io/v2/files/641b06fac74723165c10abd9/","meta":{}}},"data":{"id":"641b06fac74723165c10abd9","type":"files"}},"versions":{"links":{"related":{"href":"https://api.osf.io/v2/files/65ddb97c325de50047dd09b0/versions/","meta":{}}}},"comments":{"links":{"related":{"href":"https://api.osf.io/v2/nodes/9r62x/comments/?filter%5Btarget%5D=sgqnk","meta":{}}}},"node":{"links":{"related":{"href":"https://api.osf.io/v2/nodes/9r62x/","meta":{}}},"data":{"id":"9r62x","type":"nodes"}},"target":{"links":{"related":{"href":"https://api.osf.io/v2/nodes/9r62x/","meta":{"type":"nodes"}}},"data":{"type":"nodes","id":"9r62x"}},"cedar_metadata_records":{"links":{"related":{"href":"https://api.osf.io/v2/files/65ddb97c325de50047dd09b0/cedar_metadata_records/","meta":{}}}}},"links":{"info":"https://api.osf.io/v2/files/65ddb97c325de50047dd09b0/","move":"https://files.de-1.osf.io/v1/resources/9r62x/providers/osfstorage/65ddb97c325de50047dd09b0","upload":"https://files.de-1.osf.io/v1/resources/9r62x/providers/osfstorage/65ddb97c325de50047dd09b0","delete":"https://files.de-1.osf.io/v1/resources/9r62x/providers/osfstorage/65ddb97c325de50047dd09b0","download":"https://osf.io/download/sgqnk/","render":"https://mfr.de-1.osf.io/render?url=https%3A%2F%2Fosf.io%2Fdownload%2Fsgqnk%2F%3Fdirect%26mode%3Drender","html":"https://osf.io/9r62x/files/osfstorage/65ddb97c325de50047dd09b0","self":"https://api.osf.io/v2/files/65ddb97c325de50047dd09b0/","iri":"https://osf.io/sgqnk"}},{"id":"672a245731304cc54602743d","type":"files","attributes":{"guid":"fr9ed","checkout":null,"name":"FReD_2.2.0.xlsx","kind":"file","path":"/672a245731304cc54602743d","size":3176953,"provider":"osfstorage","materialized_path":"/0 Data/Archive/FReD_2.2.0.xlsx","last_touched":null,"date_modified":"2024-11-05T13:57:44.172855","date_created":"2024-11-05T13:57:44.172855Z","extra":{"hashes":{"md5":"863364287e5e1d33de141da8e2815d40","sha256":"22928d89064f4b74368d134af9d9425fedcc5efaaa9d8ec5527150281d03a7c5"},"downloads":5},"tags":[],"current_user_can_comment":false,"current_version":1,"show_as_unviewed":false},"relationships":{"parent_folder":{"links":{"related":{"href":"https://api.osf.io/v2/files/641b06fac74723165c10abd9/","meta":{}}},"data":{"id":"641b06fac74723165c10abd9","type":"files"}},"versions":{"links":{"related":{"href":"https://api.osf.io/v2/files/672a245731304cc54602743d/versions/","meta":{}}}},"comments":{"links":{"related":{"href":"https://api.osf.io/v2/nodes/9r62x/comments/?filter%5Btarget%5D=fr9ed","meta":{}}}},"node":{"links":{"related":{"href":"https://api.osf.io/v2/nodes/9r62x/","meta":{}}},"data":{"id":"9r62x","type":"nodes"}},"target":{"links":{"related":{"href":"https://api.osf.io/v2/nodes/9r62x/","meta":{"type":"nodes"}}},"data":{"type":"nodes","id":"9r62x"}},"cedar_metadata_records":{"links":{"related":{"href":"https://api.osf.io/v2/files/672a245731304cc54602743d/cedar_metadata_records/","meta":{}}}}},"links":{"info":"https://api.osf.io/v2/files/672a245731304cc54602743d/","move":"https://files.de-1.osf.io/v1/resources/9r62x/providers/osfstorage/672a245731304cc54602743d","upload":"https://files.de-1.osf.io/v1/resources/9r62x/providers/osfstorage/672a245731304cc54602743d","delete":"https://files.de-1.osf.io/v1/resources/9r62x/providers/osfstorage/672a245731304cc54602743d","download":"https://osf.io/download/fr9ed/","render":"https://mfr.de-1.osf.io/render?url=https%3A%2F%2Fosf.io%2Fdownload%2Ffr9ed%2F%3Fdirect%26mode%3Drender","html":"https://osf.io/9r62x/files/osfstorage/672a245731304cc54602743d","self":"https://api.osf.io/v2/files/672a245731304cc54602743d/","iri":"https://osf.io/fr9ed"}},{"id":"65e59cb58992ec01a2788b9d","type":"files","attributes":{"guid":"qw2un","checkout":null,"name":"FReD_1.2.3.xlsx","kind":"file","path":"/65e59cb58992ec01a2788b9d","size":1769185,"provider":"osfstorage","materialized_path":"/0 Data/Archive/FReD_1.2.3.xlsx","last_touched":null,"date_modified":"2024-03-04T10:04:37.599459","date_created":"2024-03-04T10:04:37.599459Z","extra":{"hashes":{"md5":"a1e6f2b06a7531f6645859bafbc7f7d2","sha256":"b093051cca45c3c2c3ea34331444cd3620f330cf526dab192dd47ced9aa00412"},"downloads":4},"tags":[],"current_user_can_comment":false,"current_version":1,"show_as_unviewed":false},"relationships":{"parent_folder":{"links":{"related":{"href":"https://api.osf.io/v2/files/641b06fac74723165c10abd9/","meta":{}}},"data":{"id":"641b06fac74723165c10abd9","type":"files"}},"versions":{"links":{"related":{"href":"https://api.osf.io/v2/files/65e59cb58992ec01a2788b9d/versions/","meta":{}}}},"comments":{"links":{"related":{"href":"https://api.osf.io/v2/nodes/9r62x/comments/?filter%5Btarget%5D=qw2un","meta":{}}}},"node":{"links":{"related":{"href":"https://api.osf.io/v2/nodes/9r62x/","meta":{}}},"data":{"id":"9r62x","type":"nodes"}},"target":{"links":{"related":{"href":"https://api.osf.io/v2/nodes/9r62x/","meta":{"type":"nodes"}}},"data":{"type":"nodes","id":"9r62x"}},"cedar_metadata_records":{"links":{"related":{"href":"https://api.osf.io/v2/files/65e59cb58992ec01a2788b9d/cedar_metadata_records/","meta":{}}}}},"links":{"info":"https://api.osf.io/v2/files/65e59cb58992ec01a2788b9d/","move":"https://files.de-1.osf.io/v1/resources/9r62x/providers/osfstorage/65e59cb58992ec01a2788b9d","upload":"https://files.de-1.osf.io/v1/resources/9r62x/providers/osfstorage/65e59cb58992ec01a2788b9d","delete":"https://files.de-1.osf.io/v1/resources/9r62x/providers/osfstorage/65e59cb58992ec01a2788b9d","download":"https://osf.io/download/qw2un/","render":"https://mfr.de-1.osf.io/render?url=https%3A%2F%2Fosf.io%2Fdownload%2Fqw2un%2F%3Fdirect%26mode%3Drender","html":"https://osf.io/9r62x/files/osfstorage/65e59cb58992ec01a2788b9d","self":"https://api.osf.io/v2/files/65e59cb58992ec01a2788b9d/","iri":"https://osf.io/qw2un"}},{"id":"65ce359bb74cac0254836bc8","type":"files","attributes":{"guid":"8q4z3","checkout":null,"name":"FReD_1.2.1.xlsx","kind":"file","path":"/65ce359bb74cac0254836bc8","size":1768406,"provider":"osfstorage","materialized_path":"/0 Data/Archive/FReD_1.2.1.xlsx","last_touched":null,"date_modified":"2024-02-15T16:02:35.742737","date_created":"2024-02-15T16:02:35.742737Z","extra":{"hashes":{"md5":"5411efbfe9895414482a9bacbcbf7db0","sha256":"12d0a6e3c76ef160eae52024eed04e445f4ae29c60ba93620ea43149e6e81ce9"},"downloads":4},"tags":[],"current_user_can_comment":false,"current_version":1,"show_as_unviewed":false},"relationships":{"parent_folder":{"links":{"related":{"href":"https://api.osf.io/v2/files/641b06fac74723165c10abd9/","meta":{}}},"data":{"id":"641b06fac74723165c10abd9","type":"files"}},"versions":{"links":{"related":{"href":"https://api.osf.io/v2/files/65ce359bb74cac0254836bc8/versions/","meta":{}}}},"comments":{"links":{"related":{"href":"https://api.osf.io/v2/nodes/9r62x/comments/?filter%5Btarget%5D=8q4z3","meta":{}}}},"node":{"links":{"related":{"href":"https://api.osf.io/v2/nodes/9r62x/","meta":{}}},"data":{"id":"9r62x","type":"nodes"}},"target":{"links":{"related":{"href":"https://api.osf.io/v2/nodes/9r62x/","meta":{"type":"nodes"}}},"data":{"type":"nodes","id":"9r62x"}},"cedar_metadata_records":{"links":{"related":{"href":"https://api.osf.io/v2/files/65ce359bb74cac0254836bc8/cedar_metadata_records/","meta":{}}}}},"links":{"info":"https://api.osf.io/v2/files/65ce359bb74cac0254836bc8/","move":"https://files.de-1.osf.io/v1/resources/9r62x/providers/osfstorage/65ce359bb74cac0254836bc8","upload":"https://files.de-1.osf.io/v1/resources/9r62x/providers/osfstorage/65ce359bb74cac0254836bc8","delete":"https://files.de-1.osf.io/v1/resources/9r62x/providers/osfstorage/65ce359bb74cac0254836bc8","download":"https://osf.io/download/8q4z3/","render":"https://mfr.de-1.osf.io/render?url=https%3A%2F%2Fosf.io%2Fdownload%2F8q4z3%2F%3Fdirect%26mode%3Drender","html":"https://osf.io/9r62x/files/osfstorage/65ce359bb74cac0254836bc8","self":"https://api.osf.io/v2/files/65ce359bb74cac0254836bc8/","iri":"https://osf.io/8q4z3"}},{"id":"6647635b2eacc4a52a096fe8","type":"files","attributes":{"guid":"vnh8q","checkout":null,"name":"FReD_1.2.6.xlsx","kind":"file","path":"/6647635b2eacc4a52a096fe8","size":2375053,"provider":"osfstorage","materialized_path":"/0 Data/Archive/FReD_1.2.6.xlsx","last_touched":null,"date_modified":"2024-05-17T14:02:03.516590","date_created":"2024-05-17T14:02:03.516590Z","extra":{"hashes":{"md5":"5f7fde3742739f8e4177c3e6cfcb29ee","sha256":"d859f98e4676a5878ae208993998d28ec093cb5dce7ef63cb8024a91e16c80a9"},"downloads":5},"tags":[],"current_user_can_comment":false,"current_version":1,"show_as_unviewed":false},"relationships":{"parent_folder":{"links":{"related":{"href":"https://api.osf.io/v2/files/641b06fac74723165c10abd9/","meta":{}}},"data":{"id":"641b06fac74723165c10abd9","type":"files"}},"versions":{"links":{"related":{"href":"https://api.osf.io/v2/files/6647635b2eacc4a52a096fe8/versions/","meta":{}}}},"comments":{"links":{"related":{"href":"https://api.osf.io/v2/nodes/9r62x/comments/?filter%5Btarget%5D=vnh8q","meta":{}}}},"node":{"links":{"related":{"href":"https://api.osf.io/v2/nodes/9r62x/","meta":{}}},"data":{"id":"9r62x","type":"nodes"}},"target":{"links":{"related":{"href":"https://api.osf.io/v2/nodes/9r62x/","meta":{"type":"nodes"}}},"data":{"type":"nodes","id":"9r62x"}},"cedar_metadata_records":{"links":{"related":{"href":"https://api.osf.io/v2/files/6647635b2eacc4a52a096fe8/cedar_metadata_records/","meta":{}}}}},"links":{"info":"https://api.osf.io/v2/files/6647635b2eacc4a52a096fe8/","move":"https://files.de-1.osf.io/v1/resources/9r62x/providers/osfstorage/6647635b2eacc4a52a096fe8","upload":"https://files.de-1.osf.io/v1/resources/9r62x/providers/osfstorage/6647635b2eacc4a52a096fe8","delete":"https://files.de-1.osf.io/v1/resources/9r62x/providers/osfstorage/6647635b2eacc4a52a096fe8","download":"https://osf.io/download/vnh8q/","render":"https://mfr.de-1.osf.io/render?url=https%3A%2F%2Fosf.io%2Fdownload%2Fvnh8q%2F%3Fdirect%26mode%3Drender","html":"https://osf.io/9r62x/files/osfstorage/6647635b2eacc4a52a096fe8","self":"https://api.osf.io/v2/files/6647635b2eacc4a52a096fe8/","iri":"https://osf.io/vnh8q"}},{"id":"685530b972273f0add5cfd3f","type":"files","attributes":{"guid":"vnxb8","checkout":null,"name":"FReD_2.4.0.xlsx","kind":"file","path":"/685530b972273f0add5cfd3f","size":3347105,"provider":"osfstorage","materialized_path":"/0 Data/Archive/FReD_2.4.0.xlsx","last_touched":null,"date_modified":"2025-06-20T09:58:18.000344","date_created":"2025-06-20T09:58:18.000344Z","extra":{"hashes":{"md5":"a20af36646ee14589b26b1dc27b03c9e","sha256":"03aa59fff7294036ec16030ee968736e439bb67a761552d1f27f394b739e3685"},"downloads":5},"tags":[],"current_user_can_comment":false,"current_version":1,"show_as_unviewed":false},"relationships":{"parent_folder":{"links":{"related":{"href":"https://api.osf.io/v2/files/641b06fac74723165c10abd9/","meta":{}}},"data":{"id":"641b06fac74723165c10abd9","type":"files"}},"versions":{"links":{"related":{"href":"https://api.osf.io/v2/files/685530b972273f0add5cfd3f/versions/","meta":{}}}},"comments":{"links":{"related":{"href":"https://api.osf.io/v2/nodes/9r62x/comments/?filter%5Btarget%5D=vnxb8","meta":{}}}},"node":{"links":{"related":{"href":"https://api.osf.io/v2/nodes/9r62x/","meta":{}}},"data":{"id":"9r62x","type":"nodes"}},"target":{"links":{"related":{"href":"https://api.osf.io/v2/nodes/9r62x/","meta":{"type":"nodes"}}},"data":{"type":"nodes","id":"9r62x"}},"cedar_metadata_records":{"links":{"related":{"href":"https://api.osf.io/v2/files/685530b972273f0add5cfd3f/cedar_metadata_records/","meta":{}}}}},"links":{"info":"https://api.osf.io/v2/files/685530b972273f0add5cfd3f/","move":"https://files.de-1.osf.io/v1/resources/9r62x/providers/osfstorage/685530b972273f0add5cfd3f","upload":"https://files.de-1.osf.io/v1/resources/9r62x/providers/osfstorage/685530b972273f0add5cfd3f","delete":"https://files.de-1.osf.io/v1/resources/9r62x/providers/osfstorage/685530b972273f0add5cfd3f","download":"https://osf.io/download/vnxb8/","render":"https://mfr.de-1.osf.io/render?url=https%3A%2F%2Fosf.io%2Fdownload%2Fvnxb8%2F%3Fdirect%26mode%3Drender","html":"https://osf.io/9r62x/files/osfstorage/685530b972273f0add5cfd3f","self":"https://api.osf.io/v2/files/685530b972273f0add5cfd3f/","iri":"https://osf.io/vnxb8"}},{"id":"649ec3c36c09810e787d1849","type":"files","attributes":{"guid":"zpfdv","checkout":null,"name":"230624_ReD.xlsx","kind":"file","path":"/649ec3c36c09810e787d1849","size":896531,"provider":"osfstorage","materialized_path":"/0 Data/Archive/230624_ReD.xlsx","last_touched":null,"date_modified":"2023-06-30T12:00:03.747317","date_created":"2023-06-30T12:00:03.747317Z","extra":{"hashes":{"md5":"a5ed1b0529769424fdb9e9f680396ab5","sha256":"3c9fe47bfd979f57aeeaa03fc3b8330168bd5369ffa9ea7c3c1b40eda26a70cf"},"downloads":5},"tags":[],"current_user_can_comment":false,"current_version":1,"show_as_unviewed":false},"relationships":{"parent_folder":{"links":{"related":{"href":"https://api.osf.io/v2/files/641b06fac74723165c10abd9/","meta":{}}},"data":{"id":"641b06fac74723165c10abd9","type":"files"}},"versions":{"links":{"related":{"href":"https://api.osf.io/v2/files/649ec3c36c09810e787d1849/versions/","meta":{}}}},"comments":{"links":{"related":{"href":"https://api.osf.io/v2/nodes/9r62x/comments/?filter%5Btarget%5D=zpfdv","meta":{}}}},"node":{"links":{"related":{"href":"https://api.osf.io/v2/nodes/9r62x/","meta":{}}},"data":{"id":"9r62x","type":"nodes"}},"target":{"links":{"related":{"href":"https://api.osf.io/v2/nodes/9r62x/","meta":{"type":"nodes"}}},"data":{"type":"nodes","id":"9r62x"}},"cedar_metadata_records":{"links":{"related":{"href":"https://api.osf.io/v2/files/649ec3c36c09810e787d1849/cedar_metadata_records/","meta":{}}}}},"links":{"info":"https://api.osf.io/v2/files/649ec3c36c09810e787d1849/","move":"https://files.de-1.osf.io/v1/resources/9r62x/providers/osfstorage/649ec3c36c09810e787d1849","upload":"https://files.de-1.osf.io/v1/resources/9r62x/providers/osfstorage/649ec3c36c09810e787d1849","delete":"https://files.de-1.osf.io/v1/resources/9r62x/providers/osfstorage/649ec3c36c09810e787d1849","download":"https://osf.io/download/zpfdv/","render":"https://mfr.de-1.osf.io/render?url=https%3A%2F%2Fosf.io%2Fdownload%2Fzpfdv%2F%3Fdirect%26mode%3Drender","html":"https://osf.io/9r62x/files/osfstorage/649ec3c36c09810e787d1849","self":"https://api.osf.io/v2/files/649ec3c36c09810e787d1849/","iri":"https://osf.io/zpfdv"}},{"id":"64464aa79e8e1c3cd81e2c4b","type":"files","attributes":{"guid":"x5swe","checkout":null,"name":"230424_ReD.xlsx","kind":"file","path":"/64464aa79e8e1c3cd81e2c4b","size":870859,"provider":"osfstorage","materialized_path":"/0 Data/Archive/230424_ReD.xlsx","last_touched":null,"date_modified":"2023-04-24T09:23:51.900624","date_created":"2023-04-24T09:23:51.900624Z","extra":{"hashes":{"md5":"c98f1d2a66aa38dfbfd26c8323d5ce70","sha256":"4d3f3874c42cf9fa70bb90e4ac81cd44571be67a1af048d072bab15d3152bc51"},"downloads":4},"tags":[],"current_user_can_comment":false,"current_version":1,"show_as_unviewed":false},"relationships":{"parent_folder":{"links":{"related":{"href":"https://api.osf.io/v2/files/641b06fac74723165c10abd9/","meta":{}}},"data":{"id":"641b06fac74723165c10abd9","type":"files"}},"versions":{"links":{"related":{"href":"https://api.osf.io/v2/files/64464aa79e8e1c3cd81e2c4b/versions/","meta":{}}}},"comments":{"links":{"related":{"href":"https://api.osf.io/v2/nodes/9r62x/comments/?filter%5Btarget%5D=x5swe","meta":{}}}},"node":{"links":{"related":{"href":"https://api.osf.io/v2/nodes/9r62x/","meta":{}}},"data":{"id":"9r62x","type":"nodes"}},"target":{"links":{"related":{"href":"https://api.osf.io/v2/nodes/9r62x/","meta":{"type":"nodes"}}},"data":{"type":"nodes","id":"9r62x"}},"cedar_metadata_records":{"links":{"related":{"href":"https://api.osf.io/v2/files/64464aa79e8e1c3cd81e2c4b/cedar_metadata_records/","meta":{}}}}},"links":{"info":"https://api.osf.io/v2/files/64464aa79e8e1c3cd81e2c4b/","move":"https://files.de-1.osf.io/v1/resources/9r62x/providers/osfstorage/64464aa79e8e1c3cd81e2c4b","upload":"https://files.de-1.osf.io/v1/resources/9r62x/providers/osfstorage/64464aa79e8e1c3cd81e2c4b","delete":"https://files.de-1.osf.io/v1/resources/9r62x/providers/osfstorage/64464aa79e8e1c3cd81e2c4b","download":"https://osf.io/download/x5swe/","render":"https://mfr.de-1.osf.io/render?url=https%3A%2F%2Fosf.io%2Fdownload%2Fx5swe%2F%3Fdirect%26mode%3Drender","html":"https://osf.io/9r62x/files/osfstorage/64464aa79e8e1c3cd81e2c4b","self":"https://api.osf.io/v2/files/64464aa79e8e1c3cd81e2c4b/","iri":"https://osf.io/x5swe"}},{"id":"63cd4a58414aee02698c67ec","type":"files","attributes":{"guid":"2a3gb","checkout":null,"name":"[deprecated] ReD.csv","kind":"file","path":"/63cd4a58414aee02698c67ec","size":937665,"provider":"osfstorage","materialized_path":"/0 Data/Archive/[deprecated] ReD.csv","last_touched":null,"date_modified":"2023-01-22T14:47:09.143692","date_created":"2023-01-22T14:38:16.458156Z","extra":{"hashes":{"md5":"e7347b3b33c84323c1bccde87e6034cd","sha256":"98e29bc6e5d237d11c1ebb01aa10c6ddfb52e66bac252d8b3118b2b5d6aef39b"},"downloads":465},"tags":[],"current_user_can_comment":false,"current_version":4,"show_as_unviewed":false},"relationships":{"parent_folder":{"links":{"related":{"href":"https://api.osf.io/v2/files/641b06fac74723165c10abd9/","meta":{}}},"data":{"id":"641b06fac74723165c10abd9","type":"files"}},"versions":{"links":{"related":{"href":"https://api.osf.io/v2/files/63cd4a58414aee02698c67ec/versions/","meta":{}}}},"comments":{"links":{"related":{"href":"https://api.osf.io/v2/nodes/9r62x/comments/?filter%5Btarget%5D=2a3gb","meta":{}}}},"node":{"links":{"related":{"href":"https://api.osf.io/v2/nodes/9r62x/","meta":{}}},"data":{"id":"9r62x","type":"nodes"}},"target":{"links":{"related":{"href":"https://api.osf.io/v2/nodes/9r62x/","meta":{"type":"nodes"}}},"data":{"type":"nodes","id":"9r62x"}},"cedar_metadata_records":{"links":{"related":{"href":"https://api.osf.io/v2/files/63cd4a58414aee02698c67ec/cedar_metadata_records/","meta":{}}}}},"links":{"info":"https://api.osf.io/v2/files/63cd4a58414aee02698c67ec/","move":"https://files.de-1.osf.io/v1/resources/9r62x/providers/osfstorage/63cd4a58414aee02698c67ec","upload":"https://files.de-1.osf.io/v1/resources/9r62x/providers/osfstorage/63cd4a58414aee02698c67ec","delete":"https://files.de-1.osf.io/v1/resources/9r62x/providers/osfstorage/63cd4a58414aee02698c67ec","download":"https://osf.io/download/2a3gb/","render":"https://mfr.de-1.osf.io/render?url=https%3A%2F%2Fosf.io%2Fdownload%2F2a3gb%2F%3Fdirect%26mode%3Drender","html":"https://osf.io/9r62x/files/osfstorage/63cd4a58414aee02698c67ec","self":"https://api.osf.io/v2/files/63cd4a58414aee02698c67ec/","iri":"https://osf.io/2a3gb"}}],"links":{"first":"https://api.osf.io/v2/nodes/9r62x/files/osfstorage/641b06fac74723165c10abd9/","last":"https://api.osf.io/v2/nodes/9r62x/files/osfstorage/641b06fac74723165c10abd9/?page=7","prev":"https://api.osf.io/v2/nodes/9r62x/files/osfstorage/641b06fac74723165c10abd9/","next":"https://api.osf.io/v2/nodes/9r62x/files/osfstorage/641b06fac74723165c10abd9/?page=3","meta":{"total":65,"per_page":10}},"meta":{"version":"2.0"}}