{"data":[{"id":"66b5fde680f6852924a1af3c","type":"files","attributes":{"guid":"9628k","checkout":null,"name":"240130_ReD.xlsx","kind":"file","path":"/66b5fde680f6852924a1af3c","size":1771699,"provider":"osfstorage","materialized_path":"/Archive of OSF Storage/0 Data/Archive/240130_ReD.xlsx","last_touched":null,"date_modified":"2024-01-30T09:42:19.965447","date_created":"2024-01-30T09:42:19.965447Z","extra":{"hashes":{"md5":"6ed1686cb0e98c5186ec91ef9e2ad25b","sha256":"65c1d7cfc167226af8fc165fe24139a9faccf3694dba75b86ee877e5f48ac9c9"},"downloads":3},"tags":[],"current_user_can_comment":false,"current_version":1,"show_as_unviewed":false},"relationships":{"parent_folder":{"links":{"related":{"href":"https://api.osf.io/v2/files/66b5fde580f6852924a1af33/","meta":{}}},"data":{"id":"66b5fde580f6852924a1af33","type":"files"}},"versions":{"links":{"related":{"href":"https://api.osf.io/v2/files/66b5fde680f6852924a1af3c/versions/","meta":{}}}},"comments":{"links":{"related":{"href":"https://api.osf.io/v2/registrations/c9rny/comments/?filter%5Btarget%5D=9628k","meta":{}}}},"node":{"links":{"related":{"href":"https://api.osf.io/v2/registrations/c9rny/","meta":{}}},"data":{"id":"c9rny","type":"registrations"}},"target":{"links":{"related":{"href":"https://api.osf.io/v2/registrations/c9rny/","meta":{"type":"registrations"}}},"data":{"type":"registrations","id":"c9rny"}},"cedar_metadata_records":{"links":{"related":{"href":"https://api.osf.io/v2/files/66b5fde680f6852924a1af3c/cedar_metadata_records/","meta":{}}}}},"links":{"info":"https://api.osf.io/v2/files/66b5fde680f6852924a1af3c/","move":"https://files.de-1.osf.io/v1/resources/c9rny/providers/osfstorage/66b5fde680f6852924a1af3c","upload":"https://files.de-1.osf.io/v1/resources/c9rny/providers/osfstorage/66b5fde680f6852924a1af3c","delete":"https://files.de-1.osf.io/v1/resources/c9rny/providers/osfstorage/66b5fde680f6852924a1af3c","download":"https://osf.io/download/9628k/","render":"https://mfr.de-1.osf.io/render?url=https%3A%2F%2Fosf.io%2Fdownload%2F9628k%2F%3Fdirect%26mode%3Drender","html":"https://osf.io/c9rny/files/osfstorage/66b5fde680f6852924a1af3c","self":"https://api.osf.io/v2/files/66b5fde680f6852924a1af3c/","iri":"https://osf.io/9628k"}},{"id":"66b5fde880f6852924a1af5a","type":"files","attributes":{"guid":"aqbup","checkout":null,"name":"FReD_1.1.0.xlsx","kind":"file","path":"/66b5fde880f6852924a1af5a","size":1772667,"provider":"osfstorage","materialized_path":"/Archive of OSF Storage/0 Data/Archive/FReD_1.1.0.xlsx","last_touched":null,"date_modified":"2024-02-14T17:19:16.549373","date_created":"2024-02-14T17:19:16.549373Z","extra":{"hashes":{"md5":"0e2ee460eec781d3a3cd8b234c5d1eff","sha256":"abed3d3d2f65db2cdbb42552ba51ecdd57f951ebfe2021042128e14ecc5d6365"},"downloads":2},"tags":[],"current_user_can_comment":false,"current_version":1,"show_as_unviewed":false},"relationships":{"parent_folder":{"links":{"related":{"href":"https://api.osf.io/v2/files/66b5fde580f6852924a1af33/","meta":{}}},"data":{"id":"66b5fde580f6852924a1af33","type":"files"}},"versions":{"links":{"related":{"href":"https://api.osf.io/v2/files/66b5fde880f6852924a1af5a/versions/","meta":{}}}},"comments":{"links":{"related":{"href":"https://api.osf.io/v2/registrations/c9rny/comments/?filter%5Btarget%5D=aqbup","meta":{}}}},"node":{"links":{"related":{"href":"https://api.osf.io/v2/registrations/c9rny/","meta":{}}},"data":{"id":"c9rny","type":"registrations"}},"target":{"links":{"related":{"href":"https://api.osf.io/v2/registrations/c9rny/","meta":{"type":"registrations"}}},"data":{"type":"registrations","id":"c9rny"}},"cedar_metadata_records":{"links":{"related":{"href":"https://api.osf.io/v2/files/66b5fde880f6852924a1af5a/cedar_metadata_records/","meta":{}}}}},"links":{"info":"https://api.osf.io/v2/files/66b5fde880f6852924a1af5a/","move":"https://files.de-1.osf.io/v1/resources/c9rny/providers/osfstorage/66b5fde880f6852924a1af5a","upload":"https://files.de-1.osf.io/v1/resources/c9rny/providers/osfstorage/66b5fde880f6852924a1af5a","delete":"https://files.de-1.osf.io/v1/resources/c9rny/providers/osfstorage/66b5fde880f6852924a1af5a","download":"https://osf.io/download/aqbup/","render":"https://mfr.de-1.osf.io/render?url=https%3A%2F%2Fosf.io%2Fdownload%2Faqbup%2F%3Fdirect%26mode%3Drender","html":"https://osf.io/c9rny/files/osfstorage/66b5fde880f6852924a1af5a","self":"https://api.osf.io/v2/files/66b5fde880f6852924a1af5a/","iri":"https://osf.io/aqbup"}},{"id":"66b5fde680f6852924a1af39","type":"files","attributes":{"guid":"ehd4v","checkout":null,"name":"FReD_1.2.9.xlsx","kind":"file","path":"/66b5fde680f6852924a1af39","size":2604905,"provider":"osfstorage","materialized_path":"/Archive of OSF Storage/0 Data/Archive/FReD_1.2.9.xlsx","last_touched":null,"date_modified":"2024-06-18T08:42:04.272934","date_created":"2024-06-18T08:42:04.272934Z","extra":{"hashes":{"md5":"ac26aab9765b617dc2cfe32fed66d3fd","sha256":"92f6e54b47de9207ffcbde63862f9b579070a902defeeb077e4111a2d759f277"},"downloads":2},"tags":[],"current_user_can_comment":false,"current_version":1,"show_as_unviewed":false},"relationships":{"parent_folder":{"links":{"related":{"href":"https://api.osf.io/v2/files/66b5fde580f6852924a1af33/","meta":{}}},"data":{"id":"66b5fde580f6852924a1af33","type":"files"}},"versions":{"links":{"related":{"href":"https://api.osf.io/v2/files/66b5fde680f6852924a1af39/versions/","meta":{}}}},"comments":{"links":{"related":{"href":"https://api.osf.io/v2/registrations/c9rny/comments/?filter%5Btarget%5D=ehd4v","meta":{}}}},"node":{"links":{"related":{"href":"https://api.osf.io/v2/registrations/c9rny/","meta":{}}},"data":{"id":"c9rny","type":"registrations"}},"target":{"links":{"related":{"href":"https://api.osf.io/v2/registrations/c9rny/","meta":{"type":"registrations"}}},"data":{"type":"registrations","id":"c9rny"}},"cedar_metadata_records":{"links":{"related":{"href":"https://api.osf.io/v2/files/66b5fde680f6852924a1af39/cedar_metadata_records/","meta":{}}}}},"links":{"info":"https://api.osf.io/v2/files/66b5fde680f6852924a1af39/","move":"https://files.de-1.osf.io/v1/resources/c9rny/providers/osfstorage/66b5fde680f6852924a1af39","upload":"https://files.de-1.osf.io/v1/resources/c9rny/providers/osfstorage/66b5fde680f6852924a1af39","delete":"https://files.de-1.osf.io/v1/resources/c9rny/providers/osfstorage/66b5fde680f6852924a1af39","download":"https://osf.io/download/ehd4v/","render":"https://mfr.de-1.osf.io/render?url=https%3A%2F%2Fosf.io%2Fdownload%2Fehd4v%2F%3Fdirect%26mode%3Drender","html":"https://osf.io/c9rny/files/osfstorage/66b5fde680f6852924a1af39","self":"https://api.osf.io/v2/files/66b5fde680f6852924a1af39/","iri":"https://osf.io/ehd4v"}},{"id":"66b5fde780f6852924a1af50","type":"files","attributes":{"guid":"9h3rx","checkout":null,"name":"230511_ReD.xlsx","kind":"file","path":"/66b5fde780f6852924a1af50","size":881025,"provider":"osfstorage","materialized_path":"/Archive of OSF Storage/0 Data/Archive/230511_ReD.xlsx","last_touched":null,"date_modified":"2023-05-11T10:29:39.035695","date_created":"2023-05-11T10:29:39.035695Z","extra":{"hashes":{"md5":"ec0ac4ea97d6f08b2e936ff0869d82ac","sha256":"60c03d321c6dfcf7c735abd492a1509493c16bbeafaa00061adc9dc248693992"},"downloads":2},"tags":[],"current_user_can_comment":false,"current_version":1,"show_as_unviewed":false},"relationships":{"parent_folder":{"links":{"related":{"href":"https://api.osf.io/v2/files/66b5fde580f6852924a1af33/","meta":{}}},"data":{"id":"66b5fde580f6852924a1af33","type":"files"}},"versions":{"links":{"related":{"href":"https://api.osf.io/v2/files/66b5fde780f6852924a1af50/versions/","meta":{}}}},"comments":{"links":{"related":{"href":"https://api.osf.io/v2/registrations/c9rny/comments/?filter%5Btarget%5D=9h3rx","meta":{}}}},"node":{"links":{"related":{"href":"https://api.osf.io/v2/registrations/c9rny/","meta":{}}},"data":{"id":"c9rny","type":"registrations"}},"target":{"links":{"related":{"href":"https://api.osf.io/v2/registrations/c9rny/","meta":{"type":"registrations"}}},"data":{"type":"registrations","id":"c9rny"}},"cedar_metadata_records":{"links":{"related":{"href":"https://api.osf.io/v2/files/66b5fde780f6852924a1af50/cedar_metadata_records/","meta":{}}}}},"links":{"info":"https://api.osf.io/v2/files/66b5fde780f6852924a1af50/","move":"https://files.de-1.osf.io/v1/resources/c9rny/providers/osfstorage/66b5fde780f6852924a1af50","upload":"https://files.de-1.osf.io/v1/resources/c9rny/providers/osfstorage/66b5fde780f6852924a1af50","delete":"https://files.de-1.osf.io/v1/resources/c9rny/providers/osfstorage/66b5fde780f6852924a1af50","download":"https://osf.io/download/9h3rx/","render":"https://mfr.de-1.osf.io/render?url=https%3A%2F%2Fosf.io%2Fdownload%2F9h3rx%2F%3Fdirect%26mode%3Drender","html":"https://osf.io/c9rny/files/osfstorage/66b5fde780f6852924a1af50","self":"https://api.osf.io/v2/files/66b5fde780f6852924a1af50/","iri":"https://osf.io/9h3rx"}},{"id":"66b5fde880f6852924a1af5b","type":"files","attributes":{"guid":"wfm59","checkout":null,"name":"FReD_1.1.1.xlsx","kind":"file","path":"/66b5fde880f6852924a1af5b","size":1768389,"provider":"osfstorage","materialized_path":"/Archive of OSF Storage/0 Data/Archive/FReD_1.1.1.xlsx","last_touched":null,"date_modified":"2024-02-15T15:52:38.457660","date_created":"2024-02-15T15:52:38.457660Z","extra":{"hashes":{"md5":"0a9a550938d7e3286da782270d961b82","sha256":"47670a26767f1b42714a0f42ea6aad5b4e02f13fd7f2c8c2ca9ce5992e8d554d"},"downloads":2},"tags":[],"current_user_can_comment":false,"current_version":1,"show_as_unviewed":false},"relationships":{"parent_folder":{"links":{"related":{"href":"https://api.osf.io/v2/files/66b5fde580f6852924a1af33/","meta":{}}},"data":{"id":"66b5fde580f6852924a1af33","type":"files"}},"versions":{"links":{"related":{"href":"https://api.osf.io/v2/files/66b5fde880f6852924a1af5b/versions/","meta":{}}}},"comments":{"links":{"related":{"href":"https://api.osf.io/v2/registrations/c9rny/comments/?filter%5Btarget%5D=wfm59","meta":{}}}},"node":{"links":{"related":{"href":"https://api.osf.io/v2/registrations/c9rny/","meta":{}}},"data":{"id":"c9rny","type":"registrations"}},"target":{"links":{"related":{"href":"https://api.osf.io/v2/registrations/c9rny/","meta":{"type":"registrations"}}},"data":{"type":"registrations","id":"c9rny"}},"cedar_metadata_records":{"links":{"related":{"href":"https://api.osf.io/v2/files/66b5fde880f6852924a1af5b/cedar_metadata_records/","meta":{}}}}},"links":{"info":"https://api.osf.io/v2/files/66b5fde880f6852924a1af5b/","move":"https://files.de-1.osf.io/v1/resources/c9rny/providers/osfstorage/66b5fde880f6852924a1af5b","upload":"https://files.de-1.osf.io/v1/resources/c9rny/providers/osfstorage/66b5fde880f6852924a1af5b","delete":"https://files.de-1.osf.io/v1/resources/c9rny/providers/osfstorage/66b5fde880f6852924a1af5b","download":"https://osf.io/download/wfm59/","render":"https://mfr.de-1.osf.io/render?url=https%3A%2F%2Fosf.io%2Fdownload%2Fwfm59%2F%3Fdirect%26mode%3Drender","html":"https://osf.io/c9rny/files/osfstorage/66b5fde880f6852924a1af5b","self":"https://api.osf.io/v2/files/66b5fde880f6852924a1af5b/","iri":"https://osf.io/wfm59"}},{"id":"66b5fde680f6852924a1af3f","type":"files","attributes":{"guid":"je6pf","checkout":null,"name":"240111_ReD.xlsx","kind":"file","path":"/66b5fde680f6852924a1af3f","size":1744116,"provider":"osfstorage","materialized_path":"/Archive of OSF Storage/0 Data/Archive/240111_ReD.xlsx","last_touched":null,"date_modified":"2024-01-11T08:48:12.080180","date_created":"2024-01-11T08:48:12.080180Z","extra":{"hashes":{"md5":"a3466548c2e30d4c131319cfa3cb2412","sha256":"d7ca41a74553f10a35e8b521ddaca04e384bed328793bbbdf6b5ad9e65cb94d3"},"downloads":3},"tags":[],"current_user_can_comment":false,"current_version":1,"show_as_unviewed":false},"relationships":{"parent_folder":{"links":{"related":{"href":"https://api.osf.io/v2/files/66b5fde580f6852924a1af33/","meta":{}}},"data":{"id":"66b5fde580f6852924a1af33","type":"files"}},"versions":{"links":{"related":{"href":"https://api.osf.io/v2/files/66b5fde680f6852924a1af3f/versions/","meta":{}}}},"comments":{"links":{"related":{"href":"https://api.osf.io/v2/registrations/c9rny/comments/?filter%5Btarget%5D=je6pf","meta":{}}}},"node":{"links":{"related":{"href":"https://api.osf.io/v2/registrations/c9rny/","meta":{}}},"data":{"id":"c9rny","type":"registrations"}},"target":{"links":{"related":{"href":"https://api.osf.io/v2/registrations/c9rny/","meta":{"type":"registrations"}}},"data":{"type":"registrations","id":"c9rny"}},"cedar_metadata_records":{"links":{"related":{"href":"https://api.osf.io/v2/files/66b5fde680f6852924a1af3f/cedar_metadata_records/","meta":{}}}}},"links":{"info":"https://api.osf.io/v2/files/66b5fde680f6852924a1af3f/","move":"https://files.de-1.osf.io/v1/resources/c9rny/providers/osfstorage/66b5fde680f6852924a1af3f","upload":"https://files.de-1.osf.io/v1/resources/c9rny/providers/osfstorage/66b5fde680f6852924a1af3f","delete":"https://files.de-1.osf.io/v1/resources/c9rny/providers/osfstorage/66b5fde680f6852924a1af3f","download":"https://osf.io/download/je6pf/","render":"https://mfr.de-1.osf.io/render?url=https%3A%2F%2Fosf.io%2Fdownload%2Fje6pf%2F%3Fdirect%26mode%3Drender","html":"https://osf.io/c9rny/files/osfstorage/66b5fde680f6852924a1af3f","self":"https://api.osf.io/v2/files/66b5fde680f6852924a1af3f/","iri":"https://osf.io/je6pf"}},{"id":"66b5fde680f6852924a1af3e","type":"files","attributes":{"guid":"tgfhy","checkout":null,"name":"240116_ReD.xlsx","kind":"file","path":"/66b5fde680f6852924a1af3e","size":1753420,"provider":"osfstorage","materialized_path":"/Archive of OSF Storage/0 Data/Archive/240116_ReD.xlsx","last_touched":null,"date_modified":"2024-01-16T15:07:47.596361","date_created":"2024-01-16T15:07:47.596361Z","extra":{"hashes":{"md5":"16a7a81a88bcff3d4acc5ebc7bb65139","sha256":"d252e8d7b904e2d9b9e6ba3bac377abc24dd43e4db8ecbd4ddb47e6d60fbfc1b"},"downloads":3},"tags":[],"current_user_can_comment":false,"current_version":1,"show_as_unviewed":false},"relationships":{"parent_folder":{"links":{"related":{"href":"https://api.osf.io/v2/files/66b5fde580f6852924a1af33/","meta":{}}},"data":{"id":"66b5fde580f6852924a1af33","type":"files"}},"versions":{"links":{"related":{"href":"https://api.osf.io/v2/files/66b5fde680f6852924a1af3e/versions/","meta":{}}}},"comments":{"links":{"related":{"href":"https://api.osf.io/v2/registrations/c9rny/comments/?filter%5Btarget%5D=tgfhy","meta":{}}}},"node":{"links":{"related":{"href":"https://api.osf.io/v2/registrations/c9rny/","meta":{}}},"data":{"id":"c9rny","type":"registrations"}},"target":{"links":{"related":{"href":"https://api.osf.io/v2/registrations/c9rny/","meta":{"type":"registrations"}}},"data":{"type":"registrations","id":"c9rny"}},"cedar_metadata_records":{"links":{"related":{"href":"https://api.osf.io/v2/files/66b5fde680f6852924a1af3e/cedar_metadata_records/","meta":{}}}}},"links":{"info":"https://api.osf.io/v2/files/66b5fde680f6852924a1af3e/","move":"https://files.de-1.osf.io/v1/resources/c9rny/providers/osfstorage/66b5fde680f6852924a1af3e","upload":"https://files.de-1.osf.io/v1/resources/c9rny/providers/osfstorage/66b5fde680f6852924a1af3e","delete":"https://files.de-1.osf.io/v1/resources/c9rny/providers/osfstorage/66b5fde680f6852924a1af3e","download":"https://osf.io/download/tgfhy/","render":"https://mfr.de-1.osf.io/render?url=https%3A%2F%2Fosf.io%2Fdownload%2Ftgfhy%2F%3Fdirect%26mode%3Drender","html":"https://osf.io/c9rny/files/osfstorage/66b5fde680f6852924a1af3e","self":"https://api.osf.io/v2/files/66b5fde680f6852924a1af3e/","iri":"https://osf.io/tgfhy"}},{"id":"66b5fde880f6852924a1af63","type":"files","attributes":{"guid":"s36y5","checkout":null,"name":"FReD_1.5.2.xlsx","kind":"file","path":"/66b5fde880f6852924a1af63","size":2583939,"provider":"osfstorage","materialized_path":"/Archive of OSF Storage/0 Data/Archive/FReD_1.5.2.xlsx","last_touched":null,"date_modified":"2024-07-05T07:55:47.772378","date_created":"2024-07-05T07:55:47.772378Z","extra":{"hashes":{"md5":"1f8a10f8660a637a178128583a5102aa","sha256":"081970b6c93a3b5be68a9f138f3de9826b146943d237b82615adf6ba4b01f693"},"downloads":4},"tags":[],"current_user_can_comment":false,"current_version":1,"show_as_unviewed":false},"relationships":{"parent_folder":{"links":{"related":{"href":"https://api.osf.io/v2/files/66b5fde580f6852924a1af33/","meta":{}}},"data":{"id":"66b5fde580f6852924a1af33","type":"files"}},"versions":{"links":{"related":{"href":"https://api.osf.io/v2/files/66b5fde880f6852924a1af63/versions/","meta":{}}}},"comments":{"links":{"related":{"href":"https://api.osf.io/v2/registrations/c9rny/comments/?filter%5Btarget%5D=s36y5","meta":{}}}},"node":{"links":{"related":{"href":"https://api.osf.io/v2/registrations/c9rny/","meta":{}}},"data":{"id":"c9rny","type":"registrations"}},"target":{"links":{"related":{"href":"https://api.osf.io/v2/registrations/c9rny/","meta":{"type":"registrations"}}},"data":{"type":"registrations","id":"c9rny"}},"cedar_metadata_records":{"links":{"related":{"href":"https://api.osf.io/v2/files/66b5fde880f6852924a1af63/cedar_metadata_records/","meta":{}}}}},"links":{"info":"https://api.osf.io/v2/files/66b5fde880f6852924a1af63/","move":"https://files.de-1.osf.io/v1/resources/c9rny/providers/osfstorage/66b5fde880f6852924a1af63","upload":"https://files.de-1.osf.io/v1/resources/c9rny/providers/osfstorage/66b5fde880f6852924a1af63","delete":"https://files.de-1.osf.io/v1/resources/c9rny/providers/osfstorage/66b5fde880f6852924a1af63","download":"https://osf.io/download/s36y5/","render":"https://mfr.de-1.osf.io/render?url=https%3A%2F%2Fosf.io%2Fdownload%2Fs36y5%2F%3Fdirect%26mode%3Drender","html":"https://osf.io/c9rny/files/osfstorage/66b5fde880f6852924a1af63","self":"https://api.osf.io/v2/files/66b5fde880f6852924a1af63/","iri":"https://osf.io/s36y5"}},{"id":"66b5fde780f6852924a1af46","type":"files","attributes":{"guid":"tkvnm","checkout":null,"name":"231002_ReD.xlsx","kind":"file","path":"/66b5fde780f6852924a1af46","size":905013,"provider":"osfstorage","materialized_path":"/Archive of OSF Storage/0 Data/Archive/231002_ReD.xlsx","last_touched":null,"date_modified":"2023-10-02T13:38:15.928357","date_created":"2023-10-02T13:38:15.928357Z","extra":{"hashes":{"md5":"33de6b0ecf08009be4674de32e8c45e7","sha256":"eb9665e7420043abc440daf80df54fac80053718fb918d0a0f6863b7caa7dfc7"},"downloads":2},"tags":[],"current_user_can_comment":false,"current_version":1,"show_as_unviewed":false},"relationships":{"parent_folder":{"links":{"related":{"href":"https://api.osf.io/v2/files/66b5fde580f6852924a1af33/","meta":{}}},"data":{"id":"66b5fde580f6852924a1af33","type":"files"}},"versions":{"links":{"related":{"href":"https://api.osf.io/v2/files/66b5fde780f6852924a1af46/versions/","meta":{}}}},"comments":{"links":{"related":{"href":"https://api.osf.io/v2/registrations/c9rny/comments/?filter%5Btarget%5D=tkvnm","meta":{}}}},"node":{"links":{"related":{"href":"https://api.osf.io/v2/registrations/c9rny/","meta":{}}},"data":{"id":"c9rny","type":"registrations"}},"target":{"links":{"related":{"href":"https://api.osf.io/v2/registrations/c9rny/","meta":{"type":"registrations"}}},"data":{"type":"registrations","id":"c9rny"}},"cedar_metadata_records":{"links":{"related":{"href":"https://api.osf.io/v2/files/66b5fde780f6852924a1af46/cedar_metadata_records/","meta":{}}}}},"links":{"info":"https://api.osf.io/v2/files/66b5fde780f6852924a1af46/","move":"https://files.de-1.osf.io/v1/resources/c9rny/providers/osfstorage/66b5fde780f6852924a1af46","upload":"https://files.de-1.osf.io/v1/resources/c9rny/providers/osfstorage/66b5fde780f6852924a1af46","delete":"https://files.de-1.osf.io/v1/resources/c9rny/providers/osfstorage/66b5fde780f6852924a1af46","download":"https://osf.io/download/tkvnm/","render":"https://mfr.de-1.osf.io/render?url=https%3A%2F%2Fosf.io%2Fdownload%2Ftkvnm%2F%3Fdirect%26mode%3Drender","html":"https://osf.io/c9rny/files/osfstorage/66b5fde780f6852924a1af46","self":"https://api.osf.io/v2/files/66b5fde780f6852924a1af46/","iri":"https://osf.io/tkvnm"}},{"id":"66b5fde880f6852924a1af56","type":"files","attributes":{"guid":"6fua8","checkout":null,"name":"230712_ReD.xlsx","kind":"file","path":"/66b5fde880f6852924a1af56","size":896724,"provider":"osfstorage","materialized_path":"/Archive of OSF Storage/0 Data/Archive/230712_ReD.xlsx","last_touched":null,"date_modified":"2023-07-12T15:14:02.424682","date_created":"2023-07-12T15:14:02.424682Z","extra":{"hashes":{"md5":"86a73a5065af81010a37b3f8adabedc7","sha256":"7b8ee6dbcce8ab3301b78d0dd240dfba227c95d7ae09575a138d69623336d547"},"downloads":3},"tags":[],"current_user_can_comment":false,"current_version":1,"show_as_unviewed":false},"relationships":{"parent_folder":{"links":{"related":{"href":"https://api.osf.io/v2/files/66b5fde580f6852924a1af33/","meta":{}}},"data":{"id":"66b5fde580f6852924a1af33","type":"files"}},"versions":{"links":{"related":{"href":"https://api.osf.io/v2/files/66b5fde880f6852924a1af56/versions/","meta":{}}}},"comments":{"links":{"related":{"href":"https://api.osf.io/v2/registrations/c9rny/comments/?filter%5Btarget%5D=6fua8","meta":{}}}},"node":{"links":{"related":{"href":"https://api.osf.io/v2/registrations/c9rny/","meta":{}}},"data":{"id":"c9rny","type":"registrations"}},"target":{"links":{"related":{"href":"https://api.osf.io/v2/registrations/c9rny/","meta":{"type":"registrations"}}},"data":{"type":"registrations","id":"c9rny"}},"cedar_metadata_records":{"links":{"related":{"href":"https://api.osf.io/v2/files/66b5fde880f6852924a1af56/cedar_metadata_records/","meta":{}}}}},"links":{"info":"https://api.osf.io/v2/files/66b5fde880f6852924a1af56/","move":"https://files.de-1.osf.io/v1/resources/c9rny/providers/osfstorage/66b5fde880f6852924a1af56","upload":"https://files.de-1.osf.io/v1/resources/c9rny/providers/osfstorage/66b5fde880f6852924a1af56","delete":"https://files.de-1.osf.io/v1/resources/c9rny/providers/osfstorage/66b5fde880f6852924a1af56","download":"https://osf.io/download/6fua8/","render":"https://mfr.de-1.osf.io/render?url=https%3A%2F%2Fosf.io%2Fdownload%2F6fua8%2F%3Fdirect%26mode%3Drender","html":"https://osf.io/c9rny/files/osfstorage/66b5fde880f6852924a1af56","self":"https://api.osf.io/v2/files/66b5fde880f6852924a1af56/","iri":"https://osf.io/6fua8"}}],"links":{"first":"https://api.osf.io/v2/registrations/c9rny/files/osfstorage/66b5fde580f6852924a1af33/","last":"https://api.osf.io/v2/registrations/c9rny/files/osfstorage/66b5fde580f6852924a1af33/?page=6","prev":"https://api.osf.io/v2/registrations/c9rny/files/osfstorage/66b5fde580f6852924a1af33/?page=2","next":"https://api.osf.io/v2/registrations/c9rny/files/osfstorage/66b5fde580f6852924a1af33/?page=4","meta":{"total":53,"per_page":10}},"meta":{"version":"2.0"}}