{"data":[{"id":"65256343a4e831013684c717","type":"files","attributes":{"guid":"tuza8","checkout":null,"name":"231114_TagDerForschungsdatenMünster_ReD.pptx","kind":"file","path":"/65256343a4e831013684c717","size":12829084,"provider":"osfstorage","materialized_path":"/2 Materials/Presentations/231114_TagDerForschungsdatenMünster_ReD.pptx","last_touched":null,"date_modified":"2023-11-14T10:12:15.030090","date_created":"2023-10-10T14:44:19.766940Z","extra":{"hashes":{"md5":"52c776e958f2e2c5a32ebff0245814b1","sha256":"c46c7627fa5a8f0aed019282025a1c279e008400849887dac448b36d6fcb8075"},"downloads":53},"tags":[],"current_user_can_comment":false,"current_version":7,"show_as_unviewed":false},"relationships":{"parent_folder":{"links":{"related":{"href":"https://api.osf.io/v2/files/641da7911a80c5017486be09/","meta":{}}},"data":{"id":"641da7911a80c5017486be09","type":"files"}},"versions":{"links":{"related":{"href":"https://api.osf.io/v2/files/65256343a4e831013684c717/versions/","meta":{}}}},"comments":{"links":{"related":{"href":"https://api.osf.io/v2/nodes/9r62x/comments/?filter%5Btarget%5D=tuza8","meta":{}}}},"node":{"links":{"related":{"href":"https://api.osf.io/v2/nodes/9r62x/","meta":{}}},"data":{"id":"9r62x","type":"nodes"}},"target":{"links":{"related":{"href":"https://api.osf.io/v2/nodes/9r62x/","meta":{"type":"nodes"}}},"data":{"type":"nodes","id":"9r62x"}},"cedar_metadata_records":{"links":{"related":{"href":"https://api.osf.io/v2/files/65256343a4e831013684c717/cedar_metadata_records/","meta":{}}}}},"links":{"info":"https://api.osf.io/v2/files/65256343a4e831013684c717/","move":"https://files.de-1.osf.io/v1/resources/9r62x/providers/osfstorage/65256343a4e831013684c717","upload":"https://files.de-1.osf.io/v1/resources/9r62x/providers/osfstorage/65256343a4e831013684c717","delete":"https://files.de-1.osf.io/v1/resources/9r62x/providers/osfstorage/65256343a4e831013684c717","download":"https://osf.io/download/tuza8/","render":"https://mfr.de-1.osf.io/render?url=https%3A%2F%2Fosf.io%2Fdownload%2Ftuza8%2F%3Fdirect%26mode%3Drender","html":"https://osf.io/9r62x/files/osfstorage/65256343a4e831013684c717","self":"https://api.osf.io/v2/files/65256343a4e831013684c717/","iri":"https://osf.io/tuza8"}},{"id":"65fdc54646d2f2005f28fa21","type":"files","attributes":{"guid":"n5vae","checkout":null,"name":"FORRT_FReD_Presentation [YOS_LR] 2024.pptx","kind":"file","path":"/65fdc54646d2f2005f28fa21","size":7906530,"provider":"osfstorage","materialized_path":"/2 Materials/Presentations/FORRT_FReD_Presentation [YOS_LR] 2024.pptx","last_touched":null,"date_modified":"2024-03-22T17:53:13.688598","date_created":"2024-03-22T17:52:06.091033Z","extra":{"hashes":{"md5":"9dc3a2877f861e048f05359701eaf29c","sha256":"4a7e8d983ecc4f991afb9ba3906c2738ecc0204d982c032e5b9e2f1ec9bb3aa6"},"downloads":42},"tags":[],"current_user_can_comment":false,"current_version":2,"show_as_unviewed":false},"relationships":{"parent_folder":{"links":{"related":{"href":"https://api.osf.io/v2/files/641da7911a80c5017486be09/","meta":{}}},"data":{"id":"641da7911a80c5017486be09","type":"files"}},"versions":{"links":{"related":{"href":"https://api.osf.io/v2/files/65fdc54646d2f2005f28fa21/versions/","meta":{}}}},"comments":{"links":{"related":{"href":"https://api.osf.io/v2/nodes/9r62x/comments/?filter%5Btarget%5D=n5vae","meta":{}}}},"node":{"links":{"related":{"href":"https://api.osf.io/v2/nodes/9r62x/","meta":{}}},"data":{"id":"9r62x","type":"nodes"}},"target":{"links":{"related":{"href":"https://api.osf.io/v2/nodes/9r62x/","meta":{"type":"nodes"}}},"data":{"type":"nodes","id":"9r62x"}},"cedar_metadata_records":{"links":{"related":{"href":"https://api.osf.io/v2/files/65fdc54646d2f2005f28fa21/cedar_metadata_records/","meta":{}}}}},"links":{"info":"https://api.osf.io/v2/files/65fdc54646d2f2005f28fa21/","move":"https://files.de-1.osf.io/v1/resources/9r62x/providers/osfstorage/65fdc54646d2f2005f28fa21","upload":"https://files.de-1.osf.io/v1/resources/9r62x/providers/osfstorage/65fdc54646d2f2005f28fa21","delete":"https://files.de-1.osf.io/v1/resources/9r62x/providers/osfstorage/65fdc54646d2f2005f28fa21","download":"https://osf.io/download/n5vae/","render":"https://mfr.de-1.osf.io/render?url=https%3A%2F%2Fosf.io%2Fdownload%2Fn5vae%2F%3Fdirect%26mode%3Drender","html":"https://osf.io/9r62x/files/osfstorage/65fdc54646d2f2005f28fa21","self":"https://api.osf.io/v2/files/65fdc54646d2f2005f28fa21/","iri":"https://osf.io/n5vae"}},{"id":"643949cf5d9aba0b4dadc2e4","type":"files","attributes":{"guid":"afkc8","checkout":null,"name":"TeaP_Replication_Database_ Christopher_Doetsch.pdf","kind":"file","path":"/643949cf5d9aba0b4dadc2e4","size":642394,"provider":"osfstorage","materialized_path":"/2 Materials/Presentations/TeaP_Replication_Database_ Christopher_Doetsch.pdf","last_touched":null,"date_modified":"2023-04-14T12:40:47.287678","date_created":"2023-04-14T12:40:47.287678Z","extra":{"hashes":{"md5":"8190ecd1b51a4e2bf5a703692e20b02e","sha256":"71d89dee248651cc10a47ba5f70d7aa40429d3f8d163f2d03e9de0f2c92a5f67"},"downloads":13},"tags":[],"current_user_can_comment":false,"current_version":1,"show_as_unviewed":false},"relationships":{"parent_folder":{"links":{"related":{"href":"https://api.osf.io/v2/files/641da7911a80c5017486be09/","meta":{}}},"data":{"id":"641da7911a80c5017486be09","type":"files"}},"versions":{"links":{"related":{"href":"https://api.osf.io/v2/files/643949cf5d9aba0b4dadc2e4/versions/","meta":{}}}},"comments":{"links":{"related":{"href":"https://api.osf.io/v2/nodes/9r62x/comments/?filter%5Btarget%5D=afkc8","meta":{}}}},"node":{"links":{"related":{"href":"https://api.osf.io/v2/nodes/9r62x/","meta":{}}},"data":{"id":"9r62x","type":"nodes"}},"target":{"links":{"related":{"href":"https://api.osf.io/v2/nodes/9r62x/","meta":{"type":"nodes"}}},"data":{"type":"nodes","id":"9r62x"}},"cedar_metadata_records":{"links":{"related":{"href":"https://api.osf.io/v2/files/643949cf5d9aba0b4dadc2e4/cedar_metadata_records/","meta":{}}}}},"links":{"info":"https://api.osf.io/v2/files/643949cf5d9aba0b4dadc2e4/","move":"https://files.de-1.osf.io/v1/resources/9r62x/providers/osfstorage/643949cf5d9aba0b4dadc2e4","upload":"https://files.de-1.osf.io/v1/resources/9r62x/providers/osfstorage/643949cf5d9aba0b4dadc2e4","delete":"https://files.de-1.osf.io/v1/resources/9r62x/providers/osfstorage/643949cf5d9aba0b4dadc2e4","download":"https://osf.io/download/afkc8/","render":"https://mfr.de-1.osf.io/render?url=https%3A%2F%2Fosf.io%2Fdownload%2Fafkc8%2F%3Fdirect%26mode%3Drender","html":"https://osf.io/9r62x/files/osfstorage/643949cf5d9aba0b4dadc2e4","self":"https://api.osf.io/v2/files/643949cf5d9aba0b4dadc2e4/","iri":"https://osf.io/afkc8"}},{"id":"68482dbe4a16009af35395df","type":"files","attributes":{"guid":"3qt4j","checkout":null,"name":"250625_SIPSunconference.pptx","kind":"file","path":"/68482dbe4a16009af35395df","size":2184822,"provider":"osfstorage","materialized_path":"/2 Materials/Presentations/250625_SIPSunconference.pptx","last_touched":null,"date_modified":"2025-06-10T13:06:06.354322","date_created":"2025-06-10T13:06:06.354322Z","extra":{"hashes":{"md5":"ed3aacd17ca429b8e864740db3ca1028","sha256":"c87e8f1080ecbb4072c26c50c3e1fedb8d2db3552da5cd7acc57cbb94ae813ca"},"downloads":9},"tags":[],"current_user_can_comment":false,"current_version":1,"show_as_unviewed":false},"relationships":{"parent_folder":{"links":{"related":{"href":"https://api.osf.io/v2/files/641da7911a80c5017486be09/","meta":{}}},"data":{"id":"641da7911a80c5017486be09","type":"files"}},"versions":{"links":{"related":{"href":"https://api.osf.io/v2/files/68482dbe4a16009af35395df/versions/","meta":{}}}},"comments":{"links":{"related":{"href":"https://api.osf.io/v2/nodes/9r62x/comments/?filter%5Btarget%5D=3qt4j","meta":{}}}},"node":{"links":{"related":{"href":"https://api.osf.io/v2/nodes/9r62x/","meta":{}}},"data":{"id":"9r62x","type":"nodes"}},"target":{"links":{"related":{"href":"https://api.osf.io/v2/nodes/9r62x/","meta":{"type":"nodes"}}},"data":{"type":"nodes","id":"9r62x"}},"cedar_metadata_records":{"links":{"related":{"href":"https://api.osf.io/v2/files/68482dbe4a16009af35395df/cedar_metadata_records/","meta":{}}}}},"links":{"info":"https://api.osf.io/v2/files/68482dbe4a16009af35395df/","move":"https://files.de-1.osf.io/v1/resources/9r62x/providers/osfstorage/68482dbe4a16009af35395df","upload":"https://files.de-1.osf.io/v1/resources/9r62x/providers/osfstorage/68482dbe4a16009af35395df","delete":"https://files.de-1.osf.io/v1/resources/9r62x/providers/osfstorage/68482dbe4a16009af35395df","download":"https://osf.io/download/3qt4j/","render":"https://mfr.de-1.osf.io/render?url=https%3A%2F%2Fosf.io%2Fdownload%2F3qt4j%2F%3Fdirect%26mode%3Drender","html":"https://osf.io/9r62x/files/osfstorage/68482dbe4a16009af35395df","self":"https://api.osf.io/v2/files/68482dbe4a16009af35395df/","iri":"https://osf.io/3qt4j"}},{"id":"6716622ae15be5885f2ec7c6","type":"files","attributes":{"guid":"s7rtm","checkout":null,"name":"Contributing to FReD.pptx","kind":"file","path":"/6716622ae15be5885f2ec7c6","size":1898024,"provider":"osfstorage","materialized_path":"/2 Materials/Presentations/Contributing to FReD.pptx","last_touched":null,"date_modified":"2024-10-21T14:17:39.152498","date_created":"2024-10-21T14:16:11.028807Z","extra":{"hashes":{"md5":"785cbb338f224a911db1009ba9eb37e1","sha256":"0ab54e301a3488eecb1c8b271a3c6ba2d655215573d43561c0d4a0368267c8b2"},"downloads":15},"tags":[],"current_user_can_comment":false,"current_version":2,"show_as_unviewed":false},"relationships":{"parent_folder":{"links":{"related":{"href":"https://api.osf.io/v2/files/641da7911a80c5017486be09/","meta":{}}},"data":{"id":"641da7911a80c5017486be09","type":"files"}},"versions":{"links":{"related":{"href":"https://api.osf.io/v2/files/6716622ae15be5885f2ec7c6/versions/","meta":{}}}},"comments":{"links":{"related":{"href":"https://api.osf.io/v2/nodes/9r62x/comments/?filter%5Btarget%5D=s7rtm","meta":{}}}},"node":{"links":{"related":{"href":"https://api.osf.io/v2/nodes/9r62x/","meta":{}}},"data":{"id":"9r62x","type":"nodes"}},"target":{"links":{"related":{"href":"https://api.osf.io/v2/nodes/9r62x/","meta":{"type":"nodes"}}},"data":{"type":"nodes","id":"9r62x"}},"cedar_metadata_records":{"links":{"related":{"href":"https://api.osf.io/v2/files/6716622ae15be5885f2ec7c6/cedar_metadata_records/","meta":{}}}}},"links":{"info":"https://api.osf.io/v2/files/6716622ae15be5885f2ec7c6/","move":"https://files.de-1.osf.io/v1/resources/9r62x/providers/osfstorage/6716622ae15be5885f2ec7c6","upload":"https://files.de-1.osf.io/v1/resources/9r62x/providers/osfstorage/6716622ae15be5885f2ec7c6","delete":"https://files.de-1.osf.io/v1/resources/9r62x/providers/osfstorage/6716622ae15be5885f2ec7c6","download":"https://osf.io/download/s7rtm/","render":"https://mfr.de-1.osf.io/render?url=https%3A%2F%2Fosf.io%2Fdownload%2Fs7rtm%2F%3Fdirect%26mode%3Drender","html":"https://osf.io/9r62x/files/osfstorage/6716622ae15be5885f2ec7c6","self":"https://api.osf.io/v2/files/6716622ae15be5885f2ec7c6/","iri":"https://osf.io/s7rtm"}},{"id":"6717c5158d05a6913fbfaa7e","type":"files","attributes":{"guid":"g3wke","checkout":null,"name":"241107_FoKoDortmund.pptx","kind":"file","path":"/6717c5158d05a6913fbfaa7e","size":3901189,"provider":"osfstorage","materialized_path":"/2 Materials/Presentations/241107_FoKoDortmund.pptx","last_touched":null,"date_modified":"2024-11-06T16:13:44.920659","date_created":"2024-10-22T15:30:29.695226Z","extra":{"hashes":{"md5":"5f7723156e9715d3481d19b112fb73e2","sha256":"fb734cdbeebd109a586d6dcb420402d4042bea3c6f0f0d7c79fe0b0a87850831"},"downloads":14},"tags":[],"current_user_can_comment":false,"current_version":4,"show_as_unviewed":false},"relationships":{"parent_folder":{"links":{"related":{"href":"https://api.osf.io/v2/files/641da7911a80c5017486be09/","meta":{}}},"data":{"id":"641da7911a80c5017486be09","type":"files"}},"versions":{"links":{"related":{"href":"https://api.osf.io/v2/files/6717c5158d05a6913fbfaa7e/versions/","meta":{}}}},"comments":{"links":{"related":{"href":"https://api.osf.io/v2/nodes/9r62x/comments/?filter%5Btarget%5D=g3wke","meta":{}}}},"node":{"links":{"related":{"href":"https://api.osf.io/v2/nodes/9r62x/","meta":{}}},"data":{"id":"9r62x","type":"nodes"}},"target":{"links":{"related":{"href":"https://api.osf.io/v2/nodes/9r62x/","meta":{"type":"nodes"}}},"data":{"type":"nodes","id":"9r62x"}},"cedar_metadata_records":{"links":{"related":{"href":"https://api.osf.io/v2/files/6717c5158d05a6913fbfaa7e/cedar_metadata_records/","meta":{}}}}},"links":{"info":"https://api.osf.io/v2/files/6717c5158d05a6913fbfaa7e/","move":"https://files.de-1.osf.io/v1/resources/9r62x/providers/osfstorage/6717c5158d05a6913fbfaa7e","upload":"https://files.de-1.osf.io/v1/resources/9r62x/providers/osfstorage/6717c5158d05a6913fbfaa7e","delete":"https://files.de-1.osf.io/v1/resources/9r62x/providers/osfstorage/6717c5158d05a6913fbfaa7e","download":"https://osf.io/download/g3wke/","render":"https://mfr.de-1.osf.io/render?url=https%3A%2F%2Fosf.io%2Fdownload%2Fg3wke%2F%3Fdirect%26mode%3Drender","html":"https://osf.io/9r62x/files/osfstorage/6717c5158d05a6913fbfaa7e","self":"https://api.osf.io/v2/files/6717c5158d05a6913fbfaa7e/","iri":"https://osf.io/g3wke"}},{"id":"68482dbe9854df66a6ab81b0","type":"files","attributes":{"guid":"4nyjx","checkout":null,"name":"250625_SIPSoffline_FReD.pptx","kind":"file","path":"/68482dbe9854df66a6ab81b0","size":1685787,"provider":"osfstorage","materialized_path":"/2 Materials/Presentations/250625_SIPSoffline_FReD.pptx","last_touched":null,"date_modified":"2025-06-10T13:06:06.159977","date_created":"2025-06-10T13:06:06.159977Z","extra":{"hashes":{"md5":"bf6fe10ee3157b7bff6033fb3d0ab0bb","sha256":"f26baa9695a697e26d64a33e24f025d2d2cae137d5d698d4de6d771d35d4c85a"},"downloads":8},"tags":[],"current_user_can_comment":false,"current_version":1,"show_as_unviewed":false},"relationships":{"parent_folder":{"links":{"related":{"href":"https://api.osf.io/v2/files/641da7911a80c5017486be09/","meta":{}}},"data":{"id":"641da7911a80c5017486be09","type":"files"}},"versions":{"links":{"related":{"href":"https://api.osf.io/v2/files/68482dbe9854df66a6ab81b0/versions/","meta":{}}}},"comments":{"links":{"related":{"href":"https://api.osf.io/v2/nodes/9r62x/comments/?filter%5Btarget%5D=4nyjx","meta":{}}}},"node":{"links":{"related":{"href":"https://api.osf.io/v2/nodes/9r62x/","meta":{}}},"data":{"id":"9r62x","type":"nodes"}},"target":{"links":{"related":{"href":"https://api.osf.io/v2/nodes/9r62x/","meta":{"type":"nodes"}}},"data":{"type":"nodes","id":"9r62x"}},"cedar_metadata_records":{"links":{"related":{"href":"https://api.osf.io/v2/files/68482dbe9854df66a6ab81b0/cedar_metadata_records/","meta":{}}}}},"links":{"info":"https://api.osf.io/v2/files/68482dbe9854df66a6ab81b0/","move":"https://files.de-1.osf.io/v1/resources/9r62x/providers/osfstorage/68482dbe9854df66a6ab81b0","upload":"https://files.de-1.osf.io/v1/resources/9r62x/providers/osfstorage/68482dbe9854df66a6ab81b0","delete":"https://files.de-1.osf.io/v1/resources/9r62x/providers/osfstorage/68482dbe9854df66a6ab81b0","download":"https://osf.io/download/4nyjx/","render":"https://mfr.de-1.osf.io/render?url=https%3A%2F%2Fosf.io%2Fdownload%2F4nyjx%2F%3Fdirect%26mode%3Drender","html":"https://osf.io/9r62x/files/osfstorage/68482dbe9854df66a6ab81b0","self":"https://api.osf.io/v2/files/68482dbe9854df66a6ab81b0/","iri":"https://osf.io/4nyjx"}},{"id":"685aa16b3116f2df02d163e6","type":"files","attributes":{"guid":"kbejq","checkout":null,"name":"FORRT Replication Hub _ Metascience 2025.pptx","kind":"file","path":"/685aa16b3116f2df02d163e6","size":13528556,"provider":"osfstorage","materialized_path":"/2 Materials/Presentations/FORRT Replication Hub _ Metascience 2025.pptx","last_touched":null,"date_modified":"2025-06-24T13:00:27.272814","date_created":"2025-06-24T13:00:27.272814Z","extra":{"hashes":{"md5":"1fa3c9eb503d15f3ad50c8c4461167ec","sha256":"ccb20941a196f67e2cbe7e48a748dfe0f45b14d0d86471bc168504309c65b9e5"},"downloads":12},"tags":[],"current_user_can_comment":false,"current_version":1,"show_as_unviewed":false},"relationships":{"parent_folder":{"links":{"related":{"href":"https://api.osf.io/v2/files/641da7911a80c5017486be09/","meta":{}}},"data":{"id":"641da7911a80c5017486be09","type":"files"}},"versions":{"links":{"related":{"href":"https://api.osf.io/v2/files/685aa16b3116f2df02d163e6/versions/","meta":{}}}},"comments":{"links":{"related":{"href":"https://api.osf.io/v2/nodes/9r62x/comments/?filter%5Btarget%5D=kbejq","meta":{}}}},"node":{"links":{"related":{"href":"https://api.osf.io/v2/nodes/9r62x/","meta":{}}},"data":{"id":"9r62x","type":"nodes"}},"target":{"links":{"related":{"href":"https://api.osf.io/v2/nodes/9r62x/","meta":{"type":"nodes"}}},"data":{"type":"nodes","id":"9r62x"}},"cedar_metadata_records":{"links":{"related":{"href":"https://api.osf.io/v2/files/685aa16b3116f2df02d163e6/cedar_metadata_records/","meta":{}}}}},"links":{"info":"https://api.osf.io/v2/files/685aa16b3116f2df02d163e6/","move":"https://files.de-1.osf.io/v1/resources/9r62x/providers/osfstorage/685aa16b3116f2df02d163e6","upload":"https://files.de-1.osf.io/v1/resources/9r62x/providers/osfstorage/685aa16b3116f2df02d163e6","delete":"https://files.de-1.osf.io/v1/resources/9r62x/providers/osfstorage/685aa16b3116f2df02d163e6","download":"https://osf.io/download/kbejq/","render":"https://mfr.de-1.osf.io/render?url=https%3A%2F%2Fosf.io%2Fdownload%2Fkbejq%2F%3Fdirect%26mode%3Drender","html":"https://osf.io/9r62x/files/osfstorage/685aa16b3116f2df02d163e6","self":"https://api.osf.io/v2/files/685aa16b3116f2df02d163e6/","iri":"https://osf.io/kbejq"}},{"id":"685aa12242ff0c5e98d1ad70","type":"files","attributes":{"guid":"h25j3","checkout":null,"name":"2025 Metascience Symposium - Lukas W.pptx","kind":"file","path":"/685aa12242ff0c5e98d1ad70","size":13397459,"provider":"osfstorage","materialized_path":"/2 Materials/Presentations/2025 Metascience Symposium - Lukas W.pptx","last_touched":null,"date_modified":"2025-06-24T12:59:14.882305","date_created":"2025-06-24T12:59:14.882305Z","extra":{"hashes":{"md5":"ad57c50fb4a662f87136eb20f7b025b5","sha256":"2b155e2dcb48bc5432f59aa473df93d81e1e44ea1880c3dc2caa733d4ad4288c"},"downloads":9},"tags":[],"current_user_can_comment":false,"current_version":1,"show_as_unviewed":false},"relationships":{"parent_folder":{"links":{"related":{"href":"https://api.osf.io/v2/files/641da7911a80c5017486be09/","meta":{}}},"data":{"id":"641da7911a80c5017486be09","type":"files"}},"versions":{"links":{"related":{"href":"https://api.osf.io/v2/files/685aa12242ff0c5e98d1ad70/versions/","meta":{}}}},"comments":{"links":{"related":{"href":"https://api.osf.io/v2/nodes/9r62x/comments/?filter%5Btarget%5D=h25j3","meta":{}}}},"node":{"links":{"related":{"href":"https://api.osf.io/v2/nodes/9r62x/","meta":{}}},"data":{"id":"9r62x","type":"nodes"}},"target":{"links":{"related":{"href":"https://api.osf.io/v2/nodes/9r62x/","meta":{"type":"nodes"}}},"data":{"type":"nodes","id":"9r62x"}},"cedar_metadata_records":{"links":{"related":{"href":"https://api.osf.io/v2/files/685aa12242ff0c5e98d1ad70/cedar_metadata_records/","meta":{}}}}},"links":{"info":"https://api.osf.io/v2/files/685aa12242ff0c5e98d1ad70/","move":"https://files.de-1.osf.io/v1/resources/9r62x/providers/osfstorage/685aa12242ff0c5e98d1ad70","upload":"https://files.de-1.osf.io/v1/resources/9r62x/providers/osfstorage/685aa12242ff0c5e98d1ad70","delete":"https://files.de-1.osf.io/v1/resources/9r62x/providers/osfstorage/685aa12242ff0c5e98d1ad70","download":"https://osf.io/download/h25j3/","render":"https://mfr.de-1.osf.io/render?url=https%3A%2F%2Fosf.io%2Fdownload%2Fh25j3%2F%3Fdirect%26mode%3Drender","html":"https://osf.io/9r62x/files/osfstorage/685aa12242ff0c5e98d1ad70","self":"https://api.osf.io/v2/files/685aa12242ff0c5e98d1ad70/","iri":"https://osf.io/h25j3"}},{"id":"682c73ccba01ec8c008f3e9d","type":"files","attributes":{"guid":"c6uak","checkout":null,"name":"250521_SIPSonline_FReDhackathon.pptx","kind":"file","path":"/682c73ccba01ec8c008f3e9d","size":1236333,"provider":"osfstorage","materialized_path":"/2 Materials/Presentations/250521_SIPSonline_FReDhackathon.pptx","last_touched":null,"date_modified":"2025-05-20T12:24:16.513111","date_created":"2025-05-20T12:21:32.573307Z","extra":{"hashes":{"md5":"c3de2baeb63ebc72f0b6923ed5c8176a","sha256":"b692bbfb450cfda4d53a8df954fbebc50c65ecda865e4f79032ee8a9461239b1"},"downloads":16},"tags":[],"current_user_can_comment":false,"current_version":2,"show_as_unviewed":false},"relationships":{"parent_folder":{"links":{"related":{"href":"https://api.osf.io/v2/files/641da7911a80c5017486be09/","meta":{}}},"data":{"id":"641da7911a80c5017486be09","type":"files"}},"versions":{"links":{"related":{"href":"https://api.osf.io/v2/files/682c73ccba01ec8c008f3e9d/versions/","meta":{}}}},"comments":{"links":{"related":{"href":"https://api.osf.io/v2/nodes/9r62x/comments/?filter%5Btarget%5D=c6uak","meta":{}}}},"node":{"links":{"related":{"href":"https://api.osf.io/v2/nodes/9r62x/","meta":{}}},"data":{"id":"9r62x","type":"nodes"}},"target":{"links":{"related":{"href":"https://api.osf.io/v2/nodes/9r62x/","meta":{"type":"nodes"}}},"data":{"type":"nodes","id":"9r62x"}},"cedar_metadata_records":{"links":{"related":{"href":"https://api.osf.io/v2/files/682c73ccba01ec8c008f3e9d/cedar_metadata_records/","meta":{}}}}},"links":{"info":"https://api.osf.io/v2/files/682c73ccba01ec8c008f3e9d/","move":"https://files.de-1.osf.io/v1/resources/9r62x/providers/osfstorage/682c73ccba01ec8c008f3e9d","upload":"https://files.de-1.osf.io/v1/resources/9r62x/providers/osfstorage/682c73ccba01ec8c008f3e9d","delete":"https://files.de-1.osf.io/v1/resources/9r62x/providers/osfstorage/682c73ccba01ec8c008f3e9d","download":"https://osf.io/download/c6uak/","render":"https://mfr.de-1.osf.io/render?url=https%3A%2F%2Fosf.io%2Fdownload%2Fc6uak%2F%3Fdirect%26mode%3Drender","html":"https://osf.io/9r62x/files/osfstorage/682c73ccba01ec8c008f3e9d","self":"https://api.osf.io/v2/files/682c73ccba01ec8c008f3e9d/","iri":"https://osf.io/c6uak"}}],"links":{"first":null,"last":"https://api.osf.io/v2/nodes/9r62x/files/osfstorage/641da7911a80c5017486be09/?page=2","prev":null,"next":"https://api.osf.io/v2/nodes/9r62x/files/osfstorage/641da7911a80c5017486be09/?page=2","meta":{"total":14,"per_page":10}},"meta":{"version":"2.0"}}