{"data":[{"id":"695d9bca28d322825e8f45db","type":"files","attributes":{"guid":"5z3ws","checkout":null,"name":"Qualitative Assessment EPM43.docx","kind":"file","path":"/695d9bca28d322825e8f45db","size":8115,"provider":"osfstorage","materialized_path":"/Qualitative Assessment of Replications/Individual Replication Qualitative Assessment/Qualitative Assessment EPM43.docx","last_touched":null,"date_modified":"2026-01-06T23:33:30.633204","date_created":"2026-01-06T23:33:30.633204Z","extra":{"hashes":{"md5":"e741e32e4be78e3b71a6fb37dd98653d","sha256":"7721bf1f8408e636c55c3473cc8e80f3ea83be03d773e1915254f563eaa7ffe6"},"downloads":5},"tags":[],"current_user_can_comment":false,"current_version":1,"show_as_unviewed":false},"relationships":{"parent_folder":{"links":{"related":{"href":"https://api.osf.io/v2/files/695d9b95cbd854558fdd84b5/","meta":{}}},"data":{"id":"695d9b95cbd854558fdd84b5","type":"files"}},"versions":{"links":{"related":{"href":"https://api.osf.io/v2/files/695d9bca28d322825e8f45db/versions/","meta":{}}}},"comments":{"links":{"related":{"href":"https://api.osf.io/v2/nodes/6av7k/comments/?filter%5Btarget%5D=5z3ws","meta":{}}}},"node":{"links":{"related":{"href":"https://api.osf.io/v2/nodes/6av7k/","meta":{}}},"data":{"id":"6av7k","type":"nodes"}},"target":{"links":{"related":{"href":"https://api.osf.io/v2/nodes/6av7k/","meta":{"type":"nodes"}}},"data":{"type":"nodes","id":"6av7k"}},"cedar_metadata_records":{"links":{"related":{"href":"https://api.osf.io/v2/files/695d9bca28d322825e8f45db/cedar_metadata_records/","meta":{}}}}},"links":{"info":"https://api.osf.io/v2/files/695d9bca28d322825e8f45db/","move":"https://files.osf.io/v1/resources/6av7k/providers/osfstorage/695d9bca28d322825e8f45db","upload":"https://files.osf.io/v1/resources/6av7k/providers/osfstorage/695d9bca28d322825e8f45db","delete":"https://files.osf.io/v1/resources/6av7k/providers/osfstorage/695d9bca28d322825e8f45db","download":"https://osf.io/download/5z3ws/","render":"https://mfr.osf.io/render?url=https%3A%2F%2Fosf.io%2Fdownload%2F5z3ws%2F%3Fdirect%26mode%3Drender","html":"https://osf.io/6av7k/files/osfstorage/695d9bca28d322825e8f45db","self":"https://api.osf.io/v2/files/695d9bca28d322825e8f45db/","iri":"https://osf.io/5z3ws"}},{"id":"695d9bcc88f4ef287bdd8f8d","type":"files","attributes":{"guid":"weh2b","checkout":null,"name":"Qualitative Assessment PCR69.docx","kind":"file","path":"/695d9bcc88f4ef287bdd8f8d","size":5589399,"provider":"osfstorage","materialized_path":"/Qualitative Assessment of Replications/Individual Replication Qualitative Assessment/Qualitative Assessment PCR69.docx","last_touched":null,"date_modified":"2026-01-23T22:15:55.972395","date_created":"2026-01-06T23:33:32.347354Z","extra":{"hashes":{"md5":"64b9f88893caae8bc92581195142261e","sha256":"578793c681e8804cc53e2f0d578d4372ee1d33abd431f8f2289e0b6c441d1a79"},"downloads":4},"tags":[],"current_user_can_comment":false,"current_version":2,"show_as_unviewed":false},"relationships":{"parent_folder":{"links":{"related":{"href":"https://api.osf.io/v2/files/695d9b95cbd854558fdd84b5/","meta":{}}},"data":{"id":"695d9b95cbd854558fdd84b5","type":"files"}},"versions":{"links":{"related":{"href":"https://api.osf.io/v2/files/695d9bcc88f4ef287bdd8f8d/versions/","meta":{}}}},"comments":{"links":{"related":{"href":"https://api.osf.io/v2/nodes/6av7k/comments/?filter%5Btarget%5D=weh2b","meta":{}}}},"node":{"links":{"related":{"href":"https://api.osf.io/v2/nodes/6av7k/","meta":{}}},"data":{"id":"6av7k","type":"nodes"}},"target":{"links":{"related":{"href":"https://api.osf.io/v2/nodes/6av7k/","meta":{"type":"nodes"}}},"data":{"type":"nodes","id":"6av7k"}},"cedar_metadata_records":{"links":{"related":{"href":"https://api.osf.io/v2/files/695d9bcc88f4ef287bdd8f8d/cedar_metadata_records/","meta":{}}}}},"links":{"info":"https://api.osf.io/v2/files/695d9bcc88f4ef287bdd8f8d/","move":"https://files.osf.io/v1/resources/6av7k/providers/osfstorage/695d9bcc88f4ef287bdd8f8d","upload":"https://files.osf.io/v1/resources/6av7k/providers/osfstorage/695d9bcc88f4ef287bdd8f8d","delete":"https://files.osf.io/v1/resources/6av7k/providers/osfstorage/695d9bcc88f4ef287bdd8f8d","download":"https://osf.io/download/weh2b/","render":"https://mfr.osf.io/render?url=https%3A%2F%2Fosf.io%2Fdownload%2Fweh2b%2F%3Fdirect%26mode%3Drender","html":"https://osf.io/6av7k/files/osfstorage/695d9bcc88f4ef287bdd8f8d","self":"https://api.osf.io/v2/files/695d9bcc88f4ef287bdd8f8d/","iri":"https://osf.io/weh2b"}},{"id":"695d9bcc7a90e71c6c8f5c1a","type":"files","attributes":{"guid":"5tn4y","checkout":null,"name":"Qualitative Assessment MTT26.docx","kind":"file","path":"/695d9bcc7a90e71c6c8f5c1a","size":5589375,"provider":"osfstorage","materialized_path":"/Qualitative Assessment of Replications/Individual Replication Qualitative Assessment/Qualitative Assessment MTT26.docx","last_touched":null,"date_modified":"2026-01-23T21:23:15.450641","date_created":"2026-01-06T23:33:32.327638Z","extra":{"hashes":{"md5":"3b237bef2875ff571763d67680b84f63","sha256":"0dc77e0f10f61c710c618b2a7d3252a7851837076887c883b249a7d17dcc2707"},"downloads":4},"tags":[],"current_user_can_comment":false,"current_version":2,"show_as_unviewed":false},"relationships":{"parent_folder":{"links":{"related":{"href":"https://api.osf.io/v2/files/695d9b95cbd854558fdd84b5/","meta":{}}},"data":{"id":"695d9b95cbd854558fdd84b5","type":"files"}},"versions":{"links":{"related":{"href":"https://api.osf.io/v2/files/695d9bcc7a90e71c6c8f5c1a/versions/","meta":{}}}},"comments":{"links":{"related":{"href":"https://api.osf.io/v2/nodes/6av7k/comments/?filter%5Btarget%5D=5tn4y","meta":{}}}},"node":{"links":{"related":{"href":"https://api.osf.io/v2/nodes/6av7k/","meta":{}}},"data":{"id":"6av7k","type":"nodes"}},"target":{"links":{"related":{"href":"https://api.osf.io/v2/nodes/6av7k/","meta":{"type":"nodes"}}},"data":{"type":"nodes","id":"6av7k"}},"cedar_metadata_records":{"links":{"related":{"href":"https://api.osf.io/v2/files/695d9bcc7a90e71c6c8f5c1a/cedar_metadata_records/","meta":{}}}}},"links":{"info":"https://api.osf.io/v2/files/695d9bcc7a90e71c6c8f5c1a/","move":"https://files.osf.io/v1/resources/6av7k/providers/osfstorage/695d9bcc7a90e71c6c8f5c1a","upload":"https://files.osf.io/v1/resources/6av7k/providers/osfstorage/695d9bcc7a90e71c6c8f5c1a","delete":"https://files.osf.io/v1/resources/6av7k/providers/osfstorage/695d9bcc7a90e71c6c8f5c1a","download":"https://osf.io/download/5tn4y/","render":"https://mfr.osf.io/render?url=https%3A%2F%2Fosf.io%2Fdownload%2F5tn4y%2F%3Fdirect%26mode%3Drender","html":"https://osf.io/6av7k/files/osfstorage/695d9bcc7a90e71c6c8f5c1a","self":"https://api.osf.io/v2/files/695d9bcc7a90e71c6c8f5c1a/","iri":"https://osf.io/5tn4y"}},{"id":"695d9fd457771f4982953fad","type":"files","attributes":{"guid":"ra4vh","checkout":null,"name":"Qualitative Assessment MTT04.docx","kind":"file","path":"/695d9fd457771f4982953fad","size":7466479,"provider":"osfstorage","materialized_path":"/Qualitative Assessment of Replications/Individual Replication Qualitative Assessment/Qualitative Assessment MTT04.docx","last_touched":null,"date_modified":"2026-01-23T21:23:14.375919","date_created":"2026-01-06T23:50:44.849355Z","extra":{"hashes":{"md5":"25be1ccae5aa8f49cfe0ce9adaf8f9ac","sha256":"ca859d4a5daba9a5be642d0b5a26430ac1e827698d680f484ff51777a7d01c42"},"downloads":4},"tags":[],"current_user_can_comment":false,"current_version":2,"show_as_unviewed":false},"relationships":{"parent_folder":{"links":{"related":{"href":"https://api.osf.io/v2/files/695d9b95cbd854558fdd84b5/","meta":{}}},"data":{"id":"695d9b95cbd854558fdd84b5","type":"files"}},"versions":{"links":{"related":{"href":"https://api.osf.io/v2/files/695d9fd457771f4982953fad/versions/","meta":{}}}},"comments":{"links":{"related":{"href":"https://api.osf.io/v2/nodes/6av7k/comments/?filter%5Btarget%5D=ra4vh","meta":{}}}},"node":{"links":{"related":{"href":"https://api.osf.io/v2/nodes/6av7k/","meta":{}}},"data":{"id":"6av7k","type":"nodes"}},"target":{"links":{"related":{"href":"https://api.osf.io/v2/nodes/6av7k/","meta":{"type":"nodes"}}},"data":{"type":"nodes","id":"6av7k"}},"cedar_metadata_records":{"links":{"related":{"href":"https://api.osf.io/v2/files/695d9fd457771f4982953fad/cedar_metadata_records/","meta":{}}}}},"links":{"info":"https://api.osf.io/v2/files/695d9fd457771f4982953fad/","move":"https://files.osf.io/v1/resources/6av7k/providers/osfstorage/695d9fd457771f4982953fad","upload":"https://files.osf.io/v1/resources/6av7k/providers/osfstorage/695d9fd457771f4982953fad","delete":"https://files.osf.io/v1/resources/6av7k/providers/osfstorage/695d9fd457771f4982953fad","download":"https://osf.io/download/ra4vh/","render":"https://mfr.osf.io/render?url=https%3A%2F%2Fosf.io%2Fdownload%2Fra4vh%2F%3Fdirect%26mode%3Drender","html":"https://osf.io/6av7k/files/osfstorage/695d9fd457771f4982953fad","self":"https://api.osf.io/v2/files/695d9fd457771f4982953fad/","iri":"https://osf.io/ra4vh"}},{"id":"695d9c2664f21016b8cf4b2f","type":"files","attributes":{"guid":"ymva9","checkout":null,"name":"Qualitative Assessment PCR40.docx","kind":"file","path":"/695d9c2664f21016b8cf4b2f","size":8288,"provider":"osfstorage","materialized_path":"/Qualitative Assessment of Replications/Individual Replication Qualitative Assessment/Qualitative Assessment PCR40.docx","last_touched":null,"date_modified":"2026-01-06T23:35:02.671993","date_created":"2026-01-06T23:35:02.671993Z","extra":{"hashes":{"md5":"cb6903854910dd668e51bb0d9e32de37","sha256":"64a75ef654ca27a5a353158ec13afccccf072e8d8ce67fcef47355546c6f1c20"},"downloads":1},"tags":[],"current_user_can_comment":false,"current_version":1,"show_as_unviewed":false},"relationships":{"parent_folder":{"links":{"related":{"href":"https://api.osf.io/v2/files/695d9b95cbd854558fdd84b5/","meta":{}}},"data":{"id":"695d9b95cbd854558fdd84b5","type":"files"}},"versions":{"links":{"related":{"href":"https://api.osf.io/v2/files/695d9c2664f21016b8cf4b2f/versions/","meta":{}}}},"comments":{"links":{"related":{"href":"https://api.osf.io/v2/nodes/6av7k/comments/?filter%5Btarget%5D=ymva9","meta":{}}}},"node":{"links":{"related":{"href":"https://api.osf.io/v2/nodes/6av7k/","meta":{}}},"data":{"id":"6av7k","type":"nodes"}},"target":{"links":{"related":{"href":"https://api.osf.io/v2/nodes/6av7k/","meta":{"type":"nodes"}}},"data":{"type":"nodes","id":"6av7k"}},"cedar_metadata_records":{"links":{"related":{"href":"https://api.osf.io/v2/files/695d9c2664f21016b8cf4b2f/cedar_metadata_records/","meta":{}}}}},"links":{"info":"https://api.osf.io/v2/files/695d9c2664f21016b8cf4b2f/","move":"https://files.osf.io/v1/resources/6av7k/providers/osfstorage/695d9c2664f21016b8cf4b2f","upload":"https://files.osf.io/v1/resources/6av7k/providers/osfstorage/695d9c2664f21016b8cf4b2f","delete":"https://files.osf.io/v1/resources/6av7k/providers/osfstorage/695d9c2664f21016b8cf4b2f","download":"https://osf.io/download/ymva9/","render":"https://mfr.osf.io/render?url=https%3A%2F%2Fosf.io%2Fdownload%2Fymva9%2F%3Fdirect%26mode%3Drender","html":"https://osf.io/6av7k/files/osfstorage/695d9c2664f21016b8cf4b2f","self":"https://api.osf.io/v2/files/695d9c2664f21016b8cf4b2f/","iri":"https://osf.io/ymva9"}},{"id":"695d9df064f21016b8cf4e34","type":"files","attributes":{"guid":"ch6fx","checkout":null,"name":"Qualitative Assessment PCR184.docx","kind":"file","path":"/695d9df064f21016b8cf4e34","size":8421,"provider":"osfstorage","materialized_path":"/Qualitative Assessment of Replications/Individual Replication Qualitative Assessment/Qualitative Assessment PCR184.docx","last_touched":null,"date_modified":"2026-01-06T23:42:40.103367","date_created":"2026-01-06T23:42:40.103367Z","extra":{"hashes":{"md5":"913e83d98095620e6451e1891d9932a3","sha256":"e2d0a78290935183d46fd06d12bf305af822a56ccfb4d76fb79a464560c6aa67"},"downloads":4},"tags":[],"current_user_can_comment":false,"current_version":1,"show_as_unviewed":false},"relationships":{"parent_folder":{"links":{"related":{"href":"https://api.osf.io/v2/files/695d9b95cbd854558fdd84b5/","meta":{}}},"data":{"id":"695d9b95cbd854558fdd84b5","type":"files"}},"versions":{"links":{"related":{"href":"https://api.osf.io/v2/files/695d9df064f21016b8cf4e34/versions/","meta":{}}}},"comments":{"links":{"related":{"href":"https://api.osf.io/v2/nodes/6av7k/comments/?filter%5Btarget%5D=ch6fx","meta":{}}}},"node":{"links":{"related":{"href":"https://api.osf.io/v2/nodes/6av7k/","meta":{}}},"data":{"id":"6av7k","type":"nodes"}},"target":{"links":{"related":{"href":"https://api.osf.io/v2/nodes/6av7k/","meta":{"type":"nodes"}}},"data":{"type":"nodes","id":"6av7k"}},"cedar_metadata_records":{"links":{"related":{"href":"https://api.osf.io/v2/files/695d9df064f21016b8cf4e34/cedar_metadata_records/","meta":{}}}}},"links":{"info":"https://api.osf.io/v2/files/695d9df064f21016b8cf4e34/","move":"https://files.osf.io/v1/resources/6av7k/providers/osfstorage/695d9df064f21016b8cf4e34","upload":"https://files.osf.io/v1/resources/6av7k/providers/osfstorage/695d9df064f21016b8cf4e34","delete":"https://files.osf.io/v1/resources/6av7k/providers/osfstorage/695d9df064f21016b8cf4e34","download":"https://osf.io/download/ch6fx/","render":"https://mfr.osf.io/render?url=https%3A%2F%2Fosf.io%2Fdownload%2Fch6fx%2F%3Fdirect%26mode%3Drender","html":"https://osf.io/6av7k/files/osfstorage/695d9df064f21016b8cf4e34","self":"https://api.osf.io/v2/files/695d9df064f21016b8cf4e34/","iri":"https://osf.io/ch6fx"}},{"id":"695d9bccbab37744188f4589","type":"files","attributes":{"guid":"mtbrg","checkout":null,"name":"Qualitative Assessment MTT87.docx","kind":"file","path":"/695d9bccbab37744188f4589","size":5589476,"provider":"osfstorage","materialized_path":"/Qualitative Assessment of Replications/Individual Replication Qualitative Assessment/Qualitative Assessment MTT87.docx","last_touched":null,"date_modified":"2026-01-23T21:48:16.509108","date_created":"2026-01-06T23:33:32.567531Z","extra":{"hashes":{"md5":"7beb79257bdd51dbde3cc57b8d060c4c","sha256":"1b7a868f7755442027b463d40112f948a563f542b2044641f04a98ddfd725674"},"downloads":2},"tags":[],"current_user_can_comment":false,"current_version":2,"show_as_unviewed":false},"relationships":{"parent_folder":{"links":{"related":{"href":"https://api.osf.io/v2/files/695d9b95cbd854558fdd84b5/","meta":{}}},"data":{"id":"695d9b95cbd854558fdd84b5","type":"files"}},"versions":{"links":{"related":{"href":"https://api.osf.io/v2/files/695d9bccbab37744188f4589/versions/","meta":{}}}},"comments":{"links":{"related":{"href":"https://api.osf.io/v2/nodes/6av7k/comments/?filter%5Btarget%5D=mtbrg","meta":{}}}},"node":{"links":{"related":{"href":"https://api.osf.io/v2/nodes/6av7k/","meta":{}}},"data":{"id":"6av7k","type":"nodes"}},"target":{"links":{"related":{"href":"https://api.osf.io/v2/nodes/6av7k/","meta":{"type":"nodes"}}},"data":{"type":"nodes","id":"6av7k"}},"cedar_metadata_records":{"links":{"related":{"href":"https://api.osf.io/v2/files/695d9bccbab37744188f4589/cedar_metadata_records/","meta":{}}}}},"links":{"info":"https://api.osf.io/v2/files/695d9bccbab37744188f4589/","move":"https://files.osf.io/v1/resources/6av7k/providers/osfstorage/695d9bccbab37744188f4589","upload":"https://files.osf.io/v1/resources/6av7k/providers/osfstorage/695d9bccbab37744188f4589","delete":"https://files.osf.io/v1/resources/6av7k/providers/osfstorage/695d9bccbab37744188f4589","download":"https://osf.io/download/mtbrg/","render":"https://mfr.osf.io/render?url=https%3A%2F%2Fosf.io%2Fdownload%2Fmtbrg%2F%3Fdirect%26mode%3Drender","html":"https://osf.io/6av7k/files/osfstorage/695d9bccbab37744188f4589","self":"https://api.osf.io/v2/files/695d9bccbab37744188f4589/","iri":"https://osf.io/mtbrg"}},{"id":"695d9bccb577eaa148cf4a5b","type":"files","attributes":{"guid":"qx428","checkout":null,"name":"Qualitative Assessment PCR147.docx","kind":"file","path":"/695d9bccb577eaa148cf4a5b","size":8178,"provider":"osfstorage","materialized_path":"/Qualitative Assessment of Replications/Individual Replication Qualitative Assessment/Qualitative Assessment PCR147.docx","last_touched":null,"date_modified":"2026-01-06T23:33:32.231896","date_created":"2026-01-06T23:33:32.231896Z","extra":{"hashes":{"md5":"95a967f5d0b570146b27747b8c38fe24","sha256":"0336dd5723ad121c64c571e06e6aebf01c54d6bbbea4945eea33e6f76713f58d"},"downloads":3},"tags":[],"current_user_can_comment":false,"current_version":1,"show_as_unviewed":false},"relationships":{"parent_folder":{"links":{"related":{"href":"https://api.osf.io/v2/files/695d9b95cbd854558fdd84b5/","meta":{}}},"data":{"id":"695d9b95cbd854558fdd84b5","type":"files"}},"versions":{"links":{"related":{"href":"https://api.osf.io/v2/files/695d9bccb577eaa148cf4a5b/versions/","meta":{}}}},"comments":{"links":{"related":{"href":"https://api.osf.io/v2/nodes/6av7k/comments/?filter%5Btarget%5D=qx428","meta":{}}}},"node":{"links":{"related":{"href":"https://api.osf.io/v2/nodes/6av7k/","meta":{}}},"data":{"id":"6av7k","type":"nodes"}},"target":{"links":{"related":{"href":"https://api.osf.io/v2/nodes/6av7k/","meta":{"type":"nodes"}}},"data":{"type":"nodes","id":"6av7k"}},"cedar_metadata_records":{"links":{"related":{"href":"https://api.osf.io/v2/files/695d9bccb577eaa148cf4a5b/cedar_metadata_records/","meta":{}}}}},"links":{"info":"https://api.osf.io/v2/files/695d9bccb577eaa148cf4a5b/","move":"https://files.osf.io/v1/resources/6av7k/providers/osfstorage/695d9bccb577eaa148cf4a5b","upload":"https://files.osf.io/v1/resources/6av7k/providers/osfstorage/695d9bccb577eaa148cf4a5b","delete":"https://files.osf.io/v1/resources/6av7k/providers/osfstorage/695d9bccb577eaa148cf4a5b","download":"https://osf.io/download/qx428/","render":"https://mfr.osf.io/render?url=https%3A%2F%2Fosf.io%2Fdownload%2Fqx428%2F%3Fdirect%26mode%3Drender","html":"https://osf.io/6av7k/files/osfstorage/695d9bccb577eaa148cf4a5b","self":"https://api.osf.io/v2/files/695d9bccb577eaa148cf4a5b/","iri":"https://osf.io/qx428"}},{"id":"695d9bc888f4ef287bdd8f80","type":"files","attributes":{"guid":"d26yh","checkout":null,"name":"Qualitative Assessment EPM13.docx","kind":"file","path":"/695d9bc888f4ef287bdd8f80","size":9514,"provider":"osfstorage","materialized_path":"/Qualitative Assessment of Replications/Individual Replication Qualitative Assessment/Qualitative Assessment EPM13.docx","last_touched":null,"date_modified":"2026-01-06T23:33:28.561204","date_created":"2026-01-06T23:33:28.561204Z","extra":{"hashes":{"md5":"cde681637d75cfca85f2cc8f68eaa68a","sha256":"8c1e9a70a90c00d2b084d8825afd95aa81bb7886f4cd0baeb2750ff39a8568ae"},"downloads":4},"tags":[],"current_user_can_comment":false,"current_version":1,"show_as_unviewed":false},"relationships":{"parent_folder":{"links":{"related":{"href":"https://api.osf.io/v2/files/695d9b95cbd854558fdd84b5/","meta":{}}},"data":{"id":"695d9b95cbd854558fdd84b5","type":"files"}},"versions":{"links":{"related":{"href":"https://api.osf.io/v2/files/695d9bc888f4ef287bdd8f80/versions/","meta":{}}}},"comments":{"links":{"related":{"href":"https://api.osf.io/v2/nodes/6av7k/comments/?filter%5Btarget%5D=d26yh","meta":{}}}},"node":{"links":{"related":{"href":"https://api.osf.io/v2/nodes/6av7k/","meta":{}}},"data":{"id":"6av7k","type":"nodes"}},"target":{"links":{"related":{"href":"https://api.osf.io/v2/nodes/6av7k/","meta":{"type":"nodes"}}},"data":{"type":"nodes","id":"6av7k"}},"cedar_metadata_records":{"links":{"related":{"href":"https://api.osf.io/v2/files/695d9bc888f4ef287bdd8f80/cedar_metadata_records/","meta":{}}}}},"links":{"info":"https://api.osf.io/v2/files/695d9bc888f4ef287bdd8f80/","move":"https://files.osf.io/v1/resources/6av7k/providers/osfstorage/695d9bc888f4ef287bdd8f80","upload":"https://files.osf.io/v1/resources/6av7k/providers/osfstorage/695d9bc888f4ef287bdd8f80","delete":"https://files.osf.io/v1/resources/6av7k/providers/osfstorage/695d9bc888f4ef287bdd8f80","download":"https://osf.io/download/d26yh/","render":"https://mfr.osf.io/render?url=https%3A%2F%2Fosf.io%2Fdownload%2Fd26yh%2F%3Fdirect%26mode%3Drender","html":"https://osf.io/6av7k/files/osfstorage/695d9bc888f4ef287bdd8f80","self":"https://api.osf.io/v2/files/695d9bc888f4ef287bdd8f80/","iri":"https://osf.io/d26yh"}},{"id":"695d9bca52f3c05b3b8f5115","type":"files","attributes":{"guid":"8wrc4","checkout":null,"name":"Qualitative Assessment PCR158.docx","kind":"file","path":"/695d9bca52f3c05b3b8f5115","size":7334,"provider":"osfstorage","materialized_path":"/Qualitative Assessment of Replications/Individual Replication Qualitative Assessment/Qualitative Assessment PCR158.docx","last_touched":null,"date_modified":"2026-01-06T23:33:30.677224","date_created":"2026-01-06T23:33:30.677224Z","extra":{"hashes":{"md5":"d65e7c2cc21e9046a7d6d317679c0b89","sha256":"c5d3b09416cbdaf9673e37cbed9012e0dba34e734612befc0cebb1d6b34a59b8"},"downloads":3},"tags":[],"current_user_can_comment":false,"current_version":1,"show_as_unviewed":false},"relationships":{"parent_folder":{"links":{"related":{"href":"https://api.osf.io/v2/files/695d9b95cbd854558fdd84b5/","meta":{}}},"data":{"id":"695d9b95cbd854558fdd84b5","type":"files"}},"versions":{"links":{"related":{"href":"https://api.osf.io/v2/files/695d9bca52f3c05b3b8f5115/versions/","meta":{}}}},"comments":{"links":{"related":{"href":"https://api.osf.io/v2/nodes/6av7k/comments/?filter%5Btarget%5D=8wrc4","meta":{}}}},"node":{"links":{"related":{"href":"https://api.osf.io/v2/nodes/6av7k/","meta":{}}},"data":{"id":"6av7k","type":"nodes"}},"target":{"links":{"related":{"href":"https://api.osf.io/v2/nodes/6av7k/","meta":{"type":"nodes"}}},"data":{"type":"nodes","id":"6av7k"}},"cedar_metadata_records":{"links":{"related":{"href":"https://api.osf.io/v2/files/695d9bca52f3c05b3b8f5115/cedar_metadata_records/","meta":{}}}}},"links":{"info":"https://api.osf.io/v2/files/695d9bca52f3c05b3b8f5115/","move":"https://files.osf.io/v1/resources/6av7k/providers/osfstorage/695d9bca52f3c05b3b8f5115","upload":"https://files.osf.io/v1/resources/6av7k/providers/osfstorage/695d9bca52f3c05b3b8f5115","delete":"https://files.osf.io/v1/resources/6av7k/providers/osfstorage/695d9bca52f3c05b3b8f5115","download":"https://osf.io/download/8wrc4/","render":"https://mfr.osf.io/render?url=https%3A%2F%2Fosf.io%2Fdownload%2F8wrc4%2F%3Fdirect%26mode%3Drender","html":"https://osf.io/6av7k/files/osfstorage/695d9bca52f3c05b3b8f5115","self":"https://api.osf.io/v2/files/695d9bca52f3c05b3b8f5115/","iri":"https://osf.io/8wrc4"}}],"links":{"first":null,"last":"https://api.osf.io/v2/nodes/6av7k/files/osfstorage/695d9b95cbd854558fdd84b5/?page=6","prev":null,"next":"https://api.osf.io/v2/nodes/6av7k/files/osfstorage/695d9b95cbd854558fdd84b5/?page=2","meta":{"total":56,"per_page":10}},"meta":{"version":"2.0"}}