{"data":[{"id":"65afe66297381904a4397501","type":"files","attributes":{"guid":"t7m9v","checkout":null,"name":"240123_ReD.xlsx","kind":"file","path":"/65afe66297381904a4397501","size":1761218,"provider":"osfstorage","materialized_path":"/0 Data/Archive/240123_ReD.xlsx","last_touched":null,"date_modified":"2024-01-23T16:16:34.395655","date_created":"2024-01-23T16:16:34.395655Z","extra":{"hashes":{"md5":"b7f16d24449ed637fe5f0dc38e438626","sha256":"3fd9a9b0bb5b6bca291debbdff2029941ff53cfed54b7660471dd44750d63a1d"},"downloads":2},"tags":[],"current_user_can_comment":false,"current_version":1,"show_as_unviewed":false},"relationships":{"parent_folder":{"links":{"related":{"href":"https://api.osf.io/v2/files/641b06fac74723165c10abd9/","meta":{}}},"data":{"id":"641b06fac74723165c10abd9","type":"files"}},"versions":{"links":{"related":{"href":"https://api.osf.io/v2/files/65afe66297381904a4397501/versions/","meta":{}}}},"comments":{"links":{"related":{"href":"https://api.osf.io/v2/nodes/9r62x/comments/?filter%5Btarget%5D=t7m9v","meta":{}}}},"node":{"links":{"related":{"href":"https://api.osf.io/v2/nodes/9r62x/","meta":{}}},"data":{"id":"9r62x","type":"nodes"}},"target":{"links":{"related":{"href":"https://api.osf.io/v2/nodes/9r62x/","meta":{"type":"nodes"}}},"data":{"type":"nodes","id":"9r62x"}},"cedar_metadata_records":{"links":{"related":{"href":"https://api.osf.io/v2/files/65afe66297381904a4397501/cedar_metadata_records/","meta":{}}}}},"links":{"info":"https://api.osf.io/v2/files/65afe66297381904a4397501/","move":"https://files.de-1.osf.io/v1/resources/9r62x/providers/osfstorage/65afe66297381904a4397501","upload":"https://files.de-1.osf.io/v1/resources/9r62x/providers/osfstorage/65afe66297381904a4397501","delete":"https://files.de-1.osf.io/v1/resources/9r62x/providers/osfstorage/65afe66297381904a4397501","download":"https://osf.io/download/t7m9v/","render":"https://mfr.de-1.osf.io/render?url=https%3A%2F%2Fosf.io%2Fdownload%2Ft7m9v%2F%3Fdirect%26mode%3Drender","html":"https://osf.io/9r62x/files/osfstorage/65afe66297381904a4397501","self":"https://api.osf.io/v2/files/65afe66297381904a4397501/","iri":"https://osf.io/t7m9v"}},{"id":"6497206e380911075f3c3954","type":"files","attributes":{"guid":"956ej","checkout":null,"name":"230624_ReD.xlsx.xlsx","kind":"file","path":"/6497206e380911075f3c3954","size":896459,"provider":"osfstorage","materialized_path":"/0 Data/Archive/230624_ReD.xlsx.xlsx","last_touched":null,"date_modified":"2023-06-24T16:57:18.902856","date_created":"2023-06-24T16:57:18.902856Z","extra":{"hashes":{"md5":"bfdba4bb48a59e9b1bcd63bfaadb055c","sha256":"8691f5f8e39a5501a0e987e12e51c6b06fa270cd62a266303d6c774ba6b72a4c"},"downloads":3},"tags":[],"current_user_can_comment":false,"current_version":1,"show_as_unviewed":false},"relationships":{"parent_folder":{"links":{"related":{"href":"https://api.osf.io/v2/files/641b06fac74723165c10abd9/","meta":{}}},"data":{"id":"641b06fac74723165c10abd9","type":"files"}},"versions":{"links":{"related":{"href":"https://api.osf.io/v2/files/6497206e380911075f3c3954/versions/","meta":{}}}},"comments":{"links":{"related":{"href":"https://api.osf.io/v2/nodes/9r62x/comments/?filter%5Btarget%5D=956ej","meta":{}}}},"node":{"links":{"related":{"href":"https://api.osf.io/v2/nodes/9r62x/","meta":{}}},"data":{"id":"9r62x","type":"nodes"}},"target":{"links":{"related":{"href":"https://api.osf.io/v2/nodes/9r62x/","meta":{"type":"nodes"}}},"data":{"type":"nodes","id":"9r62x"}},"cedar_metadata_records":{"links":{"related":{"href":"https://api.osf.io/v2/files/6497206e380911075f3c3954/cedar_metadata_records/","meta":{}}}}},"links":{"info":"https://api.osf.io/v2/files/6497206e380911075f3c3954/","move":"https://files.de-1.osf.io/v1/resources/9r62x/providers/osfstorage/6497206e380911075f3c3954","upload":"https://files.de-1.osf.io/v1/resources/9r62x/providers/osfstorage/6497206e380911075f3c3954","delete":"https://files.de-1.osf.io/v1/resources/9r62x/providers/osfstorage/6497206e380911075f3c3954","download":"https://osf.io/download/956ej/","render":"https://mfr.de-1.osf.io/render?url=https%3A%2F%2Fosf.io%2Fdownload%2F956ej%2F%3Fdirect%26mode%3Drender","html":"https://osf.io/9r62x/files/osfstorage/6497206e380911075f3c3954","self":"https://api.osf.io/v2/files/6497206e380911075f3c3954/","iri":"https://osf.io/956ej"}},{"id":"6594643b034461713568f4f5","type":"files","attributes":{"guid":"29nva","checkout":null,"name":"240102_ReD.xlsx","kind":"file","path":"/6594643b034461713568f4f5","size":1849685,"provider":"osfstorage","materialized_path":"/0 Data/Archive/240102_ReD.xlsx","last_touched":null,"date_modified":"2024-01-02T19:30:03.385442","date_created":"2024-01-02T19:30:03.385442Z","extra":{"hashes":{"md5":"511360cbfa9195bfc82111d36ed4de9d","sha256":"aa9530f3a9af3c1c3ca43fab85915242698c58a2d45c2c4cc2e3de49e256d99e"},"downloads":2},"tags":[],"current_user_can_comment":false,"current_version":1,"show_as_unviewed":false},"relationships":{"parent_folder":{"links":{"related":{"href":"https://api.osf.io/v2/files/641b06fac74723165c10abd9/","meta":{}}},"data":{"id":"641b06fac74723165c10abd9","type":"files"}},"versions":{"links":{"related":{"href":"https://api.osf.io/v2/files/6594643b034461713568f4f5/versions/","meta":{}}}},"comments":{"links":{"related":{"href":"https://api.osf.io/v2/nodes/9r62x/comments/?filter%5Btarget%5D=29nva","meta":{}}}},"node":{"links":{"related":{"href":"https://api.osf.io/v2/nodes/9r62x/","meta":{}}},"data":{"id":"9r62x","type":"nodes"}},"target":{"links":{"related":{"href":"https://api.osf.io/v2/nodes/9r62x/","meta":{"type":"nodes"}}},"data":{"type":"nodes","id":"9r62x"}},"cedar_metadata_records":{"links":{"related":{"href":"https://api.osf.io/v2/files/6594643b034461713568f4f5/cedar_metadata_records/","meta":{}}}}},"links":{"info":"https://api.osf.io/v2/files/6594643b034461713568f4f5/","move":"https://files.de-1.osf.io/v1/resources/9r62x/providers/osfstorage/6594643b034461713568f4f5","upload":"https://files.de-1.osf.io/v1/resources/9r62x/providers/osfstorage/6594643b034461713568f4f5","delete":"https://files.de-1.osf.io/v1/resources/9r62x/providers/osfstorage/6594643b034461713568f4f5","download":"https://osf.io/download/29nva/","render":"https://mfr.de-1.osf.io/render?url=https%3A%2F%2Fosf.io%2Fdownload%2F29nva%2F%3Fdirect%26mode%3Drender","html":"https://osf.io/9r62x/files/osfstorage/6594643b034461713568f4f5","self":"https://api.osf.io/v2/files/6594643b034461713568f4f5/","iri":"https://osf.io/29nva"}},{"id":"652ce58b28274505edb867d2","type":"files","attributes":{"guid":"cq3uh","checkout":null,"name":"231016_ReD.xlsx","kind":"file","path":"/652ce58b28274505edb867d2","size":914221,"provider":"osfstorage","materialized_path":"/0 Data/Archive/231016_ReD.xlsx","last_touched":null,"date_modified":"2023-10-16T07:26:03.783601","date_created":"2023-10-16T07:26:03.783601Z","extra":{"hashes":{"md5":"8207735a676aa5cfc900021bebadc044","sha256":"62cfcf24e32d48a87561014e118dde50c98a0f78adffde4d19f2e55c3b00b948"},"downloads":20},"tags":[],"current_user_can_comment":false,"current_version":1,"show_as_unviewed":false},"relationships":{"parent_folder":{"links":{"related":{"href":"https://api.osf.io/v2/files/641b06fac74723165c10abd9/","meta":{}}},"data":{"id":"641b06fac74723165c10abd9","type":"files"}},"versions":{"links":{"related":{"href":"https://api.osf.io/v2/files/652ce58b28274505edb867d2/versions/","meta":{}}}},"comments":{"links":{"related":{"href":"https://api.osf.io/v2/nodes/9r62x/comments/?filter%5Btarget%5D=cq3uh","meta":{}}}},"node":{"links":{"related":{"href":"https://api.osf.io/v2/nodes/9r62x/","meta":{}}},"data":{"id":"9r62x","type":"nodes"}},"target":{"links":{"related":{"href":"https://api.osf.io/v2/nodes/9r62x/","meta":{"type":"nodes"}}},"data":{"type":"nodes","id":"9r62x"}},"cedar_metadata_records":{"links":{"related":{"href":"https://api.osf.io/v2/files/652ce58b28274505edb867d2/cedar_metadata_records/","meta":{}}}}},"links":{"info":"https://api.osf.io/v2/files/652ce58b28274505edb867d2/","move":"https://files.de-1.osf.io/v1/resources/9r62x/providers/osfstorage/652ce58b28274505edb867d2","upload":"https://files.de-1.osf.io/v1/resources/9r62x/providers/osfstorage/652ce58b28274505edb867d2","delete":"https://files.de-1.osf.io/v1/resources/9r62x/providers/osfstorage/652ce58b28274505edb867d2","download":"https://osf.io/download/cq3uh/","render":"https://mfr.de-1.osf.io/render?url=https%3A%2F%2Fosf.io%2Fdownload%2Fcq3uh%2F%3Fdirect%26mode%3Drender","html":"https://osf.io/9r62x/files/osfstorage/652ce58b28274505edb867d2","self":"https://api.osf.io/v2/files/652ce58b28274505edb867d2/","iri":"https://osf.io/cq3uh"}},{"id":"655f131caa3a76030bd6ac49","type":"files","attributes":{"guid":"m3xh6","checkout":null,"name":"231123_ReD.xlsx","kind":"file","path":"/655f131caa3a76030bd6ac49","size":1245532,"provider":"osfstorage","materialized_path":"/0 Data/Archive/231123_ReD.xlsx","last_touched":null,"date_modified":"2023-11-23T08:53:49.043155","date_created":"2023-11-23T08:53:49.043155Z","extra":{"hashes":{"md5":"45692b740cb38f49782a754ac656dc06","sha256":"545e619c6fdeb87c1db7e13e7496c07a7446671c221730b4acfac5e7e14a775a"},"downloads":2},"tags":[],"current_user_can_comment":false,"current_version":1,"show_as_unviewed":false},"relationships":{"parent_folder":{"links":{"related":{"href":"https://api.osf.io/v2/files/641b06fac74723165c10abd9/","meta":{}}},"data":{"id":"641b06fac74723165c10abd9","type":"files"}},"versions":{"links":{"related":{"href":"https://api.osf.io/v2/files/655f131caa3a76030bd6ac49/versions/","meta":{}}}},"comments":{"links":{"related":{"href":"https://api.osf.io/v2/nodes/9r62x/comments/?filter%5Btarget%5D=m3xh6","meta":{}}}},"node":{"links":{"related":{"href":"https://api.osf.io/v2/nodes/9r62x/","meta":{}}},"data":{"id":"9r62x","type":"nodes"}},"target":{"links":{"related":{"href":"https://api.osf.io/v2/nodes/9r62x/","meta":{"type":"nodes"}}},"data":{"type":"nodes","id":"9r62x"}},"cedar_metadata_records":{"links":{"related":{"href":"https://api.osf.io/v2/files/655f131caa3a76030bd6ac49/cedar_metadata_records/","meta":{}}}}},"links":{"info":"https://api.osf.io/v2/files/655f131caa3a76030bd6ac49/","move":"https://files.de-1.osf.io/v1/resources/9r62x/providers/osfstorage/655f131caa3a76030bd6ac49","upload":"https://files.de-1.osf.io/v1/resources/9r62x/providers/osfstorage/655f131caa3a76030bd6ac49","delete":"https://files.de-1.osf.io/v1/resources/9r62x/providers/osfstorage/655f131caa3a76030bd6ac49","download":"https://osf.io/download/m3xh6/","render":"https://mfr.de-1.osf.io/render?url=https%3A%2F%2Fosf.io%2Fdownload%2Fm3xh6%2F%3Fdirect%26mode%3Drender","html":"https://osf.io/9r62x/files/osfstorage/655f131caa3a76030bd6ac49","self":"https://api.osf.io/v2/files/655f131caa3a76030bd6ac49/","iri":"https://osf.io/m3xh6"}},{"id":"65ce33ed6d0cb8024d1a9d0d","type":"files","attributes":{"guid":"uwxjz","checkout":null,"name":"FReD_1.2.0.xlsx","kind":"file","path":"/65ce33ed6d0cb8024d1a9d0d","size":1768406,"provider":"osfstorage","materialized_path":"/0 Data/Archive/FReD_1.2.0.xlsx","last_touched":null,"date_modified":"2024-02-15T15:55:25.776129","date_created":"2024-02-15T15:55:25.776129Z","extra":{"hashes":{"md5":"5411efbfe9895414482a9bacbcbf7db0","sha256":"12d0a6e3c76ef160eae52024eed04e445f4ae29c60ba93620ea43149e6e81ce9"},"downloads":2},"tags":[],"current_user_can_comment":false,"current_version":1,"show_as_unviewed":false},"relationships":{"parent_folder":{"links":{"related":{"href":"https://api.osf.io/v2/files/641b06fac74723165c10abd9/","meta":{}}},"data":{"id":"641b06fac74723165c10abd9","type":"files"}},"versions":{"links":{"related":{"href":"https://api.osf.io/v2/files/65ce33ed6d0cb8024d1a9d0d/versions/","meta":{}}}},"comments":{"links":{"related":{"href":"https://api.osf.io/v2/nodes/9r62x/comments/?filter%5Btarget%5D=uwxjz","meta":{}}}},"node":{"links":{"related":{"href":"https://api.osf.io/v2/nodes/9r62x/","meta":{}}},"data":{"id":"9r62x","type":"nodes"}},"target":{"links":{"related":{"href":"https://api.osf.io/v2/nodes/9r62x/","meta":{"type":"nodes"}}},"data":{"type":"nodes","id":"9r62x"}},"cedar_metadata_records":{"links":{"related":{"href":"https://api.osf.io/v2/files/65ce33ed6d0cb8024d1a9d0d/cedar_metadata_records/","meta":{}}}}},"links":{"info":"https://api.osf.io/v2/files/65ce33ed6d0cb8024d1a9d0d/","move":"https://files.de-1.osf.io/v1/resources/9r62x/providers/osfstorage/65ce33ed6d0cb8024d1a9d0d","upload":"https://files.de-1.osf.io/v1/resources/9r62x/providers/osfstorage/65ce33ed6d0cb8024d1a9d0d","delete":"https://files.de-1.osf.io/v1/resources/9r62x/providers/osfstorage/65ce33ed6d0cb8024d1a9d0d","download":"https://osf.io/download/uwxjz/","render":"https://mfr.de-1.osf.io/render?url=https%3A%2F%2Fosf.io%2Fdownload%2Fuwxjz%2F%3Fdirect%26mode%3Drender","html":"https://osf.io/9r62x/files/osfstorage/65ce33ed6d0cb8024d1a9d0d","self":"https://api.osf.io/v2/files/65ce33ed6d0cb8024d1a9d0d/","iri":"https://osf.io/uwxjz"}},{"id":"65c4f9649b32ca0cbc97ef78","type":"files","attributes":{"guid":"kqcz2","checkout":null,"name":"FReD_1.0.0.xlsx","kind":"file","path":"/65c4f9649b32ca0cbc97ef78","size":1841338,"provider":"osfstorage","materialized_path":"/0 Data/Archive/FReD_1.0.0.xlsx","last_touched":null,"date_modified":"2024-02-08T15:55:16.896776","date_created":"2024-02-08T15:55:16.896776Z","extra":{"hashes":{"md5":"7ab574e94e69b0c843ed6f67967ac8d9","sha256":"cc138dda1ef7187bac34dd922574283a2fc4be95fe07cd918e5eae5c49d22e11"},"downloads":3},"tags":[],"current_user_can_comment":false,"current_version":1,"show_as_unviewed":false},"relationships":{"parent_folder":{"links":{"related":{"href":"https://api.osf.io/v2/files/641b06fac74723165c10abd9/","meta":{}}},"data":{"id":"641b06fac74723165c10abd9","type":"files"}},"versions":{"links":{"related":{"href":"https://api.osf.io/v2/files/65c4f9649b32ca0cbc97ef78/versions/","meta":{}}}},"comments":{"links":{"related":{"href":"https://api.osf.io/v2/nodes/9r62x/comments/?filter%5Btarget%5D=kqcz2","meta":{}}}},"node":{"links":{"related":{"href":"https://api.osf.io/v2/nodes/9r62x/","meta":{}}},"data":{"id":"9r62x","type":"nodes"}},"target":{"links":{"related":{"href":"https://api.osf.io/v2/nodes/9r62x/","meta":{"type":"nodes"}}},"data":{"type":"nodes","id":"9r62x"}},"cedar_metadata_records":{"links":{"related":{"href":"https://api.osf.io/v2/files/65c4f9649b32ca0cbc97ef78/cedar_metadata_records/","meta":{}}}}},"links":{"info":"https://api.osf.io/v2/files/65c4f9649b32ca0cbc97ef78/","move":"https://files.de-1.osf.io/v1/resources/9r62x/providers/osfstorage/65c4f9649b32ca0cbc97ef78","upload":"https://files.de-1.osf.io/v1/resources/9r62x/providers/osfstorage/65c4f9649b32ca0cbc97ef78","delete":"https://files.de-1.osf.io/v1/resources/9r62x/providers/osfstorage/65c4f9649b32ca0cbc97ef78","download":"https://osf.io/download/kqcz2/","render":"https://mfr.de-1.osf.io/render?url=https%3A%2F%2Fosf.io%2Fdownload%2Fkqcz2%2F%3Fdirect%26mode%3Drender","html":"https://osf.io/9r62x/files/osfstorage/65c4f9649b32ca0cbc97ef78","self":"https://api.osf.io/v2/files/65c4f9649b32ca0cbc97ef78/","iri":"https://osf.io/kqcz2"}},{"id":"6411d72852d0610c31d225e2","type":"files","attributes":{"guid":"dysqm","checkout":null,"name":"230401_ReD.xlsx","kind":"file","path":"/6411d72852d0610c31d225e2","size":729478,"provider":"osfstorage","materialized_path":"/0 Data/Archive/230401_ReD.xlsx","last_touched":null,"date_modified":"2023-03-28T14:36:43.876576","date_created":"2023-03-15T14:33:12.316449Z","extra":{"hashes":{"md5":"3a3cdf7f8bcf64adc94387f0a6a5c489","sha256":"5a7eef6694b6b8017d42c49c4935487197ee7029d283c3b2d60a23a059405b10"},"downloads":940},"tags":[],"current_user_can_comment":false,"current_version":6,"show_as_unviewed":false},"relationships":{"parent_folder":{"links":{"related":{"href":"https://api.osf.io/v2/files/641b06fac74723165c10abd9/","meta":{}}},"data":{"id":"641b06fac74723165c10abd9","type":"files"}},"versions":{"links":{"related":{"href":"https://api.osf.io/v2/files/6411d72852d0610c31d225e2/versions/","meta":{}}}},"comments":{"links":{"related":{"href":"https://api.osf.io/v2/nodes/9r62x/comments/?filter%5Btarget%5D=dysqm","meta":{}}}},"node":{"links":{"related":{"href":"https://api.osf.io/v2/nodes/9r62x/","meta":{}}},"data":{"id":"9r62x","type":"nodes"}},"target":{"links":{"related":{"href":"https://api.osf.io/v2/nodes/9r62x/","meta":{"type":"nodes"}}},"data":{"type":"nodes","id":"9r62x"}},"cedar_metadata_records":{"links":{"related":{"href":"https://api.osf.io/v2/files/6411d72852d0610c31d225e2/cedar_metadata_records/","meta":{}}}}},"links":{"info":"https://api.osf.io/v2/files/6411d72852d0610c31d225e2/","move":"https://files.de-1.osf.io/v1/resources/9r62x/providers/osfstorage/6411d72852d0610c31d225e2","upload":"https://files.de-1.osf.io/v1/resources/9r62x/providers/osfstorage/6411d72852d0610c31d225e2","delete":"https://files.de-1.osf.io/v1/resources/9r62x/providers/osfstorage/6411d72852d0610c31d225e2","download":"https://osf.io/download/dysqm/","render":"https://mfr.de-1.osf.io/render?url=https%3A%2F%2Fosf.io%2Fdownload%2Fdysqm%2F%3Fdirect%26mode%3Drender","html":"https://osf.io/9r62x/files/osfstorage/6411d72852d0610c31d225e2","self":"https://api.osf.io/v2/files/6411d72852d0610c31d225e2/","iri":"https://osf.io/dysqm"}},{"id":"667ece607ba708036d38d9a0","type":"files","attributes":{"guid":"dgbf8","checkout":null,"name":"FReD_1.3.0.xlsx","kind":"file","path":"/667ece607ba708036d38d9a0","size":2572845,"provider":"osfstorage","materialized_path":"/0 Data/Archive/FReD_1.3.0.xlsx","last_touched":null,"date_modified":"2024-06-28T14:53:20.109752","date_created":"2024-06-28T14:53:20.109752Z","extra":{"hashes":{"md5":"a518148fe07768bcd220ada6dc0dcf10","sha256":"42b35cb8f5fe72a411d94953f636d1658ff16a8135c9c4ec12163bc13111c121"},"downloads":4},"tags":[],"current_user_can_comment":false,"current_version":1,"show_as_unviewed":false},"relationships":{"parent_folder":{"links":{"related":{"href":"https://api.osf.io/v2/files/641b06fac74723165c10abd9/","meta":{}}},"data":{"id":"641b06fac74723165c10abd9","type":"files"}},"versions":{"links":{"related":{"href":"https://api.osf.io/v2/files/667ece607ba708036d38d9a0/versions/","meta":{}}}},"comments":{"links":{"related":{"href":"https://api.osf.io/v2/nodes/9r62x/comments/?filter%5Btarget%5D=dgbf8","meta":{}}}},"node":{"links":{"related":{"href":"https://api.osf.io/v2/nodes/9r62x/","meta":{}}},"data":{"id":"9r62x","type":"nodes"}},"target":{"links":{"related":{"href":"https://api.osf.io/v2/nodes/9r62x/","meta":{"type":"nodes"}}},"data":{"type":"nodes","id":"9r62x"}},"cedar_metadata_records":{"links":{"related":{"href":"https://api.osf.io/v2/files/667ece607ba708036d38d9a0/cedar_metadata_records/","meta":{}}}}},"links":{"info":"https://api.osf.io/v2/files/667ece607ba708036d38d9a0/","move":"https://files.de-1.osf.io/v1/resources/9r62x/providers/osfstorage/667ece607ba708036d38d9a0","upload":"https://files.de-1.osf.io/v1/resources/9r62x/providers/osfstorage/667ece607ba708036d38d9a0","delete":"https://files.de-1.osf.io/v1/resources/9r62x/providers/osfstorage/667ece607ba708036d38d9a0","download":"https://osf.io/download/dgbf8/","render":"https://mfr.de-1.osf.io/render?url=https%3A%2F%2Fosf.io%2Fdownload%2Fdgbf8%2F%3Fdirect%26mode%3Drender","html":"https://osf.io/9r62x/files/osfstorage/667ece607ba708036d38d9a0","self":"https://api.osf.io/v2/files/667ece607ba708036d38d9a0/","iri":"https://osf.io/dgbf8"}},{"id":"671277741695fce5e62ec13c","type":"files","attributes":{"guid":"vkbew","checkout":null,"name":"FReD_2.0.0.xlsx","kind":"file","path":"/671277741695fce5e62ec13c","size":3158160,"provider":"osfstorage","materialized_path":"/0 Data/Archive/FReD_2.0.0.xlsx","last_touched":null,"date_modified":"2024-10-18T14:57:56.720413","date_created":"2024-10-18T14:57:56.720413Z","extra":{"hashes":{"md5":"c83450159b87a796ca007909930487d8","sha256":"71d7f9727f56325ba548bd2059cc42112c553adfe868074d3152830991fd30f7"},"downloads":4},"tags":[],"current_user_can_comment":false,"current_version":1,"show_as_unviewed":false},"relationships":{"parent_folder":{"links":{"related":{"href":"https://api.osf.io/v2/files/641b06fac74723165c10abd9/","meta":{}}},"data":{"id":"641b06fac74723165c10abd9","type":"files"}},"versions":{"links":{"related":{"href":"https://api.osf.io/v2/files/671277741695fce5e62ec13c/versions/","meta":{}}}},"comments":{"links":{"related":{"href":"https://api.osf.io/v2/nodes/9r62x/comments/?filter%5Btarget%5D=vkbew","meta":{}}}},"node":{"links":{"related":{"href":"https://api.osf.io/v2/nodes/9r62x/","meta":{}}},"data":{"id":"9r62x","type":"nodes"}},"target":{"links":{"related":{"href":"https://api.osf.io/v2/nodes/9r62x/","meta":{"type":"nodes"}}},"data":{"type":"nodes","id":"9r62x"}},"cedar_metadata_records":{"links":{"related":{"href":"https://api.osf.io/v2/files/671277741695fce5e62ec13c/cedar_metadata_records/","meta":{}}}}},"links":{"info":"https://api.osf.io/v2/files/671277741695fce5e62ec13c/","move":"https://files.de-1.osf.io/v1/resources/9r62x/providers/osfstorage/671277741695fce5e62ec13c","upload":"https://files.de-1.osf.io/v1/resources/9r62x/providers/osfstorage/671277741695fce5e62ec13c","delete":"https://files.de-1.osf.io/v1/resources/9r62x/providers/osfstorage/671277741695fce5e62ec13c","download":"https://osf.io/download/vkbew/","render":"https://mfr.de-1.osf.io/render?url=https%3A%2F%2Fosf.io%2Fdownload%2Fvkbew%2F%3Fdirect%26mode%3Drender","html":"https://osf.io/9r62x/files/osfstorage/671277741695fce5e62ec13c","self":"https://api.osf.io/v2/files/671277741695fce5e62ec13c/","iri":"https://osf.io/vkbew"}}],"links":{"first":"https://api.osf.io/v2/nodes/9r62x/files/osfstorage/641b06fac74723165c10abd9/","last":"https://api.osf.io/v2/nodes/9r62x/files/osfstorage/641b06fac74723165c10abd9/?page=7","prev":"https://api.osf.io/v2/nodes/9r62x/files/osfstorage/641b06fac74723165c10abd9/?page=5","next":"https://api.osf.io/v2/nodes/9r62x/files/osfstorage/641b06fac74723165c10abd9/?page=7","meta":{"total":65,"per_page":10}},"meta":{"version":"2.0"}}