{"data":[{"id":"66b5fde880f6852924a1af55","type":"files","attributes":{"guid":"cjm2y","checkout":null,"name":"230624_ReD.xlsx","kind":"file","path":"/66b5fde880f6852924a1af55","size":896531,"provider":"osfstorage","materialized_path":"/Archive of OSF Storage/0 Data/Archive/230624_ReD.xlsx","last_touched":null,"date_modified":"2023-06-30T12:00:03.747317","date_created":"2023-06-30T12:00:03.747317Z","extra":{"hashes":{"md5":"a5ed1b0529769424fdb9e9f680396ab5","sha256":"3c9fe47bfd979f57aeeaa03fc3b8330168bd5369ffa9ea7c3c1b40eda26a70cf"},"downloads":1},"tags":[],"current_user_can_comment":false,"current_version":1,"show_as_unviewed":false},"relationships":{"parent_folder":{"links":{"related":{"href":"https://api.osf.io/v2/files/66b5fde580f6852924a1af33/","meta":{}}},"data":{"id":"66b5fde580f6852924a1af33","type":"files"}},"versions":{"links":{"related":{"href":"https://api.osf.io/v2/files/66b5fde880f6852924a1af55/versions/","meta":{}}}},"comments":{"links":{"related":{"href":"https://api.osf.io/v2/registrations/c9rny/comments/?filter%5Btarget%5D=cjm2y","meta":{}}}},"node":{"links":{"related":{"href":"https://api.osf.io/v2/registrations/c9rny/","meta":{}}},"data":{"id":"c9rny","type":"registrations"}},"target":{"links":{"related":{"href":"https://api.osf.io/v2/registrations/c9rny/","meta":{"type":"registrations"}}},"data":{"type":"registrations","id":"c9rny"}},"cedar_metadata_records":{"links":{"related":{"href":"https://api.osf.io/v2/files/66b5fde880f6852924a1af55/cedar_metadata_records/","meta":{}}}}},"links":{"info":"https://api.osf.io/v2/files/66b5fde880f6852924a1af55/","move":"https://files.de-1.osf.io/v1/resources/c9rny/providers/osfstorage/66b5fde880f6852924a1af55","upload":"https://files.de-1.osf.io/v1/resources/c9rny/providers/osfstorage/66b5fde880f6852924a1af55","delete":"https://files.de-1.osf.io/v1/resources/c9rny/providers/osfstorage/66b5fde880f6852924a1af55","download":"https://osf.io/download/cjm2y/","render":"https://mfr.de-1.osf.io/render?url=https%3A%2F%2Fosf.io%2Fdownload%2Fcjm2y%2F%3Fdirect%26mode%3Drender","html":"https://osf.io/c9rny/files/osfstorage/66b5fde880f6852924a1af55","self":"https://api.osf.io/v2/files/66b5fde880f6852924a1af55/","iri":"https://osf.io/cjm2y"}},{"id":"66b5fde680f6852924a1af37","type":"files","attributes":{"guid":null,"checkout":null,"name":"FReD_1.0.1.xlsx","kind":"file","path":"/66b5fde680f6852924a1af37","size":1682819,"provider":"osfstorage","materialized_path":"/Archive of OSF Storage/0 Data/Archive/FReD_1.0.1.xlsx","last_touched":null,"date_modified":"2024-02-14T14:48:50.483314","date_created":"2024-02-14T14:48:50.483314Z","extra":{"hashes":{"md5":"1da2b84614ad77f30d1102b085743a9f","sha256":"f7836b391b38d4dd9c87d7448de31e1247b2f62124c9f0501702efb7086b5c10"},"downloads":1},"tags":[],"current_user_can_comment":false,"current_version":1,"show_as_unviewed":false},"relationships":{"parent_folder":{"links":{"related":{"href":"https://api.osf.io/v2/files/66b5fde580f6852924a1af33/","meta":{}}},"data":{"id":"66b5fde580f6852924a1af33","type":"files"}},"versions":{"links":{"related":{"href":"https://api.osf.io/v2/files/66b5fde680f6852924a1af37/versions/","meta":{}}}},"node":{"links":{"related":{"href":"https://api.osf.io/v2/registrations/c9rny/","meta":{}}},"data":{"id":"c9rny","type":"registrations"}},"target":{"links":{"related":{"href":"https://api.osf.io/v2/registrations/c9rny/","meta":{"type":"registrations"}}},"data":{"type":"registrations","id":"c9rny"}},"cedar_metadata_records":{"links":{"related":{"href":"https://api.osf.io/v2/files/66b5fde680f6852924a1af37/cedar_metadata_records/","meta":{}}}}},"links":{"info":"https://api.osf.io/v2/files/66b5fde680f6852924a1af37/","move":"https://files.de-1.osf.io/v1/resources/c9rny/providers/osfstorage/66b5fde680f6852924a1af37","upload":"https://files.de-1.osf.io/v1/resources/c9rny/providers/osfstorage/66b5fde680f6852924a1af37","delete":"https://files.de-1.osf.io/v1/resources/c9rny/providers/osfstorage/66b5fde680f6852924a1af37","download":"https://osf.io/download/66b5fde680f6852924a1af37/","render":"https://mfr.de-1.osf.io/render?url=https%3A%2F%2Fosf.io%2Fdownload%2F66b5fde680f6852924a1af37%2F%3Fdirect%26mode%3Drender","html":"https://osf.io/c9rny/files/osfstorage/66b5fde680f6852924a1af37","self":"https://api.osf.io/v2/files/66b5fde680f6852924a1af37/"}},{"id":"66b5fde780f6852924a1af4b","type":"files","attributes":{"guid":"vrwjx","checkout":null,"name":"230505_ReD.xlsx","kind":"file","path":"/66b5fde780f6852924a1af4b","size":878589,"provider":"osfstorage","materialized_path":"/Archive of OSF Storage/0 Data/Archive/230505_ReD.xlsx","last_touched":null,"date_modified":"2023-05-05T10:16:57.252785","date_created":"2023-05-05T10:16:57.252785Z","extra":{"hashes":{"md5":"c933662f4a19d3ee7e46524c2c27ecef","sha256":"49243b53dfff513c7bb0603433b119a72a08946cb5afe34edaf5007a4b3d2788"},"downloads":1},"tags":[],"current_user_can_comment":false,"current_version":1,"show_as_unviewed":false},"relationships":{"parent_folder":{"links":{"related":{"href":"https://api.osf.io/v2/files/66b5fde580f6852924a1af33/","meta":{}}},"data":{"id":"66b5fde580f6852924a1af33","type":"files"}},"versions":{"links":{"related":{"href":"https://api.osf.io/v2/files/66b5fde780f6852924a1af4b/versions/","meta":{}}}},"comments":{"links":{"related":{"href":"https://api.osf.io/v2/registrations/c9rny/comments/?filter%5Btarget%5D=vrwjx","meta":{}}}},"node":{"links":{"related":{"href":"https://api.osf.io/v2/registrations/c9rny/","meta":{}}},"data":{"id":"c9rny","type":"registrations"}},"target":{"links":{"related":{"href":"https://api.osf.io/v2/registrations/c9rny/","meta":{"type":"registrations"}}},"data":{"type":"registrations","id":"c9rny"}},"cedar_metadata_records":{"links":{"related":{"href":"https://api.osf.io/v2/files/66b5fde780f6852924a1af4b/cedar_metadata_records/","meta":{}}}}},"links":{"info":"https://api.osf.io/v2/files/66b5fde780f6852924a1af4b/","move":"https://files.de-1.osf.io/v1/resources/c9rny/providers/osfstorage/66b5fde780f6852924a1af4b","upload":"https://files.de-1.osf.io/v1/resources/c9rny/providers/osfstorage/66b5fde780f6852924a1af4b","delete":"https://files.de-1.osf.io/v1/resources/c9rny/providers/osfstorage/66b5fde780f6852924a1af4b","download":"https://osf.io/download/vrwjx/","render":"https://mfr.de-1.osf.io/render?url=https%3A%2F%2Fosf.io%2Fdownload%2Fvrwjx%2F%3Fdirect%26mode%3Drender","html":"https://osf.io/c9rny/files/osfstorage/66b5fde780f6852924a1af4b","self":"https://api.osf.io/v2/files/66b5fde780f6852924a1af4b/","iri":"https://osf.io/vrwjx"}},{"id":"66b5fde780f6852924a1af47","type":"files","attributes":{"guid":null,"checkout":null,"name":"230401_ReD.xlsx","kind":"file","path":"/66b5fde780f6852924a1af47","size":729478,"provider":"osfstorage","materialized_path":"/Archive of OSF Storage/0 Data/Archive/230401_ReD.xlsx","last_touched":null,"date_modified":"2023-03-28T14:36:43.876576","date_created":"2023-03-15T14:33:12.316449Z","extra":{"hashes":{"md5":"3a3cdf7f8bcf64adc94387f0a6a5c489","sha256":"5a7eef6694b6b8017d42c49c4935487197ee7029d283c3b2d60a23a059405b10"},"downloads":4},"tags":[],"current_user_can_comment":false,"current_version":6,"show_as_unviewed":false},"relationships":{"parent_folder":{"links":{"related":{"href":"https://api.osf.io/v2/files/66b5fde580f6852924a1af33/","meta":{}}},"data":{"id":"66b5fde580f6852924a1af33","type":"files"}},"versions":{"links":{"related":{"href":"https://api.osf.io/v2/files/66b5fde780f6852924a1af47/versions/","meta":{}}}},"node":{"links":{"related":{"href":"https://api.osf.io/v2/registrations/c9rny/","meta":{}}},"data":{"id":"c9rny","type":"registrations"}},"target":{"links":{"related":{"href":"https://api.osf.io/v2/registrations/c9rny/","meta":{"type":"registrations"}}},"data":{"type":"registrations","id":"c9rny"}},"cedar_metadata_records":{"links":{"related":{"href":"https://api.osf.io/v2/files/66b5fde780f6852924a1af47/cedar_metadata_records/","meta":{}}}}},"links":{"info":"https://api.osf.io/v2/files/66b5fde780f6852924a1af47/","move":"https://files.de-1.osf.io/v1/resources/c9rny/providers/osfstorage/66b5fde780f6852924a1af47","upload":"https://files.de-1.osf.io/v1/resources/c9rny/providers/osfstorage/66b5fde780f6852924a1af47","delete":"https://files.de-1.osf.io/v1/resources/c9rny/providers/osfstorage/66b5fde780f6852924a1af47","download":"https://osf.io/download/66b5fde780f6852924a1af47/","render":"https://mfr.de-1.osf.io/render?url=https%3A%2F%2Fosf.io%2Fdownload%2F66b5fde780f6852924a1af47%2F%3Fdirect%26mode%3Drender","html":"https://osf.io/c9rny/files/osfstorage/66b5fde780f6852924a1af47","self":"https://api.osf.io/v2/files/66b5fde780f6852924a1af47/"}},{"id":"66b5fde780f6852924a1af51","type":"files","attributes":{"guid":"at2w3","checkout":null,"name":"230517_ReD.xlsx","kind":"file","path":"/66b5fde780f6852924a1af51","size":881304,"provider":"osfstorage","materialized_path":"/Archive of OSF Storage/0 Data/Archive/230517_ReD.xlsx","last_touched":null,"date_modified":"2023-05-17T12:59:57.126534","date_created":"2023-05-17T12:59:57.126534Z","extra":{"hashes":{"md5":"23e50cec22717c6c55d81aba4a343e1b","sha256":"17017f5329075de9157842de29c2c1d1f5e0c5e43fad2e88fcc70d823abec153"},"downloads":1},"tags":[],"current_user_can_comment":false,"current_version":1,"show_as_unviewed":false},"relationships":{"parent_folder":{"links":{"related":{"href":"https://api.osf.io/v2/files/66b5fde580f6852924a1af33/","meta":{}}},"data":{"id":"66b5fde580f6852924a1af33","type":"files"}},"versions":{"links":{"related":{"href":"https://api.osf.io/v2/files/66b5fde780f6852924a1af51/versions/","meta":{}}}},"comments":{"links":{"related":{"href":"https://api.osf.io/v2/registrations/c9rny/comments/?filter%5Btarget%5D=at2w3","meta":{}}}},"node":{"links":{"related":{"href":"https://api.osf.io/v2/registrations/c9rny/","meta":{}}},"data":{"id":"c9rny","type":"registrations"}},"target":{"links":{"related":{"href":"https://api.osf.io/v2/registrations/c9rny/","meta":{"type":"registrations"}}},"data":{"type":"registrations","id":"c9rny"}},"cedar_metadata_records":{"links":{"related":{"href":"https://api.osf.io/v2/files/66b5fde780f6852924a1af51/cedar_metadata_records/","meta":{}}}}},"links":{"info":"https://api.osf.io/v2/files/66b5fde780f6852924a1af51/","move":"https://files.de-1.osf.io/v1/resources/c9rny/providers/osfstorage/66b5fde780f6852924a1af51","upload":"https://files.de-1.osf.io/v1/resources/c9rny/providers/osfstorage/66b5fde780f6852924a1af51","delete":"https://files.de-1.osf.io/v1/resources/c9rny/providers/osfstorage/66b5fde780f6852924a1af51","download":"https://osf.io/download/at2w3/","render":"https://mfr.de-1.osf.io/render?url=https%3A%2F%2Fosf.io%2Fdownload%2Fat2w3%2F%3Fdirect%26mode%3Drender","html":"https://osf.io/c9rny/files/osfstorage/66b5fde780f6852924a1af51","self":"https://api.osf.io/v2/files/66b5fde780f6852924a1af51/","iri":"https://osf.io/at2w3"}},{"id":"66b5fde680f6852924a1af3a","type":"files","attributes":{"guid":"u8ht5","checkout":null,"name":"231016_ReD.xlsx","kind":"file","path":"/66b5fde680f6852924a1af3a","size":914221,"provider":"osfstorage","materialized_path":"/Archive of OSF Storage/0 Data/Archive/231016_ReD.xlsx","last_touched":null,"date_modified":"2023-10-16T07:26:03.783601","date_created":"2023-10-16T07:26:03.783601Z","extra":{"hashes":{"md5":"8207735a676aa5cfc900021bebadc044","sha256":"62cfcf24e32d48a87561014e118dde50c98a0f78adffde4d19f2e55c3b00b948"},"downloads":1},"tags":[],"current_user_can_comment":false,"current_version":1,"show_as_unviewed":false},"relationships":{"parent_folder":{"links":{"related":{"href":"https://api.osf.io/v2/files/66b5fde580f6852924a1af33/","meta":{}}},"data":{"id":"66b5fde580f6852924a1af33","type":"files"}},"versions":{"links":{"related":{"href":"https://api.osf.io/v2/files/66b5fde680f6852924a1af3a/versions/","meta":{}}}},"comments":{"links":{"related":{"href":"https://api.osf.io/v2/registrations/c9rny/comments/?filter%5Btarget%5D=u8ht5","meta":{}}}},"node":{"links":{"related":{"href":"https://api.osf.io/v2/registrations/c9rny/","meta":{}}},"data":{"id":"c9rny","type":"registrations"}},"target":{"links":{"related":{"href":"https://api.osf.io/v2/registrations/c9rny/","meta":{"type":"registrations"}}},"data":{"type":"registrations","id":"c9rny"}},"cedar_metadata_records":{"links":{"related":{"href":"https://api.osf.io/v2/files/66b5fde680f6852924a1af3a/cedar_metadata_records/","meta":{}}}}},"links":{"info":"https://api.osf.io/v2/files/66b5fde680f6852924a1af3a/","move":"https://files.de-1.osf.io/v1/resources/c9rny/providers/osfstorage/66b5fde680f6852924a1af3a","upload":"https://files.de-1.osf.io/v1/resources/c9rny/providers/osfstorage/66b5fde680f6852924a1af3a","delete":"https://files.de-1.osf.io/v1/resources/c9rny/providers/osfstorage/66b5fde680f6852924a1af3a","download":"https://osf.io/download/u8ht5/","render":"https://mfr.de-1.osf.io/render?url=https%3A%2F%2Fosf.io%2Fdownload%2Fu8ht5%2F%3Fdirect%26mode%3Drender","html":"https://osf.io/c9rny/files/osfstorage/66b5fde680f6852924a1af3a","self":"https://api.osf.io/v2/files/66b5fde680f6852924a1af3a/","iri":"https://osf.io/u8ht5"}},{"id":"66b5fde780f6852924a1af4c","type":"files","attributes":{"guid":"zyaem","checkout":null,"name":"230424_ReD.xlsx","kind":"file","path":"/66b5fde780f6852924a1af4c","size":870859,"provider":"osfstorage","materialized_path":"/Archive of OSF Storage/0 Data/Archive/230424_ReD.xlsx","last_touched":null,"date_modified":"2023-04-24T09:23:51.900624","date_created":"2023-04-24T09:23:51.900624Z","extra":{"hashes":{"md5":"c98f1d2a66aa38dfbfd26c8323d5ce70","sha256":"4d3f3874c42cf9fa70bb90e4ac81cd44571be67a1af048d072bab15d3152bc51"},"downloads":1},"tags":[],"current_user_can_comment":false,"current_version":1,"show_as_unviewed":false},"relationships":{"parent_folder":{"links":{"related":{"href":"https://api.osf.io/v2/files/66b5fde580f6852924a1af33/","meta":{}}},"data":{"id":"66b5fde580f6852924a1af33","type":"files"}},"versions":{"links":{"related":{"href":"https://api.osf.io/v2/files/66b5fde780f6852924a1af4c/versions/","meta":{}}}},"comments":{"links":{"related":{"href":"https://api.osf.io/v2/registrations/c9rny/comments/?filter%5Btarget%5D=zyaem","meta":{}}}},"node":{"links":{"related":{"href":"https://api.osf.io/v2/registrations/c9rny/","meta":{}}},"data":{"id":"c9rny","type":"registrations"}},"target":{"links":{"related":{"href":"https://api.osf.io/v2/registrations/c9rny/","meta":{"type":"registrations"}}},"data":{"type":"registrations","id":"c9rny"}},"cedar_metadata_records":{"links":{"related":{"href":"https://api.osf.io/v2/files/66b5fde780f6852924a1af4c/cedar_metadata_records/","meta":{}}}}},"links":{"info":"https://api.osf.io/v2/files/66b5fde780f6852924a1af4c/","move":"https://files.de-1.osf.io/v1/resources/c9rny/providers/osfstorage/66b5fde780f6852924a1af4c","upload":"https://files.de-1.osf.io/v1/resources/c9rny/providers/osfstorage/66b5fde780f6852924a1af4c","delete":"https://files.de-1.osf.io/v1/resources/c9rny/providers/osfstorage/66b5fde780f6852924a1af4c","download":"https://osf.io/download/zyaem/","render":"https://mfr.de-1.osf.io/render?url=https%3A%2F%2Fosf.io%2Fdownload%2Fzyaem%2F%3Fdirect%26mode%3Drender","html":"https://osf.io/c9rny/files/osfstorage/66b5fde780f6852924a1af4c","self":"https://api.osf.io/v2/files/66b5fde780f6852924a1af4c/","iri":"https://osf.io/zyaem"}},{"id":"66b5fde880f6852924a1af5d","type":"files","attributes":{"guid":"tny72","checkout":null,"name":"FReD_1.2.1.xlsx","kind":"file","path":"/66b5fde880f6852924a1af5d","size":1768406,"provider":"osfstorage","materialized_path":"/Archive of OSF Storage/0 Data/Archive/FReD_1.2.1.xlsx","last_touched":null,"date_modified":"2024-02-15T16:02:35.742737","date_created":"2024-02-15T16:02:35.742737Z","extra":{"hashes":{"md5":"5411efbfe9895414482a9bacbcbf7db0","sha256":"12d0a6e3c76ef160eae52024eed04e445f4ae29c60ba93620ea43149e6e81ce9"},"downloads":2},"tags":[],"current_user_can_comment":false,"current_version":1,"show_as_unviewed":false},"relationships":{"parent_folder":{"links":{"related":{"href":"https://api.osf.io/v2/files/66b5fde580f6852924a1af33/","meta":{}}},"data":{"id":"66b5fde580f6852924a1af33","type":"files"}},"versions":{"links":{"related":{"href":"https://api.osf.io/v2/files/66b5fde880f6852924a1af5d/versions/","meta":{}}}},"comments":{"links":{"related":{"href":"https://api.osf.io/v2/registrations/c9rny/comments/?filter%5Btarget%5D=tny72","meta":{}}}},"node":{"links":{"related":{"href":"https://api.osf.io/v2/registrations/c9rny/","meta":{}}},"data":{"id":"c9rny","type":"registrations"}},"target":{"links":{"related":{"href":"https://api.osf.io/v2/registrations/c9rny/","meta":{"type":"registrations"}}},"data":{"type":"registrations","id":"c9rny"}},"cedar_metadata_records":{"links":{"related":{"href":"https://api.osf.io/v2/files/66b5fde880f6852924a1af5d/cedar_metadata_records/","meta":{}}}}},"links":{"info":"https://api.osf.io/v2/files/66b5fde880f6852924a1af5d/","move":"https://files.de-1.osf.io/v1/resources/c9rny/providers/osfstorage/66b5fde880f6852924a1af5d","upload":"https://files.de-1.osf.io/v1/resources/c9rny/providers/osfstorage/66b5fde880f6852924a1af5d","delete":"https://files.de-1.osf.io/v1/resources/c9rny/providers/osfstorage/66b5fde880f6852924a1af5d","download":"https://osf.io/download/tny72/","render":"https://mfr.de-1.osf.io/render?url=https%3A%2F%2Fosf.io%2Fdownload%2Ftny72%2F%3Fdirect%26mode%3Drender","html":"https://osf.io/c9rny/files/osfstorage/66b5fde880f6852924a1af5d","self":"https://api.osf.io/v2/files/66b5fde880f6852924a1af5d/","iri":"https://osf.io/tny72"}},{"id":"66b5fde880f6852924a1af5f","type":"files","attributes":{"guid":"2z74t","checkout":null,"name":"FReD_1.3.0.xlsx","kind":"file","path":"/66b5fde880f6852924a1af5f","size":2572845,"provider":"osfstorage","materialized_path":"/Archive of OSF Storage/0 Data/Archive/FReD_1.3.0.xlsx","last_touched":null,"date_modified":"2024-06-28T14:53:20.109752","date_created":"2024-06-28T14:53:20.109752Z","extra":{"hashes":{"md5":"a518148fe07768bcd220ada6dc0dcf10","sha256":"42b35cb8f5fe72a411d94953f636d1658ff16a8135c9c4ec12163bc13111c121"},"downloads":1},"tags":[],"current_user_can_comment":false,"current_version":1,"show_as_unviewed":false},"relationships":{"parent_folder":{"links":{"related":{"href":"https://api.osf.io/v2/files/66b5fde580f6852924a1af33/","meta":{}}},"data":{"id":"66b5fde580f6852924a1af33","type":"files"}},"versions":{"links":{"related":{"href":"https://api.osf.io/v2/files/66b5fde880f6852924a1af5f/versions/","meta":{}}}},"comments":{"links":{"related":{"href":"https://api.osf.io/v2/registrations/c9rny/comments/?filter%5Btarget%5D=2z74t","meta":{}}}},"node":{"links":{"related":{"href":"https://api.osf.io/v2/registrations/c9rny/","meta":{}}},"data":{"id":"c9rny","type":"registrations"}},"target":{"links":{"related":{"href":"https://api.osf.io/v2/registrations/c9rny/","meta":{"type":"registrations"}}},"data":{"type":"registrations","id":"c9rny"}},"cedar_metadata_records":{"links":{"related":{"href":"https://api.osf.io/v2/files/66b5fde880f6852924a1af5f/cedar_metadata_records/","meta":{}}}}},"links":{"info":"https://api.osf.io/v2/files/66b5fde880f6852924a1af5f/","move":"https://files.de-1.osf.io/v1/resources/c9rny/providers/osfstorage/66b5fde880f6852924a1af5f","upload":"https://files.de-1.osf.io/v1/resources/c9rny/providers/osfstorage/66b5fde880f6852924a1af5f","delete":"https://files.de-1.osf.io/v1/resources/c9rny/providers/osfstorage/66b5fde880f6852924a1af5f","download":"https://osf.io/download/2z74t/","render":"https://mfr.de-1.osf.io/render?url=https%3A%2F%2Fosf.io%2Fdownload%2F2z74t%2F%3Fdirect%26mode%3Drender","html":"https://osf.io/c9rny/files/osfstorage/66b5fde880f6852924a1af5f","self":"https://api.osf.io/v2/files/66b5fde880f6852924a1af5f/","iri":"https://osf.io/2z74t"}},{"id":"66b5fde680f6852924a1af3d","type":"files","attributes":{"guid":"vm4jf","checkout":null,"name":"240123_ReD.xlsx","kind":"file","path":"/66b5fde680f6852924a1af3d","size":1761218,"provider":"osfstorage","materialized_path":"/Archive of OSF Storage/0 Data/Archive/240123_ReD.xlsx","last_touched":null,"date_modified":"2024-01-23T16:16:34.395655","date_created":"2024-01-23T16:16:34.395655Z","extra":{"hashes":{"md5":"b7f16d24449ed637fe5f0dc38e438626","sha256":"3fd9a9b0bb5b6bca291debbdff2029941ff53cfed54b7660471dd44750d63a1d"},"downloads":1},"tags":[],"current_user_can_comment":false,"current_version":1,"show_as_unviewed":false},"relationships":{"parent_folder":{"links":{"related":{"href":"https://api.osf.io/v2/files/66b5fde580f6852924a1af33/","meta":{}}},"data":{"id":"66b5fde580f6852924a1af33","type":"files"}},"versions":{"links":{"related":{"href":"https://api.osf.io/v2/files/66b5fde680f6852924a1af3d/versions/","meta":{}}}},"comments":{"links":{"related":{"href":"https://api.osf.io/v2/registrations/c9rny/comments/?filter%5Btarget%5D=vm4jf","meta":{}}}},"node":{"links":{"related":{"href":"https://api.osf.io/v2/registrations/c9rny/","meta":{}}},"data":{"id":"c9rny","type":"registrations"}},"target":{"links":{"related":{"href":"https://api.osf.io/v2/registrations/c9rny/","meta":{"type":"registrations"}}},"data":{"type":"registrations","id":"c9rny"}},"cedar_metadata_records":{"links":{"related":{"href":"https://api.osf.io/v2/files/66b5fde680f6852924a1af3d/cedar_metadata_records/","meta":{}}}}},"links":{"info":"https://api.osf.io/v2/files/66b5fde680f6852924a1af3d/","move":"https://files.de-1.osf.io/v1/resources/c9rny/providers/osfstorage/66b5fde680f6852924a1af3d","upload":"https://files.de-1.osf.io/v1/resources/c9rny/providers/osfstorage/66b5fde680f6852924a1af3d","delete":"https://files.de-1.osf.io/v1/resources/c9rny/providers/osfstorage/66b5fde680f6852924a1af3d","download":"https://osf.io/download/vm4jf/","render":"https://mfr.de-1.osf.io/render?url=https%3A%2F%2Fosf.io%2Fdownload%2Fvm4jf%2F%3Fdirect%26mode%3Drender","html":"https://osf.io/c9rny/files/osfstorage/66b5fde680f6852924a1af3d","self":"https://api.osf.io/v2/files/66b5fde680f6852924a1af3d/","iri":"https://osf.io/vm4jf"}}],"links":{"first":null,"last":"https://api.osf.io/v2/registrations/c9rny/files/osfstorage/66b5fde580f6852924a1af33/?page=6","prev":null,"next":"https://api.osf.io/v2/registrations/c9rny/files/osfstorage/66b5fde580f6852924a1af33/?page=2","meta":{"total":53,"per_page":10}},"meta":{"version":"2.0"}}