{"data":[{"id":"67d2cc8242b18dfdaa5aeadc","type":"files","attributes":{"guid":null,"checkout":null,"name":"only_80_power_a_posteriori_t","kind":"folder","path":"/67d2cc8242b18dfdaa5aeadc/","size":null,"provider":"osfstorage","materialized_path":"/Plots/only_80_power_a_posteriori_t/","last_touched":null,"date_modified":null,"date_created":null,"extra":{"hashes":{"md5":null,"sha256":null}},"tags":[],"current_user_can_comment":false,"current_version":1,"show_as_unviewed":false},"relationships":{"parent_folder":{"links":{"related":{"href":"https://api.osf.io/v2/files/6735caf033c9dae303b2f2e5/","meta":{}}},"data":{"id":"6735caf033c9dae303b2f2e5","type":"files"}},"files":{"links":{"related":{"href":"https://api.osf.io/v2/nodes/6av7k/files/osfstorage/67d2cc8242b18dfdaa5aeadc/","meta":{}}}},"node":{"links":{"related":{"href":"https://api.osf.io/v2/nodes/6av7k/","meta":{}}},"data":{"id":"6av7k","type":"nodes"}},"target":{"links":{"related":{"href":"https://api.osf.io/v2/nodes/6av7k/","meta":{"type":"nodes"}}},"data":{"type":"nodes","id":"6av7k"}},"cedar_metadata_records":{"links":{"related":{"href":"https://api.osf.io/v2/files/67d2cc8242b18dfdaa5aeadc/cedar_metadata_records/","meta":{}}}}},"links":{"info":"https://api.osf.io/v2/files/67d2cc8242b18dfdaa5aeadc/","move":"https://files.osf.io/v1/resources/6av7k/providers/osfstorage/67d2cc8242b18dfdaa5aeadc/","upload":"https://files.osf.io/v1/resources/6av7k/providers/osfstorage/67d2cc8242b18dfdaa5aeadc/","delete":"https://files.osf.io/v1/resources/6av7k/providers/osfstorage/67d2cc8242b18dfdaa5aeadc/","new_folder":"https://files.osf.io/v1/resources/6av7k/providers/osfstorage/67d2cc8242b18dfdaa5aeadc/?kind=folder","self":"https://api.osf.io/v2/files/67d2cc8242b18dfdaa5aeadc/"}},{"id":"67d2caa6bc61f3acf25aeaad","type":"files","attributes":{"guid":null,"checkout":null,"name":"included_by_lab_z","kind":"folder","path":"/67d2caa6bc61f3acf25aeaad/","size":null,"provider":"osfstorage","materialized_path":"/Plots/included_by_lab_z/","last_touched":null,"date_modified":null,"date_created":null,"extra":{"hashes":{"md5":null,"sha256":null}},"tags":[],"current_user_can_comment":false,"current_version":1,"show_as_unviewed":false},"relationships":{"parent_folder":{"links":{"related":{"href":"https://api.osf.io/v2/files/6735caf033c9dae303b2f2e5/","meta":{}}},"data":{"id":"6735caf033c9dae303b2f2e5","type":"files"}},"files":{"links":{"related":{"href":"https://api.osf.io/v2/nodes/6av7k/files/osfstorage/67d2caa6bc61f3acf25aeaad/","meta":{}}}},"node":{"links":{"related":{"href":"https://api.osf.io/v2/nodes/6av7k/","meta":{}}},"data":{"id":"6av7k","type":"nodes"}},"target":{"links":{"related":{"href":"https://api.osf.io/v2/nodes/6av7k/","meta":{"type":"nodes"}}},"data":{"type":"nodes","id":"6av7k"}},"cedar_metadata_records":{"links":{"related":{"href":"https://api.osf.io/v2/files/67d2caa6bc61f3acf25aeaad/cedar_metadata_records/","meta":{}}}}},"links":{"info":"https://api.osf.io/v2/files/67d2caa6bc61f3acf25aeaad/","move":"https://files.osf.io/v1/resources/6av7k/providers/osfstorage/67d2caa6bc61f3acf25aeaad/","upload":"https://files.osf.io/v1/resources/6av7k/providers/osfstorage/67d2caa6bc61f3acf25aeaad/","delete":"https://files.osf.io/v1/resources/6av7k/providers/osfstorage/67d2caa6bc61f3acf25aeaad/","new_folder":"https://files.osf.io/v1/resources/6av7k/providers/osfstorage/67d2caa6bc61f3acf25aeaad/?kind=folder","self":"https://api.osf.io/v2/files/67d2caa6bc61f3acf25aeaad/"}},{"id":"67d2c5c2b2d90940825aee07","type":"files","attributes":{"guid":null,"checkout":null,"name":"all_exps_lab_units_knha","kind":"folder","path":"/67d2c5c2b2d90940825aee07/","size":null,"provider":"osfstorage","materialized_path":"/Plots/all_exps_lab_units_knha/","last_touched":null,"date_modified":null,"date_created":null,"extra":{"hashes":{"md5":null,"sha256":null}},"tags":[],"current_user_can_comment":false,"current_version":1,"show_as_unviewed":false},"relationships":{"parent_folder":{"links":{"related":{"href":"https://api.osf.io/v2/files/6735caf033c9dae303b2f2e5/","meta":{}}},"data":{"id":"6735caf033c9dae303b2f2e5","type":"files"}},"files":{"links":{"related":{"href":"https://api.osf.io/v2/nodes/6av7k/files/osfstorage/67d2c5c2b2d90940825aee07/","meta":{}}}},"node":{"links":{"related":{"href":"https://api.osf.io/v2/nodes/6av7k/","meta":{}}},"data":{"id":"6av7k","type":"nodes"}},"target":{"links":{"related":{"href":"https://api.osf.io/v2/nodes/6av7k/","meta":{"type":"nodes"}}},"data":{"type":"nodes","id":"6av7k"}},"cedar_metadata_records":{"links":{"related":{"href":"https://api.osf.io/v2/files/67d2c5c2b2d90940825aee07/cedar_metadata_records/","meta":{}}}}},"links":{"info":"https://api.osf.io/v2/files/67d2c5c2b2d90940825aee07/","move":"https://files.osf.io/v1/resources/6av7k/providers/osfstorage/67d2c5c2b2d90940825aee07/","upload":"https://files.osf.io/v1/resources/6av7k/providers/osfstorage/67d2c5c2b2d90940825aee07/","delete":"https://files.osf.io/v1/resources/6av7k/providers/osfstorage/67d2c5c2b2d90940825aee07/","new_folder":"https://files.osf.io/v1/resources/6av7k/providers/osfstorage/67d2c5c2b2d90940825aee07/?kind=folder","self":"https://api.osf.io/v2/files/67d2c5c2b2d90940825aee07/"}},{"id":"67d2c8b23fe6daa00ba726c0","type":"files","attributes":{"guid":null,"checkout":null,"name":"at_least_2_reps_t","kind":"folder","path":"/67d2c8b23fe6daa00ba726c0/","size":null,"provider":"osfstorage","materialized_path":"/Plots/at_least_2_reps_t/","last_touched":null,"date_modified":null,"date_created":null,"extra":{"hashes":{"md5":null,"sha256":null}},"tags":[],"current_user_can_comment":false,"current_version":1,"show_as_unviewed":false},"relationships":{"parent_folder":{"links":{"related":{"href":"https://api.osf.io/v2/files/6735caf033c9dae303b2f2e5/","meta":{}}},"data":{"id":"6735caf033c9dae303b2f2e5","type":"files"}},"files":{"links":{"related":{"href":"https://api.osf.io/v2/nodes/6av7k/files/osfstorage/67d2c8b23fe6daa00ba726c0/","meta":{}}}},"node":{"links":{"related":{"href":"https://api.osf.io/v2/nodes/6av7k/","meta":{}}},"data":{"id":"6av7k","type":"nodes"}},"target":{"links":{"related":{"href":"https://api.osf.io/v2/nodes/6av7k/","meta":{"type":"nodes"}}},"data":{"type":"nodes","id":"6av7k"}},"cedar_metadata_records":{"links":{"related":{"href":"https://api.osf.io/v2/files/67d2c8b23fe6daa00ba726c0/cedar_metadata_records/","meta":{}}}}},"links":{"info":"https://api.osf.io/v2/files/67d2c8b23fe6daa00ba726c0/","move":"https://files.osf.io/v1/resources/6av7k/providers/osfstorage/67d2c8b23fe6daa00ba726c0/","upload":"https://files.osf.io/v1/resources/6av7k/providers/osfstorage/67d2c8b23fe6daa00ba726c0/","delete":"https://files.osf.io/v1/resources/6av7k/providers/osfstorage/67d2c8b23fe6daa00ba726c0/","new_folder":"https://files.osf.io/v1/resources/6av7k/providers/osfstorage/67d2c8b23fe6daa00ba726c0/?kind=folder","self":"https://api.osf.io/v2/files/67d2c8b23fe6daa00ba726c0/"}},{"id":"67d2cd07765a0d315f00e943","type":"files","attributes":{"guid":null,"checkout":null,"name":"only_80_power_a_posteriori_z","kind":"folder","path":"/67d2cd07765a0d315f00e943/","size":null,"provider":"osfstorage","materialized_path":"/Plots/only_80_power_a_posteriori_z/","last_touched":null,"date_modified":null,"date_created":null,"extra":{"hashes":{"md5":null,"sha256":null}},"tags":[],"current_user_can_comment":false,"current_version":1,"show_as_unviewed":false},"relationships":{"parent_folder":{"links":{"related":{"href":"https://api.osf.io/v2/files/6735caf033c9dae303b2f2e5/","meta":{}}},"data":{"id":"6735caf033c9dae303b2f2e5","type":"files"}},"files":{"links":{"related":{"href":"https://api.osf.io/v2/nodes/6av7k/files/osfstorage/67d2cd07765a0d315f00e943/","meta":{}}}},"node":{"links":{"related":{"href":"https://api.osf.io/v2/nodes/6av7k/","meta":{}}},"data":{"id":"6av7k","type":"nodes"}},"target":{"links":{"related":{"href":"https://api.osf.io/v2/nodes/6av7k/","meta":{"type":"nodes"}}},"data":{"type":"nodes","id":"6av7k"}},"cedar_metadata_records":{"links":{"related":{"href":"https://api.osf.io/v2/files/67d2cd07765a0d315f00e943/cedar_metadata_records/","meta":{}}}}},"links":{"info":"https://api.osf.io/v2/files/67d2cd07765a0d315f00e943/","move":"https://files.osf.io/v1/resources/6av7k/providers/osfstorage/67d2cd07765a0d315f00e943/","upload":"https://files.osf.io/v1/resources/6av7k/providers/osfstorage/67d2cd07765a0d315f00e943/","delete":"https://files.osf.io/v1/resources/6av7k/providers/osfstorage/67d2cd07765a0d315f00e943/","new_folder":"https://files.osf.io/v1/resources/6av7k/providers/osfstorage/67d2cd07765a0d315f00e943/?kind=folder","self":"https://api.osf.io/v2/files/67d2cd07765a0d315f00e943/"}},{"id":"67d2ce00d762be37fd44b5f4","type":"files","attributes":{"guid":null,"checkout":null,"name":"primary_t","kind":"folder","path":"/67d2ce00d762be37fd44b5f4/","size":null,"provider":"osfstorage","materialized_path":"/Plots/primary_t/","last_touched":null,"date_modified":null,"date_created":null,"extra":{"hashes":{"md5":null,"sha256":null}},"tags":[],"current_user_can_comment":false,"current_version":1,"show_as_unviewed":false},"relationships":{"parent_folder":{"links":{"related":{"href":"https://api.osf.io/v2/files/6735caf033c9dae303b2f2e5/","meta":{}}},"data":{"id":"6735caf033c9dae303b2f2e5","type":"files"}},"files":{"links":{"related":{"href":"https://api.osf.io/v2/nodes/6av7k/files/osfstorage/67d2ce00d762be37fd44b5f4/","meta":{}}}},"node":{"links":{"related":{"href":"https://api.osf.io/v2/nodes/6av7k/","meta":{}}},"data":{"id":"6av7k","type":"nodes"}},"target":{"links":{"related":{"href":"https://api.osf.io/v2/nodes/6av7k/","meta":{"type":"nodes"}}},"data":{"type":"nodes","id":"6av7k"}},"cedar_metadata_records":{"links":{"related":{"href":"https://api.osf.io/v2/files/67d2ce00d762be37fd44b5f4/cedar_metadata_records/","meta":{}}}}},"links":{"info":"https://api.osf.io/v2/files/67d2ce00d762be37fd44b5f4/","move":"https://files.osf.io/v1/resources/6av7k/providers/osfstorage/67d2ce00d762be37fd44b5f4/","upload":"https://files.osf.io/v1/resources/6av7k/providers/osfstorage/67d2ce00d762be37fd44b5f4/","delete":"https://files.osf.io/v1/resources/6av7k/providers/osfstorage/67d2ce00d762be37fd44b5f4/","new_folder":"https://files.osf.io/v1/resources/6av7k/providers/osfstorage/67d2ce00d762be37fd44b5f4/?kind=folder","self":"https://api.osf.io/v2/files/67d2ce00d762be37fd44b5f4/"}},{"id":"67d2c6e690b201d57244b598","type":"files","attributes":{"guid":null,"checkout":null,"name":"all_exps_lab_units_t","kind":"folder","path":"/67d2c6e690b201d57244b598/","size":null,"provider":"osfstorage","materialized_path":"/Plots/all_exps_lab_units_t/","last_touched":null,"date_modified":null,"date_created":null,"extra":{"hashes":{"md5":null,"sha256":null}},"tags":[],"current_user_can_comment":false,"current_version":1,"show_as_unviewed":false},"relationships":{"parent_folder":{"links":{"related":{"href":"https://api.osf.io/v2/files/6735caf033c9dae303b2f2e5/","meta":{}}},"data":{"id":"6735caf033c9dae303b2f2e5","type":"files"}},"files":{"links":{"related":{"href":"https://api.osf.io/v2/nodes/6av7k/files/osfstorage/67d2c6e690b201d57244b598/","meta":{}}}},"node":{"links":{"related":{"href":"https://api.osf.io/v2/nodes/6av7k/","meta":{}}},"data":{"id":"6av7k","type":"nodes"}},"target":{"links":{"related":{"href":"https://api.osf.io/v2/nodes/6av7k/","meta":{"type":"nodes"}}},"data":{"type":"nodes","id":"6av7k"}},"cedar_metadata_records":{"links":{"related":{"href":"https://api.osf.io/v2/files/67d2c6e690b201d57244b598/cedar_metadata_records/","meta":{}}}}},"links":{"info":"https://api.osf.io/v2/files/67d2c6e690b201d57244b598/","move":"https://files.osf.io/v1/resources/6av7k/providers/osfstorage/67d2c6e690b201d57244b598/","upload":"https://files.osf.io/v1/resources/6av7k/providers/osfstorage/67d2c6e690b201d57244b598/","delete":"https://files.osf.io/v1/resources/6av7k/providers/osfstorage/67d2c6e690b201d57244b598/","new_folder":"https://files.osf.io/v1/resources/6av7k/providers/osfstorage/67d2c6e690b201d57244b598/?kind=folder","self":"https://api.osf.io/v2/files/67d2c6e690b201d57244b598/"}},{"id":"67d2ca57a7600b7ddff4ad48","type":"files","attributes":{"guid":null,"checkout":null,"name":"included_by_lab_t","kind":"folder","path":"/67d2ca57a7600b7ddff4ad48/","size":null,"provider":"osfstorage","materialized_path":"/Plots/included_by_lab_t/","last_touched":null,"date_modified":null,"date_created":null,"extra":{"hashes":{"md5":null,"sha256":null}},"tags":[],"current_user_can_comment":false,"current_version":1,"show_as_unviewed":false},"relationships":{"parent_folder":{"links":{"related":{"href":"https://api.osf.io/v2/files/6735caf033c9dae303b2f2e5/","meta":{}}},"data":{"id":"6735caf033c9dae303b2f2e5","type":"files"}},"files":{"links":{"related":{"href":"https://api.osf.io/v2/nodes/6av7k/files/osfstorage/67d2ca57a7600b7ddff4ad48/","meta":{}}}},"node":{"links":{"related":{"href":"https://api.osf.io/v2/nodes/6av7k/","meta":{}}},"data":{"id":"6av7k","type":"nodes"}},"target":{"links":{"related":{"href":"https://api.osf.io/v2/nodes/6av7k/","meta":{"type":"nodes"}}},"data":{"type":"nodes","id":"6av7k"}},"cedar_metadata_records":{"links":{"related":{"href":"https://api.osf.io/v2/files/67d2ca57a7600b7ddff4ad48/cedar_metadata_records/","meta":{}}}}},"links":{"info":"https://api.osf.io/v2/files/67d2ca57a7600b7ddff4ad48/","move":"https://files.osf.io/v1/resources/6av7k/providers/osfstorage/67d2ca57a7600b7ddff4ad48/","upload":"https://files.osf.io/v1/resources/6av7k/providers/osfstorage/67d2ca57a7600b7ddff4ad48/","delete":"https://files.osf.io/v1/resources/6av7k/providers/osfstorage/67d2ca57a7600b7ddff4ad48/","new_folder":"https://files.osf.io/v1/resources/6av7k/providers/osfstorage/67d2ca57a7600b7ddff4ad48/?kind=folder","self":"https://api.osf.io/v2/files/67d2ca57a7600b7ddff4ad48/"}},{"id":"67d2c9ef6c27ff706944b54c","type":"files","attributes":{"guid":null,"checkout":null,"name":"included_by_lab_knha","kind":"folder","path":"/67d2c9ef6c27ff706944b54c/","size":null,"provider":"osfstorage","materialized_path":"/Plots/included_by_lab_knha/","last_touched":null,"date_modified":null,"date_created":null,"extra":{"hashes":{"md5":null,"sha256":null}},"tags":[],"current_user_can_comment":false,"current_version":1,"show_as_unviewed":false},"relationships":{"parent_folder":{"links":{"related":{"href":"https://api.osf.io/v2/files/6735caf033c9dae303b2f2e5/","meta":{}}},"data":{"id":"6735caf033c9dae303b2f2e5","type":"files"}},"files":{"links":{"related":{"href":"https://api.osf.io/v2/nodes/6av7k/files/osfstorage/67d2c9ef6c27ff706944b54c/","meta":{}}}},"node":{"links":{"related":{"href":"https://api.osf.io/v2/nodes/6av7k/","meta":{}}},"data":{"id":"6av7k","type":"nodes"}},"target":{"links":{"related":{"href":"https://api.osf.io/v2/nodes/6av7k/","meta":{"type":"nodes"}}},"data":{"type":"nodes","id":"6av7k"}},"cedar_metadata_records":{"links":{"related":{"href":"https://api.osf.io/v2/files/67d2c9ef6c27ff706944b54c/cedar_metadata_records/","meta":{}}}}},"links":{"info":"https://api.osf.io/v2/files/67d2c9ef6c27ff706944b54c/","move":"https://files.osf.io/v1/resources/6av7k/providers/osfstorage/67d2c9ef6c27ff706944b54c/","upload":"https://files.osf.io/v1/resources/6av7k/providers/osfstorage/67d2c9ef6c27ff706944b54c/","delete":"https://files.osf.io/v1/resources/6av7k/providers/osfstorage/67d2c9ef6c27ff706944b54c/","new_folder":"https://files.osf.io/v1/resources/6av7k/providers/osfstorage/67d2c9ef6c27ff706944b54c/?kind=folder","self":"https://api.osf.io/v2/files/67d2c9ef6c27ff706944b54c/"}},{"id":"697a9a415fa022f95d46a30f","type":"files","attributes":{"guid":null,"checkout":null,"name":"all_exps_lab_units bigexp","kind":"folder","path":"/697a9a415fa022f95d46a30f/","size":null,"provider":"osfstorage","materialized_path":"/Plots/all_exps_lab_units bigexp/","last_touched":null,"date_modified":null,"date_created":null,"extra":{"hashes":{"md5":null,"sha256":null}},"tags":[],"current_user_can_comment":false,"current_version":1,"show_as_unviewed":false},"relationships":{"parent_folder":{"links":{"related":{"href":"https://api.osf.io/v2/files/6735caf033c9dae303b2f2e5/","meta":{}}},"data":{"id":"6735caf033c9dae303b2f2e5","type":"files"}},"files":{"links":{"related":{"href":"https://api.osf.io/v2/nodes/6av7k/files/osfstorage/697a9a415fa022f95d46a30f/","meta":{}}}},"node":{"links":{"related":{"href":"https://api.osf.io/v2/nodes/6av7k/","meta":{}}},"data":{"id":"6av7k","type":"nodes"}},"target":{"links":{"related":{"href":"https://api.osf.io/v2/nodes/6av7k/","meta":{"type":"nodes"}}},"data":{"type":"nodes","id":"6av7k"}},"cedar_metadata_records":{"links":{"related":{"href":"https://api.osf.io/v2/files/697a9a415fa022f95d46a30f/cedar_metadata_records/","meta":{}}}}},"links":{"info":"https://api.osf.io/v2/files/697a9a415fa022f95d46a30f/","move":"https://files.osf.io/v1/resources/6av7k/providers/osfstorage/697a9a415fa022f95d46a30f/","upload":"https://files.osf.io/v1/resources/6av7k/providers/osfstorage/697a9a415fa022f95d46a30f/","delete":"https://files.osf.io/v1/resources/6av7k/providers/osfstorage/697a9a415fa022f95d46a30f/","new_folder":"https://files.osf.io/v1/resources/6av7k/providers/osfstorage/697a9a415fa022f95d46a30f/?kind=folder","self":"https://api.osf.io/v2/files/697a9a415fa022f95d46a30f/"}}],"links":{"first":null,"last":"https://api.osf.io/v2/nodes/6av7k/files/osfstorage/6735caf033c9dae303b2f2e5/?page=3","prev":null,"next":"https://api.osf.io/v2/nodes/6av7k/files/osfstorage/6735caf033c9dae303b2f2e5/?page=2","meta":{"total":25,"per_page":10}},"meta":{"version":"2.0"}}