{"data":[{"id":"64c39e8f618fb907f1e9cec8","type":"files","attributes":{"guid":"ecqgh","checkout":null,"name":"230728_ReD.xlsx","kind":"file","path":"/64c39e8f618fb907f1e9cec8","size":896579,"provider":"osfstorage","materialized_path":"/0 Data/Archive/230728_ReD.xlsx","last_touched":null,"date_modified":"2023-07-28T10:55:11.720221","date_created":"2023-07-28T10:55:11.720221Z","extra":{"hashes":{"md5":"64f55162fbd3d6eff5453333ae9fdeb1","sha256":"d35495fe456364e69d58bc1696838769f7ce3a288f68840fa5e13adab987a936"},"downloads":7},"tags":[],"current_user_can_comment":false,"current_version":1,"show_as_unviewed":false},"relationships":{"parent_folder":{"links":{"related":{"href":"https://api.osf.io/v2/files/641b06fac74723165c10abd9/","meta":{}}},"data":{"id":"641b06fac74723165c10abd9","type":"files"}},"versions":{"links":{"related":{"href":"https://api.osf.io/v2/files/64c39e8f618fb907f1e9cec8/versions/","meta":{}}}},"comments":{"links":{"related":{"href":"https://api.osf.io/v2/nodes/9r62x/comments/?filter%5Btarget%5D=ecqgh","meta":{}}}},"node":{"links":{"related":{"href":"https://api.osf.io/v2/nodes/9r62x/","meta":{}}},"data":{"id":"9r62x","type":"nodes"}},"target":{"links":{"related":{"href":"https://api.osf.io/v2/nodes/9r62x/","meta":{"type":"nodes"}}},"data":{"type":"nodes","id":"9r62x"}},"cedar_metadata_records":{"links":{"related":{"href":"https://api.osf.io/v2/files/64c39e8f618fb907f1e9cec8/cedar_metadata_records/","meta":{}}}}},"links":{"info":"https://api.osf.io/v2/files/64c39e8f618fb907f1e9cec8/","move":"https://files.de-1.osf.io/v1/resources/9r62x/providers/osfstorage/64c39e8f618fb907f1e9cec8","upload":"https://files.de-1.osf.io/v1/resources/9r62x/providers/osfstorage/64c39e8f618fb907f1e9cec8","delete":"https://files.de-1.osf.io/v1/resources/9r62x/providers/osfstorage/64c39e8f618fb907f1e9cec8","download":"https://osf.io/download/ecqgh/","render":"https://mfr.de-1.osf.io/render?url=https%3A%2F%2Fosf.io%2Fdownload%2Fecqgh%2F%3Fdirect%26mode%3Drender","html":"https://osf.io/9r62x/files/osfstorage/64c39e8f618fb907f1e9cec8","self":"https://api.osf.io/v2/files/64c39e8f618fb907f1e9cec8/","iri":"https://osf.io/ecqgh"}},{"id":"64d2a8589cbf035e611e4694","type":"files","attributes":{"guid":"2w54f","checkout":null,"name":"230808_ReD.xlsx","kind":"file","path":"/64d2a8589cbf035e611e4694","size":897743,"provider":"osfstorage","materialized_path":"/0 Data/Archive/230808_ReD.xlsx","last_touched":null,"date_modified":"2023-08-08T20:40:56.416299","date_created":"2023-08-08T20:40:56.416299Z","extra":{"hashes":{"md5":"7d0fc5038be3781e02ccd91cee7902e6","sha256":"0912f4f4fdfc3228bdd8cb15396d742918e9f3f33920b3a540aa3216604d0ec0"},"downloads":8},"tags":[],"current_user_can_comment":false,"current_version":1,"show_as_unviewed":false},"relationships":{"parent_folder":{"links":{"related":{"href":"https://api.osf.io/v2/files/641b06fac74723165c10abd9/","meta":{}}},"data":{"id":"641b06fac74723165c10abd9","type":"files"}},"versions":{"links":{"related":{"href":"https://api.osf.io/v2/files/64d2a8589cbf035e611e4694/versions/","meta":{}}}},"comments":{"links":{"related":{"href":"https://api.osf.io/v2/nodes/9r62x/comments/?filter%5Btarget%5D=2w54f","meta":{}}}},"node":{"links":{"related":{"href":"https://api.osf.io/v2/nodes/9r62x/","meta":{}}},"data":{"id":"9r62x","type":"nodes"}},"target":{"links":{"related":{"href":"https://api.osf.io/v2/nodes/9r62x/","meta":{"type":"nodes"}}},"data":{"type":"nodes","id":"9r62x"}},"cedar_metadata_records":{"links":{"related":{"href":"https://api.osf.io/v2/files/64d2a8589cbf035e611e4694/cedar_metadata_records/","meta":{}}}}},"links":{"info":"https://api.osf.io/v2/files/64d2a8589cbf035e611e4694/","move":"https://files.de-1.osf.io/v1/resources/9r62x/providers/osfstorage/64d2a8589cbf035e611e4694","upload":"https://files.de-1.osf.io/v1/resources/9r62x/providers/osfstorage/64d2a8589cbf035e611e4694","delete":"https://files.de-1.osf.io/v1/resources/9r62x/providers/osfstorage/64d2a8589cbf035e611e4694","download":"https://osf.io/download/2w54f/","render":"https://mfr.de-1.osf.io/render?url=https%3A%2F%2Fosf.io%2Fdownload%2F2w54f%2F%3Fdirect%26mode%3Drender","html":"https://osf.io/9r62x/files/osfstorage/64d2a8589cbf035e611e4694","self":"https://api.osf.io/v2/files/64d2a8589cbf035e611e4694/","iri":"https://osf.io/2w54f"}},{"id":"64785d3bc3a11f067239aae7","type":"files","attributes":{"guid":"s92n4","checkout":null,"name":"230601_ReD.xlsx","kind":"file","path":"/64785d3bc3a11f067239aae7","size":889450,"provider":"osfstorage","materialized_path":"/0 Data/Archive/230601_ReD.xlsx","last_touched":null,"date_modified":"2023-06-01T08:56:27.394422","date_created":"2023-06-01T08:56:27.394422Z","extra":{"hashes":{"md5":"a9dfc3c3b24cc4d4fa8e40e6900a9d16","sha256":"ad9dec1d9bb6e3027309827aa84918a6653085d0fa505e971308e01524969aa8"},"downloads":8},"tags":[],"current_user_can_comment":false,"current_version":1,"show_as_unviewed":false},"relationships":{"parent_folder":{"links":{"related":{"href":"https://api.osf.io/v2/files/641b06fac74723165c10abd9/","meta":{}}},"data":{"id":"641b06fac74723165c10abd9","type":"files"}},"versions":{"links":{"related":{"href":"https://api.osf.io/v2/files/64785d3bc3a11f067239aae7/versions/","meta":{}}}},"comments":{"links":{"related":{"href":"https://api.osf.io/v2/nodes/9r62x/comments/?filter%5Btarget%5D=s92n4","meta":{}}}},"node":{"links":{"related":{"href":"https://api.osf.io/v2/nodes/9r62x/","meta":{}}},"data":{"id":"9r62x","type":"nodes"}},"target":{"links":{"related":{"href":"https://api.osf.io/v2/nodes/9r62x/","meta":{"type":"nodes"}}},"data":{"type":"nodes","id":"9r62x"}},"cedar_metadata_records":{"links":{"related":{"href":"https://api.osf.io/v2/files/64785d3bc3a11f067239aae7/cedar_metadata_records/","meta":{}}}}},"links":{"info":"https://api.osf.io/v2/files/64785d3bc3a11f067239aae7/","move":"https://files.de-1.osf.io/v1/resources/9r62x/providers/osfstorage/64785d3bc3a11f067239aae7","upload":"https://files.de-1.osf.io/v1/resources/9r62x/providers/osfstorage/64785d3bc3a11f067239aae7","delete":"https://files.de-1.osf.io/v1/resources/9r62x/providers/osfstorage/64785d3bc3a11f067239aae7","download":"https://osf.io/download/s92n4/","render":"https://mfr.de-1.osf.io/render?url=https%3A%2F%2Fosf.io%2Fdownload%2Fs92n4%2F%3Fdirect%26mode%3Drender","html":"https://osf.io/9r62x/files/osfstorage/64785d3bc3a11f067239aae7","self":"https://api.osf.io/v2/files/64785d3bc3a11f067239aae7/","iri":"https://osf.io/s92n4"}},{"id":"6718b9c7511b9c7c6e62a00b","type":"files","attributes":{"guid":"eyfws","checkout":null,"name":"FReD_2.0.1.xlsx","kind":"file","path":"/6718b9c7511b9c7c6e62a00b","size":3163235,"provider":"osfstorage","materialized_path":"/0 Data/Archive/FReD_2.0.1.xlsx","last_touched":null,"date_modified":"2024-10-23T08:54:31.634565","date_created":"2024-10-23T08:54:31.634565Z","extra":{"hashes":{"md5":"08eaefd837cedb1a65c848d520720e91","sha256":"00cff2c5139ce1782fd3a38569ca9fa1a83253a52fd2171f471a7a884a5dfb6c"},"downloads":7},"tags":[],"current_user_can_comment":false,"current_version":1,"show_as_unviewed":false},"relationships":{"parent_folder":{"links":{"related":{"href":"https://api.osf.io/v2/files/641b06fac74723165c10abd9/","meta":{}}},"data":{"id":"641b06fac74723165c10abd9","type":"files"}},"versions":{"links":{"related":{"href":"https://api.osf.io/v2/files/6718b9c7511b9c7c6e62a00b/versions/","meta":{}}}},"comments":{"links":{"related":{"href":"https://api.osf.io/v2/nodes/9r62x/comments/?filter%5Btarget%5D=eyfws","meta":{}}}},"node":{"links":{"related":{"href":"https://api.osf.io/v2/nodes/9r62x/","meta":{}}},"data":{"id":"9r62x","type":"nodes"}},"target":{"links":{"related":{"href":"https://api.osf.io/v2/nodes/9r62x/","meta":{"type":"nodes"}}},"data":{"type":"nodes","id":"9r62x"}},"cedar_metadata_records":{"links":{"related":{"href":"https://api.osf.io/v2/files/6718b9c7511b9c7c6e62a00b/cedar_metadata_records/","meta":{}}}}},"links":{"info":"https://api.osf.io/v2/files/6718b9c7511b9c7c6e62a00b/","move":"https://files.de-1.osf.io/v1/resources/9r62x/providers/osfstorage/6718b9c7511b9c7c6e62a00b","upload":"https://files.de-1.osf.io/v1/resources/9r62x/providers/osfstorage/6718b9c7511b9c7c6e62a00b","delete":"https://files.de-1.osf.io/v1/resources/9r62x/providers/osfstorage/6718b9c7511b9c7c6e62a00b","download":"https://osf.io/download/eyfws/","render":"https://mfr.de-1.osf.io/render?url=https%3A%2F%2Fosf.io%2Fdownload%2Feyfws%2F%3Fdirect%26mode%3Drender","html":"https://osf.io/9r62x/files/osfstorage/6718b9c7511b9c7c6e62a00b","self":"https://api.osf.io/v2/files/6718b9c7511b9c7c6e62a00b/","iri":"https://osf.io/eyfws"}},{"id":"668806abede75d03b469399f","type":"files","attributes":{"guid":"6esrv","checkout":null,"name":"FReD_1.5.4.xlsx","kind":"file","path":"/668806abede75d03b469399f","size":2593412,"provider":"osfstorage","materialized_path":"/0 Data/Archive/FReD_1.5.4.xlsx","last_touched":null,"date_modified":"2024-07-05T14:43:55.923333","date_created":"2024-07-05T14:43:55.923333Z","extra":{"hashes":{"md5":"8930669cff2e70164601a2b8060b009c","sha256":"e3587cfb712bc9de05e7e0a04d77965c7df2a897551da000b398160e3a5eb7d2"},"downloads":8},"tags":[],"current_user_can_comment":false,"current_version":1,"show_as_unviewed":false},"relationships":{"parent_folder":{"links":{"related":{"href":"https://api.osf.io/v2/files/641b06fac74723165c10abd9/","meta":{}}},"data":{"id":"641b06fac74723165c10abd9","type":"files"}},"versions":{"links":{"related":{"href":"https://api.osf.io/v2/files/668806abede75d03b469399f/versions/","meta":{}}}},"comments":{"links":{"related":{"href":"https://api.osf.io/v2/nodes/9r62x/comments/?filter%5Btarget%5D=6esrv","meta":{}}}},"node":{"links":{"related":{"href":"https://api.osf.io/v2/nodes/9r62x/","meta":{}}},"data":{"id":"9r62x","type":"nodes"}},"target":{"links":{"related":{"href":"https://api.osf.io/v2/nodes/9r62x/","meta":{"type":"nodes"}}},"data":{"type":"nodes","id":"9r62x"}},"cedar_metadata_records":{"links":{"related":{"href":"https://api.osf.io/v2/files/668806abede75d03b469399f/cedar_metadata_records/","meta":{}}}}},"links":{"info":"https://api.osf.io/v2/files/668806abede75d03b469399f/","move":"https://files.de-1.osf.io/v1/resources/9r62x/providers/osfstorage/668806abede75d03b469399f","upload":"https://files.de-1.osf.io/v1/resources/9r62x/providers/osfstorage/668806abede75d03b469399f","delete":"https://files.de-1.osf.io/v1/resources/9r62x/providers/osfstorage/668806abede75d03b469399f","download":"https://osf.io/download/6esrv/","render":"https://mfr.de-1.osf.io/render?url=https%3A%2F%2Fosf.io%2Fdownload%2F6esrv%2F%3Fdirect%26mode%3Drender","html":"https://osf.io/9r62x/files/osfstorage/668806abede75d03b469399f","self":"https://api.osf.io/v2/files/668806abede75d03b469399f/","iri":"https://osf.io/6esrv"}},{"id":"66571aad6b6c8e1dcb04cce1","type":"files","attributes":{"guid":"xfetm","checkout":null,"name":"FReD_1.2.7.xlsx","kind":"file","path":"/66571aad6b6c8e1dcb04cce1","size":2539826,"provider":"osfstorage","materialized_path":"/0 Data/Archive/FReD_1.2.7.xlsx","last_touched":null,"date_modified":"2024-05-29T12:08:13.266195","date_created":"2024-05-29T12:08:13.266195Z","extra":{"hashes":{"md5":"5eeddcfe048319f58c47678fd2ac1449","sha256":"c71cc7cd5e830d1327927e0f80229c9e2362c3be0903229cd6bb1eea841875a2"},"downloads":6},"tags":[],"current_user_can_comment":false,"current_version":1,"show_as_unviewed":false},"relationships":{"parent_folder":{"links":{"related":{"href":"https://api.osf.io/v2/files/641b06fac74723165c10abd9/","meta":{}}},"data":{"id":"641b06fac74723165c10abd9","type":"files"}},"versions":{"links":{"related":{"href":"https://api.osf.io/v2/files/66571aad6b6c8e1dcb04cce1/versions/","meta":{}}}},"comments":{"links":{"related":{"href":"https://api.osf.io/v2/nodes/9r62x/comments/?filter%5Btarget%5D=xfetm","meta":{}}}},"node":{"links":{"related":{"href":"https://api.osf.io/v2/nodes/9r62x/","meta":{}}},"data":{"id":"9r62x","type":"nodes"}},"target":{"links":{"related":{"href":"https://api.osf.io/v2/nodes/9r62x/","meta":{"type":"nodes"}}},"data":{"type":"nodes","id":"9r62x"}},"cedar_metadata_records":{"links":{"related":{"href":"https://api.osf.io/v2/files/66571aad6b6c8e1dcb04cce1/cedar_metadata_records/","meta":{}}}}},"links":{"info":"https://api.osf.io/v2/files/66571aad6b6c8e1dcb04cce1/","move":"https://files.de-1.osf.io/v1/resources/9r62x/providers/osfstorage/66571aad6b6c8e1dcb04cce1","upload":"https://files.de-1.osf.io/v1/resources/9r62x/providers/osfstorage/66571aad6b6c8e1dcb04cce1","delete":"https://files.de-1.osf.io/v1/resources/9r62x/providers/osfstorage/66571aad6b6c8e1dcb04cce1","download":"https://osf.io/download/xfetm/","render":"https://mfr.de-1.osf.io/render?url=https%3A%2F%2Fosf.io%2Fdownload%2Fxfetm%2F%3Fdirect%26mode%3Drender","html":"https://osf.io/9r62x/files/osfstorage/66571aad6b6c8e1dcb04cce1","self":"https://api.osf.io/v2/files/66571aad6b6c8e1dcb04cce1/","iri":"https://osf.io/xfetm"}},{"id":"645cc3929f8fa6133d4dae52","type":"files","attributes":{"guid":"e7urv","checkout":null,"name":"230511_ReD.xlsx","kind":"file","path":"/645cc3929f8fa6133d4dae52","size":881025,"provider":"osfstorage","materialized_path":"/0 Data/Archive/230511_ReD.xlsx","last_touched":null,"date_modified":"2023-05-11T10:29:39.035695","date_created":"2023-05-11T10:29:39.035695Z","extra":{"hashes":{"md5":"ec0ac4ea97d6f08b2e936ff0869d82ac","sha256":"60c03d321c6dfcf7c735abd492a1509493c16bbeafaa00061adc9dc248693992"},"downloads":8},"tags":[],"current_user_can_comment":false,"current_version":1,"show_as_unviewed":false},"relationships":{"parent_folder":{"links":{"related":{"href":"https://api.osf.io/v2/files/641b06fac74723165c10abd9/","meta":{}}},"data":{"id":"641b06fac74723165c10abd9","type":"files"}},"versions":{"links":{"related":{"href":"https://api.osf.io/v2/files/645cc3929f8fa6133d4dae52/versions/","meta":{}}}},"comments":{"links":{"related":{"href":"https://api.osf.io/v2/nodes/9r62x/comments/?filter%5Btarget%5D=e7urv","meta":{}}}},"node":{"links":{"related":{"href":"https://api.osf.io/v2/nodes/9r62x/","meta":{}}},"data":{"id":"9r62x","type":"nodes"}},"target":{"links":{"related":{"href":"https://api.osf.io/v2/nodes/9r62x/","meta":{"type":"nodes"}}},"data":{"type":"nodes","id":"9r62x"}},"cedar_metadata_records":{"links":{"related":{"href":"https://api.osf.io/v2/files/645cc3929f8fa6133d4dae52/cedar_metadata_records/","meta":{}}}}},"links":{"info":"https://api.osf.io/v2/files/645cc3929f8fa6133d4dae52/","move":"https://files.de-1.osf.io/v1/resources/9r62x/providers/osfstorage/645cc3929f8fa6133d4dae52","upload":"https://files.de-1.osf.io/v1/resources/9r62x/providers/osfstorage/645cc3929f8fa6133d4dae52","delete":"https://files.de-1.osf.io/v1/resources/9r62x/providers/osfstorage/645cc3929f8fa6133d4dae52","download":"https://osf.io/download/e7urv/","render":"https://mfr.de-1.osf.io/render?url=https%3A%2F%2Fosf.io%2Fdownload%2Fe7urv%2F%3Fdirect%26mode%3Drender","html":"https://osf.io/9r62x/files/osfstorage/645cc3929f8fa6133d4dae52","self":"https://api.osf.io/v2/files/645cc3929f8fa6133d4dae52/","iri":"https://osf.io/e7urv"}},{"id":"64285c6f8ef65b1652429a43","type":"files","attributes":{"guid":"anzxp","checkout":null,"name":"230403_ReD.xlsx","kind":"file","path":"/64285c6f8ef65b1652429a43","size":844524,"provider":"osfstorage","materialized_path":"/0 Data/Archive/230403_ReD.xlsx","last_touched":null,"date_modified":"2023-04-01T16:31:43.914691","date_created":"2023-04-01T16:31:43.914691Z","extra":{"hashes":{"md5":"8aaecbed39e0de5cfd5cbead42d928b8","sha256":"222fab1c3a405197a77556fe1a931e8d56cfaf3837ab6054cd60024f1c6909cd"},"downloads":8},"tags":[],"current_user_can_comment":false,"current_version":1,"show_as_unviewed":false},"relationships":{"parent_folder":{"links":{"related":{"href":"https://api.osf.io/v2/files/641b06fac74723165c10abd9/","meta":{}}},"data":{"id":"641b06fac74723165c10abd9","type":"files"}},"versions":{"links":{"related":{"href":"https://api.osf.io/v2/files/64285c6f8ef65b1652429a43/versions/","meta":{}}}},"comments":{"links":{"related":{"href":"https://api.osf.io/v2/nodes/9r62x/comments/?filter%5Btarget%5D=anzxp","meta":{}}}},"node":{"links":{"related":{"href":"https://api.osf.io/v2/nodes/9r62x/","meta":{}}},"data":{"id":"9r62x","type":"nodes"}},"target":{"links":{"related":{"href":"https://api.osf.io/v2/nodes/9r62x/","meta":{"type":"nodes"}}},"data":{"type":"nodes","id":"9r62x"}},"cedar_metadata_records":{"links":{"related":{"href":"https://api.osf.io/v2/files/64285c6f8ef65b1652429a43/cedar_metadata_records/","meta":{}}}}},"links":{"info":"https://api.osf.io/v2/files/64285c6f8ef65b1652429a43/","move":"https://files.de-1.osf.io/v1/resources/9r62x/providers/osfstorage/64285c6f8ef65b1652429a43","upload":"https://files.de-1.osf.io/v1/resources/9r62x/providers/osfstorage/64285c6f8ef65b1652429a43","delete":"https://files.de-1.osf.io/v1/resources/9r62x/providers/osfstorage/64285c6f8ef65b1652429a43","download":"https://osf.io/download/anzxp/","render":"https://mfr.de-1.osf.io/render?url=https%3A%2F%2Fosf.io%2Fdownload%2Fanzxp%2F%3Fdirect%26mode%3Drender","html":"https://osf.io/9r62x/files/osfstorage/64285c6f8ef65b1652429a43","self":"https://api.osf.io/v2/files/64285c6f8ef65b1652429a43/","iri":"https://osf.io/anzxp"}},{"id":"685bcd236f937b0617a1c792","type":"files","attributes":{"guid":"9pjvy","checkout":null,"name":"FReD_2.4.1.xlsx","kind":"file","path":"/685bcd236f937b0617a1c792","size":5583842,"provider":"osfstorage","materialized_path":"/0 Data/Archive/FReD_2.4.1.xlsx","last_touched":null,"date_modified":"2025-06-25T10:19:15.970850","date_created":"2025-06-25T10:19:15.970850Z","extra":{"hashes":{"md5":"d0be14e983adf0defcf88752fd5c6900","sha256":"b022e9cfcedc6b452d92efd6a9ed23506d558789a8ec87a3be4387e2523f8aa6"},"downloads":9},"tags":[],"current_user_can_comment":false,"current_version":1,"show_as_unviewed":false},"relationships":{"parent_folder":{"links":{"related":{"href":"https://api.osf.io/v2/files/641b06fac74723165c10abd9/","meta":{}}},"data":{"id":"641b06fac74723165c10abd9","type":"files"}},"versions":{"links":{"related":{"href":"https://api.osf.io/v2/files/685bcd236f937b0617a1c792/versions/","meta":{}}}},"comments":{"links":{"related":{"href":"https://api.osf.io/v2/nodes/9r62x/comments/?filter%5Btarget%5D=9pjvy","meta":{}}}},"node":{"links":{"related":{"href":"https://api.osf.io/v2/nodes/9r62x/","meta":{}}},"data":{"id":"9r62x","type":"nodes"}},"target":{"links":{"related":{"href":"https://api.osf.io/v2/nodes/9r62x/","meta":{"type":"nodes"}}},"data":{"type":"nodes","id":"9r62x"}},"cedar_metadata_records":{"links":{"related":{"href":"https://api.osf.io/v2/files/685bcd236f937b0617a1c792/cedar_metadata_records/","meta":{}}}}},"links":{"info":"https://api.osf.io/v2/files/685bcd236f937b0617a1c792/","move":"https://files.de-1.osf.io/v1/resources/9r62x/providers/osfstorage/685bcd236f937b0617a1c792","upload":"https://files.de-1.osf.io/v1/resources/9r62x/providers/osfstorage/685bcd236f937b0617a1c792","delete":"https://files.de-1.osf.io/v1/resources/9r62x/providers/osfstorage/685bcd236f937b0617a1c792","download":"https://osf.io/download/9pjvy/","render":"https://mfr.de-1.osf.io/render?url=https%3A%2F%2Fosf.io%2Fdownload%2F9pjvy%2F%3Fdirect%26mode%3Drender","html":"https://osf.io/9r62x/files/osfstorage/685bcd236f937b0617a1c792","self":"https://api.osf.io/v2/files/685bcd236f937b0617a1c792/","iri":"https://osf.io/9pjvy"}},{"id":"63cd4a58414aee02698c67ec","type":"files","attributes":{"guid":"2a3gb","checkout":null,"name":"[deprecated] ReD.csv","kind":"file","path":"/63cd4a58414aee02698c67ec","size":937665,"provider":"osfstorage","materialized_path":"/0 Data/Archive/[deprecated] ReD.csv","last_touched":null,"date_modified":"2023-01-22T14:47:09.143692","date_created":"2023-01-22T14:38:16.458156Z","extra":{"hashes":{"md5":"e7347b3b33c84323c1bccde87e6034cd","sha256":"98e29bc6e5d237d11c1ebb01aa10c6ddfb52e66bac252d8b3118b2b5d6aef39b"},"downloads":465},"tags":[],"current_user_can_comment":false,"current_version":4,"show_as_unviewed":false},"relationships":{"parent_folder":{"links":{"related":{"href":"https://api.osf.io/v2/files/641b06fac74723165c10abd9/","meta":{}}},"data":{"id":"641b06fac74723165c10abd9","type":"files"}},"versions":{"links":{"related":{"href":"https://api.osf.io/v2/files/63cd4a58414aee02698c67ec/versions/","meta":{}}}},"comments":{"links":{"related":{"href":"https://api.osf.io/v2/nodes/9r62x/comments/?filter%5Btarget%5D=2a3gb","meta":{}}}},"node":{"links":{"related":{"href":"https://api.osf.io/v2/nodes/9r62x/","meta":{}}},"data":{"id":"9r62x","type":"nodes"}},"target":{"links":{"related":{"href":"https://api.osf.io/v2/nodes/9r62x/","meta":{"type":"nodes"}}},"data":{"type":"nodes","id":"9r62x"}},"cedar_metadata_records":{"links":{"related":{"href":"https://api.osf.io/v2/files/63cd4a58414aee02698c67ec/cedar_metadata_records/","meta":{}}}}},"links":{"info":"https://api.osf.io/v2/files/63cd4a58414aee02698c67ec/","move":"https://files.de-1.osf.io/v1/resources/9r62x/providers/osfstorage/63cd4a58414aee02698c67ec","upload":"https://files.de-1.osf.io/v1/resources/9r62x/providers/osfstorage/63cd4a58414aee02698c67ec","delete":"https://files.de-1.osf.io/v1/resources/9r62x/providers/osfstorage/63cd4a58414aee02698c67ec","download":"https://osf.io/download/2a3gb/","render":"https://mfr.de-1.osf.io/render?url=https%3A%2F%2Fosf.io%2Fdownload%2F2a3gb%2F%3Fdirect%26mode%3Drender","html":"https://osf.io/9r62x/files/osfstorage/63cd4a58414aee02698c67ec","self":"https://api.osf.io/v2/files/63cd4a58414aee02698c67ec/","iri":"https://osf.io/2a3gb"}}],"links":{"first":null,"last":"https://api.osf.io/v2/nodes/9r62x/files/osfstorage/641b06fac74723165c10abd9/?page=7","prev":null,"next":"https://api.osf.io/v2/nodes/9r62x/files/osfstorage/641b06fac74723165c10abd9/?page=2","meta":{"total":65,"per_page":10}},"meta":{"version":"2.0"}}