{"data":[{"id":"695d9bceb577eaa148cf4a5e","type":"files","attributes":{"guid":"ytz8j","checkout":null,"name":"Qualitative Assessment EPM01.docx","kind":"file","path":"/695d9bceb577eaa148cf4a5e","size":10541,"provider":"osfstorage","materialized_path":"/Qualitative Assessment of Replications/Individual Replication Qualitative Assessment/Qualitative Assessment EPM01.docx","last_touched":null,"date_modified":"2026-01-06T23:33:35.010722","date_created":"2026-01-06T23:33:35.010722Z","extra":{"hashes":{"md5":"1888662b5f928e04a29a71e22fb503e3","sha256":"852b8083f8d0c9a6bb19aba727d91128a6b26121fc5a8c007469ae9ff328b462"},"downloads":0},"tags":[],"current_user_can_comment":false,"current_version":1,"show_as_unviewed":false},"relationships":{"parent_folder":{"links":{"related":{"href":"https://api.osf.io/v2/files/695d9b95cbd854558fdd84b5/","meta":{}}},"data":{"id":"695d9b95cbd854558fdd84b5","type":"files"}},"versions":{"links":{"related":{"href":"https://api.osf.io/v2/files/695d9bceb577eaa148cf4a5e/versions/","meta":{}}}},"comments":{"links":{"related":{"href":"https://api.osf.io/v2/nodes/6av7k/comments/?filter%5Btarget%5D=ytz8j","meta":{}}}},"node":{"links":{"related":{"href":"https://api.osf.io/v2/nodes/6av7k/","meta":{}}},"data":{"id":"6av7k","type":"nodes"}},"target":{"links":{"related":{"href":"https://api.osf.io/v2/nodes/6av7k/","meta":{"type":"nodes"}}},"data":{"type":"nodes","id":"6av7k"}},"cedar_metadata_records":{"links":{"related":{"href":"https://api.osf.io/v2/files/695d9bceb577eaa148cf4a5e/cedar_metadata_records/","meta":{}}}}},"links":{"info":"https://api.osf.io/v2/files/695d9bceb577eaa148cf4a5e/","move":"https://files.osf.io/v1/resources/6av7k/providers/osfstorage/695d9bceb577eaa148cf4a5e","upload":"https://files.osf.io/v1/resources/6av7k/providers/osfstorage/695d9bceb577eaa148cf4a5e","delete":"https://files.osf.io/v1/resources/6av7k/providers/osfstorage/695d9bceb577eaa148cf4a5e","download":"https://osf.io/download/ytz8j/","render":"https://mfr.osf.io/render?url=https%3A%2F%2Fosf.io%2Fdownload%2Fytz8j%2F%3Fdirect%26mode%3Drender","html":"https://osf.io/6av7k/files/osfstorage/695d9bceb577eaa148cf4a5e","self":"https://api.osf.io/v2/files/695d9bceb577eaa148cf4a5e/","iri":"https://osf.io/ytz8j"}},{"id":"695d9bcc64f21016b8cf4ab6","type":"files","attributes":{"guid":"j37g2","checkout":null,"name":"Qualitative Assessment MTT52.docx","kind":"file","path":"/695d9bcc64f21016b8cf4ab6","size":5639156,"provider":"osfstorage","materialized_path":"/Qualitative Assessment of Replications/Individual Replication Qualitative Assessment/Qualitative Assessment MTT52.docx","last_touched":null,"date_modified":"2026-01-23T21:23:16.031776","date_created":"2026-01-06T23:33:32.259452Z","extra":{"hashes":{"md5":"9441fd057c34b9727898054b2b6a6fab","sha256":"5ff8be3f3d4eee60dbb2ff771ad392d37678ee81cd4315cc1e11cc5900870461"},"downloads":0},"tags":[],"current_user_can_comment":false,"current_version":2,"show_as_unviewed":false},"relationships":{"parent_folder":{"links":{"related":{"href":"https://api.osf.io/v2/files/695d9b95cbd854558fdd84b5/","meta":{}}},"data":{"id":"695d9b95cbd854558fdd84b5","type":"files"}},"versions":{"links":{"related":{"href":"https://api.osf.io/v2/files/695d9bcc64f21016b8cf4ab6/versions/","meta":{}}}},"comments":{"links":{"related":{"href":"https://api.osf.io/v2/nodes/6av7k/comments/?filter%5Btarget%5D=j37g2","meta":{}}}},"node":{"links":{"related":{"href":"https://api.osf.io/v2/nodes/6av7k/","meta":{}}},"data":{"id":"6av7k","type":"nodes"}},"target":{"links":{"related":{"href":"https://api.osf.io/v2/nodes/6av7k/","meta":{"type":"nodes"}}},"data":{"type":"nodes","id":"6av7k"}},"cedar_metadata_records":{"links":{"related":{"href":"https://api.osf.io/v2/files/695d9bcc64f21016b8cf4ab6/cedar_metadata_records/","meta":{}}}}},"links":{"info":"https://api.osf.io/v2/files/695d9bcc64f21016b8cf4ab6/","move":"https://files.osf.io/v1/resources/6av7k/providers/osfstorage/695d9bcc64f21016b8cf4ab6","upload":"https://files.osf.io/v1/resources/6av7k/providers/osfstorage/695d9bcc64f21016b8cf4ab6","delete":"https://files.osf.io/v1/resources/6av7k/providers/osfstorage/695d9bcc64f21016b8cf4ab6","download":"https://osf.io/download/j37g2/","render":"https://mfr.osf.io/render?url=https%3A%2F%2Fosf.io%2Fdownload%2Fj37g2%2F%3Fdirect%26mode%3Drender","html":"https://osf.io/6av7k/files/osfstorage/695d9bcc64f21016b8cf4ab6","self":"https://api.osf.io/v2/files/695d9bcc64f21016b8cf4ab6/","iri":"https://osf.io/j37g2"}},{"id":"695d9bce88f4ef287bdd8f9c","type":"files","attributes":{"guid":"m46ar","checkout":null,"name":"Qualitative Assessment MTT37.docx","kind":"file","path":"/695d9bce88f4ef287bdd8f9c","size":6912353,"provider":"osfstorage","materialized_path":"/Qualitative Assessment of Replications/Individual Replication Qualitative Assessment/Qualitative Assessment MTT37.docx","last_touched":null,"date_modified":"2026-01-23T21:23:15.488241","date_created":"2026-01-06T23:33:35.087920Z","extra":{"hashes":{"md5":"f51dde233d3c15e95ac8bab9b834fec8","sha256":"4d1673ae84f4180de7eb7c667bbbbe6eb5f7590e8c9120fa3fdba9f737b018d8"},"downloads":0},"tags":[],"current_user_can_comment":false,"current_version":2,"show_as_unviewed":false},"relationships":{"parent_folder":{"links":{"related":{"href":"https://api.osf.io/v2/files/695d9b95cbd854558fdd84b5/","meta":{}}},"data":{"id":"695d9b95cbd854558fdd84b5","type":"files"}},"versions":{"links":{"related":{"href":"https://api.osf.io/v2/files/695d9bce88f4ef287bdd8f9c/versions/","meta":{}}}},"comments":{"links":{"related":{"href":"https://api.osf.io/v2/nodes/6av7k/comments/?filter%5Btarget%5D=m46ar","meta":{}}}},"node":{"links":{"related":{"href":"https://api.osf.io/v2/nodes/6av7k/","meta":{}}},"data":{"id":"6av7k","type":"nodes"}},"target":{"links":{"related":{"href":"https://api.osf.io/v2/nodes/6av7k/","meta":{"type":"nodes"}}},"data":{"type":"nodes","id":"6av7k"}},"cedar_metadata_records":{"links":{"related":{"href":"https://api.osf.io/v2/files/695d9bce88f4ef287bdd8f9c/cedar_metadata_records/","meta":{}}}}},"links":{"info":"https://api.osf.io/v2/files/695d9bce88f4ef287bdd8f9c/","move":"https://files.osf.io/v1/resources/6av7k/providers/osfstorage/695d9bce88f4ef287bdd8f9c","upload":"https://files.osf.io/v1/resources/6av7k/providers/osfstorage/695d9bce88f4ef287bdd8f9c","delete":"https://files.osf.io/v1/resources/6av7k/providers/osfstorage/695d9bce88f4ef287bdd8f9c","download":"https://osf.io/download/m46ar/","render":"https://mfr.osf.io/render?url=https%3A%2F%2Fosf.io%2Fdownload%2Fm46ar%2F%3Fdirect%26mode%3Drender","html":"https://osf.io/6av7k/files/osfstorage/695d9bce88f4ef287bdd8f9c","self":"https://api.osf.io/v2/files/695d9bce88f4ef287bdd8f9c/","iri":"https://osf.io/m46ar"}},{"id":"695d9bc8356a7d45f78f5695","type":"files","attributes":{"guid":"au69m","checkout":null,"name":"Qualitative Assessment EPM25.docx","kind":"file","path":"/695d9bc8356a7d45f78f5695","size":8160,"provider":"osfstorage","materialized_path":"/Qualitative Assessment of Replications/Individual Replication Qualitative Assessment/Qualitative Assessment EPM25.docx","last_touched":null,"date_modified":"2026-01-06T23:33:28.456784","date_created":"2026-01-06T23:33:28.456784Z","extra":{"hashes":{"md5":"b912b041cd2ce97f86533737bb21c4bf","sha256":"1b65acd7db0a243cdd940ea535d0ce85be6953a09648b44d46f8c1759eb6ac59"},"downloads":0},"tags":[],"current_user_can_comment":false,"current_version":1,"show_as_unviewed":false},"relationships":{"parent_folder":{"links":{"related":{"href":"https://api.osf.io/v2/files/695d9b95cbd854558fdd84b5/","meta":{}}},"data":{"id":"695d9b95cbd854558fdd84b5","type":"files"}},"versions":{"links":{"related":{"href":"https://api.osf.io/v2/files/695d9bc8356a7d45f78f5695/versions/","meta":{}}}},"comments":{"links":{"related":{"href":"https://api.osf.io/v2/nodes/6av7k/comments/?filter%5Btarget%5D=au69m","meta":{}}}},"node":{"links":{"related":{"href":"https://api.osf.io/v2/nodes/6av7k/","meta":{}}},"data":{"id":"6av7k","type":"nodes"}},"target":{"links":{"related":{"href":"https://api.osf.io/v2/nodes/6av7k/","meta":{"type":"nodes"}}},"data":{"type":"nodes","id":"6av7k"}},"cedar_metadata_records":{"links":{"related":{"href":"https://api.osf.io/v2/files/695d9bc8356a7d45f78f5695/cedar_metadata_records/","meta":{}}}}},"links":{"info":"https://api.osf.io/v2/files/695d9bc8356a7d45f78f5695/","move":"https://files.osf.io/v1/resources/6av7k/providers/osfstorage/695d9bc8356a7d45f78f5695","upload":"https://files.osf.io/v1/resources/6av7k/providers/osfstorage/695d9bc8356a7d45f78f5695","delete":"https://files.osf.io/v1/resources/6av7k/providers/osfstorage/695d9bc8356a7d45f78f5695","download":"https://osf.io/download/au69m/","render":"https://mfr.osf.io/render?url=https%3A%2F%2Fosf.io%2Fdownload%2Fau69m%2F%3Fdirect%26mode%3Drender","html":"https://osf.io/6av7k/files/osfstorage/695d9bc8356a7d45f78f5695","self":"https://api.osf.io/v2/files/695d9bc8356a7d45f78f5695/","iri":"https://osf.io/au69m"}},{"id":"695d9bce81984f234acf4d81","type":"files","attributes":{"guid":"4rtfh","checkout":null,"name":"Qualitative Assessment PCR11.docx","kind":"file","path":"/695d9bce81984f234acf4d81","size":8017,"provider":"osfstorage","materialized_path":"/Qualitative Assessment of Replications/Individual Replication Qualitative Assessment/Qualitative Assessment PCR11.docx","last_touched":null,"date_modified":"2026-01-06T23:33:35.011152","date_created":"2026-01-06T23:33:35.011152Z","extra":{"hashes":{"md5":"04141aa5ec4bae1e2650ab8909b7b2a8","sha256":"39620f2cd3c7aade48334d93660703941dedeabb6312ea7948453cb34d2c6f5f"},"downloads":0},"tags":[],"current_user_can_comment":false,"current_version":1,"show_as_unviewed":false},"relationships":{"parent_folder":{"links":{"related":{"href":"https://api.osf.io/v2/files/695d9b95cbd854558fdd84b5/","meta":{}}},"data":{"id":"695d9b95cbd854558fdd84b5","type":"files"}},"versions":{"links":{"related":{"href":"https://api.osf.io/v2/files/695d9bce81984f234acf4d81/versions/","meta":{}}}},"comments":{"links":{"related":{"href":"https://api.osf.io/v2/nodes/6av7k/comments/?filter%5Btarget%5D=4rtfh","meta":{}}}},"node":{"links":{"related":{"href":"https://api.osf.io/v2/nodes/6av7k/","meta":{}}},"data":{"id":"6av7k","type":"nodes"}},"target":{"links":{"related":{"href":"https://api.osf.io/v2/nodes/6av7k/","meta":{"type":"nodes"}}},"data":{"type":"nodes","id":"6av7k"}},"cedar_metadata_records":{"links":{"related":{"href":"https://api.osf.io/v2/files/695d9bce81984f234acf4d81/cedar_metadata_records/","meta":{}}}}},"links":{"info":"https://api.osf.io/v2/files/695d9bce81984f234acf4d81/","move":"https://files.osf.io/v1/resources/6av7k/providers/osfstorage/695d9bce81984f234acf4d81","upload":"https://files.osf.io/v1/resources/6av7k/providers/osfstorage/695d9bce81984f234acf4d81","delete":"https://files.osf.io/v1/resources/6av7k/providers/osfstorage/695d9bce81984f234acf4d81","download":"https://osf.io/download/4rtfh/","render":"https://mfr.osf.io/render?url=https%3A%2F%2Fosf.io%2Fdownload%2F4rtfh%2F%3Fdirect%26mode%3Drender","html":"https://osf.io/6av7k/files/osfstorage/695d9bce81984f234acf4d81","self":"https://api.osf.io/v2/files/695d9bce81984f234acf4d81/","iri":"https://osf.io/4rtfh"}},{"id":"695d9bc881984f234acf4d79","type":"files","attributes":{"guid":"9a7b8","checkout":null,"name":"Qualitative Assessment MTT42.docx","kind":"file","path":"/695d9bc881984f234acf4d79","size":9461,"provider":"osfstorage","materialized_path":"/Qualitative Assessment of Replications/Individual Replication Qualitative Assessment/Qualitative Assessment MTT42.docx","last_touched":null,"date_modified":"2026-01-23T21:23:15.447221","date_created":"2026-01-06T23:33:28.420885Z","extra":{"hashes":{"md5":"7fe37918d09c85e095abfad8da1587de","sha256":"cbaf28c6c35b030e946009673ca177659a1a164ff1554af2d0d738a7372b5405"},"downloads":0},"tags":[],"current_user_can_comment":false,"current_version":2,"show_as_unviewed":false},"relationships":{"parent_folder":{"links":{"related":{"href":"https://api.osf.io/v2/files/695d9b95cbd854558fdd84b5/","meta":{}}},"data":{"id":"695d9b95cbd854558fdd84b5","type":"files"}},"versions":{"links":{"related":{"href":"https://api.osf.io/v2/files/695d9bc881984f234acf4d79/versions/","meta":{}}}},"comments":{"links":{"related":{"href":"https://api.osf.io/v2/nodes/6av7k/comments/?filter%5Btarget%5D=9a7b8","meta":{}}}},"node":{"links":{"related":{"href":"https://api.osf.io/v2/nodes/6av7k/","meta":{}}},"data":{"id":"6av7k","type":"nodes"}},"target":{"links":{"related":{"href":"https://api.osf.io/v2/nodes/6av7k/","meta":{"type":"nodes"}}},"data":{"type":"nodes","id":"6av7k"}},"cedar_metadata_records":{"links":{"related":{"href":"https://api.osf.io/v2/files/695d9bc881984f234acf4d79/cedar_metadata_records/","meta":{}}}}},"links":{"info":"https://api.osf.io/v2/files/695d9bc881984f234acf4d79/","move":"https://files.osf.io/v1/resources/6av7k/providers/osfstorage/695d9bc881984f234acf4d79","upload":"https://files.osf.io/v1/resources/6av7k/providers/osfstorage/695d9bc881984f234acf4d79","delete":"https://files.osf.io/v1/resources/6av7k/providers/osfstorage/695d9bc881984f234acf4d79","download":"https://osf.io/download/9a7b8/","render":"https://mfr.osf.io/render?url=https%3A%2F%2Fosf.io%2Fdownload%2F9a7b8%2F%3Fdirect%26mode%3Drender","html":"https://osf.io/6av7k/files/osfstorage/695d9bc881984f234acf4d79","self":"https://api.osf.io/v2/files/695d9bc881984f234acf4d79/","iri":"https://osf.io/9a7b8"}},{"id":"695d9bc8fdaf475a6a8f4a02","type":"files","attributes":{"guid":"jtzv2","checkout":null,"name":"Qualitative Assessment MTT60.docx","kind":"file","path":"/695d9bc8fdaf475a6a8f4a02","size":5589288,"provider":"osfstorage","materialized_path":"/Qualitative Assessment of Replications/Individual Replication Qualitative Assessment/Qualitative Assessment MTT60.docx","last_touched":null,"date_modified":"2026-01-23T21:23:14.803645","date_created":"2026-01-06T23:33:28.409837Z","extra":{"hashes":{"md5":"8389608de3229d73bf68f5c14a5ef820","sha256":"64fbda6d1466ed7262226711c1464322571d09a557bef2164c6ef8f64f323160"},"downloads":0},"tags":[],"current_user_can_comment":false,"current_version":2,"show_as_unviewed":false},"relationships":{"parent_folder":{"links":{"related":{"href":"https://api.osf.io/v2/files/695d9b95cbd854558fdd84b5/","meta":{}}},"data":{"id":"695d9b95cbd854558fdd84b5","type":"files"}},"versions":{"links":{"related":{"href":"https://api.osf.io/v2/files/695d9bc8fdaf475a6a8f4a02/versions/","meta":{}}}},"comments":{"links":{"related":{"href":"https://api.osf.io/v2/nodes/6av7k/comments/?filter%5Btarget%5D=jtzv2","meta":{}}}},"node":{"links":{"related":{"href":"https://api.osf.io/v2/nodes/6av7k/","meta":{}}},"data":{"id":"6av7k","type":"nodes"}},"target":{"links":{"related":{"href":"https://api.osf.io/v2/nodes/6av7k/","meta":{"type":"nodes"}}},"data":{"type":"nodes","id":"6av7k"}},"cedar_metadata_records":{"links":{"related":{"href":"https://api.osf.io/v2/files/695d9bc8fdaf475a6a8f4a02/cedar_metadata_records/","meta":{}}}}},"links":{"info":"https://api.osf.io/v2/files/695d9bc8fdaf475a6a8f4a02/","move":"https://files.osf.io/v1/resources/6av7k/providers/osfstorage/695d9bc8fdaf475a6a8f4a02","upload":"https://files.osf.io/v1/resources/6av7k/providers/osfstorage/695d9bc8fdaf475a6a8f4a02","delete":"https://files.osf.io/v1/resources/6av7k/providers/osfstorage/695d9bc8fdaf475a6a8f4a02","download":"https://osf.io/download/jtzv2/","render":"https://mfr.osf.io/render?url=https%3A%2F%2Fosf.io%2Fdownload%2Fjtzv2%2F%3Fdirect%26mode%3Drender","html":"https://osf.io/6av7k/files/osfstorage/695d9bc8fdaf475a6a8f4a02","self":"https://api.osf.io/v2/files/695d9bc8fdaf475a6a8f4a02/","iri":"https://osf.io/jtzv2"}},{"id":"695d9bcab577eaa148cf4a59","type":"files","attributes":{"guid":"ufb5k","checkout":null,"name":"Qualitative Assessment PCR16.docx","kind":"file","path":"/695d9bcab577eaa148cf4a59","size":7074,"provider":"osfstorage","materialized_path":"/Qualitative Assessment of Replications/Individual Replication Qualitative Assessment/Qualitative Assessment PCR16.docx","last_touched":null,"date_modified":"2026-01-23T22:15:39.594536","date_created":"2026-01-06T23:33:30.825886Z","extra":{"hashes":{"md5":"54bfcad67d8bdea61185df60e17c0a16","sha256":"1190989624050b0f52d769fec6a572dfb645edb1a87e0ac06e7a1ca697bcad9c"},"downloads":0},"tags":[],"current_user_can_comment":false,"current_version":2,"show_as_unviewed":false},"relationships":{"parent_folder":{"links":{"related":{"href":"https://api.osf.io/v2/files/695d9b95cbd854558fdd84b5/","meta":{}}},"data":{"id":"695d9b95cbd854558fdd84b5","type":"files"}},"versions":{"links":{"related":{"href":"https://api.osf.io/v2/files/695d9bcab577eaa148cf4a59/versions/","meta":{}}}},"comments":{"links":{"related":{"href":"https://api.osf.io/v2/nodes/6av7k/comments/?filter%5Btarget%5D=ufb5k","meta":{}}}},"node":{"links":{"related":{"href":"https://api.osf.io/v2/nodes/6av7k/","meta":{}}},"data":{"id":"6av7k","type":"nodes"}},"target":{"links":{"related":{"href":"https://api.osf.io/v2/nodes/6av7k/","meta":{"type":"nodes"}}},"data":{"type":"nodes","id":"6av7k"}},"cedar_metadata_records":{"links":{"related":{"href":"https://api.osf.io/v2/files/695d9bcab577eaa148cf4a59/cedar_metadata_records/","meta":{}}}}},"links":{"info":"https://api.osf.io/v2/files/695d9bcab577eaa148cf4a59/","move":"https://files.osf.io/v1/resources/6av7k/providers/osfstorage/695d9bcab577eaa148cf4a59","upload":"https://files.osf.io/v1/resources/6av7k/providers/osfstorage/695d9bcab577eaa148cf4a59","delete":"https://files.osf.io/v1/resources/6av7k/providers/osfstorage/695d9bcab577eaa148cf4a59","download":"https://osf.io/download/ufb5k/","render":"https://mfr.osf.io/render?url=https%3A%2F%2Fosf.io%2Fdownload%2Fufb5k%2F%3Fdirect%26mode%3Drender","html":"https://osf.io/6av7k/files/osfstorage/695d9bcab577eaa148cf4a59","self":"https://api.osf.io/v2/files/695d9bcab577eaa148cf4a59/","iri":"https://osf.io/ufb5k"}},{"id":"695d9bce81cb8ab964dd892b","type":"files","attributes":{"guid":"j4k63","checkout":null,"name":"Qualitative Assessment MTT83.docx","kind":"file","path":"/695d9bce81cb8ab964dd892b","size":6912366,"provider":"osfstorage","materialized_path":"/Qualitative Assessment of Replications/Individual Replication Qualitative Assessment/Qualitative Assessment MTT83.docx","last_touched":null,"date_modified":"2026-01-23T21:23:16.062871","date_created":"2026-01-06T23:33:34.156538Z","extra":{"hashes":{"md5":"f55528babd2add3707644b02efe2c1d0","sha256":"ed84c1cab5498ea61fd21248cb005471b6088338db0fbbbb3cc472258031f0e3"},"downloads":0},"tags":[],"current_user_can_comment":false,"current_version":2,"show_as_unviewed":false},"relationships":{"parent_folder":{"links":{"related":{"href":"https://api.osf.io/v2/files/695d9b95cbd854558fdd84b5/","meta":{}}},"data":{"id":"695d9b95cbd854558fdd84b5","type":"files"}},"versions":{"links":{"related":{"href":"https://api.osf.io/v2/files/695d9bce81cb8ab964dd892b/versions/","meta":{}}}},"comments":{"links":{"related":{"href":"https://api.osf.io/v2/nodes/6av7k/comments/?filter%5Btarget%5D=j4k63","meta":{}}}},"node":{"links":{"related":{"href":"https://api.osf.io/v2/nodes/6av7k/","meta":{}}},"data":{"id":"6av7k","type":"nodes"}},"target":{"links":{"related":{"href":"https://api.osf.io/v2/nodes/6av7k/","meta":{"type":"nodes"}}},"data":{"type":"nodes","id":"6av7k"}},"cedar_metadata_records":{"links":{"related":{"href":"https://api.osf.io/v2/files/695d9bce81cb8ab964dd892b/cedar_metadata_records/","meta":{}}}}},"links":{"info":"https://api.osf.io/v2/files/695d9bce81cb8ab964dd892b/","move":"https://files.osf.io/v1/resources/6av7k/providers/osfstorage/695d9bce81cb8ab964dd892b","upload":"https://files.osf.io/v1/resources/6av7k/providers/osfstorage/695d9bce81cb8ab964dd892b","delete":"https://files.osf.io/v1/resources/6av7k/providers/osfstorage/695d9bce81cb8ab964dd892b","download":"https://osf.io/download/j4k63/","render":"https://mfr.osf.io/render?url=https%3A%2F%2Fosf.io%2Fdownload%2Fj4k63%2F%3Fdirect%26mode%3Drender","html":"https://osf.io/6av7k/files/osfstorage/695d9bce81cb8ab964dd892b","self":"https://api.osf.io/v2/files/695d9bce81cb8ab964dd892b/","iri":"https://osf.io/j4k63"}},{"id":"695d9bca52f3c05b3b8f5115","type":"files","attributes":{"guid":"8wrc4","checkout":null,"name":"Qualitative Assessment PCR158.docx","kind":"file","path":"/695d9bca52f3c05b3b8f5115","size":7334,"provider":"osfstorage","materialized_path":"/Qualitative Assessment of Replications/Individual Replication Qualitative Assessment/Qualitative Assessment PCR158.docx","last_touched":null,"date_modified":"2026-01-06T23:33:30.677224","date_created":"2026-01-06T23:33:30.677224Z","extra":{"hashes":{"md5":"d65e7c2cc21e9046a7d6d317679c0b89","sha256":"c5d3b09416cbdaf9673e37cbed9012e0dba34e734612befc0cebb1d6b34a59b8"},"downloads":3},"tags":[],"current_user_can_comment":false,"current_version":1,"show_as_unviewed":false},"relationships":{"parent_folder":{"links":{"related":{"href":"https://api.osf.io/v2/files/695d9b95cbd854558fdd84b5/","meta":{}}},"data":{"id":"695d9b95cbd854558fdd84b5","type":"files"}},"versions":{"links":{"related":{"href":"https://api.osf.io/v2/files/695d9bca52f3c05b3b8f5115/versions/","meta":{}}}},"comments":{"links":{"related":{"href":"https://api.osf.io/v2/nodes/6av7k/comments/?filter%5Btarget%5D=8wrc4","meta":{}}}},"node":{"links":{"related":{"href":"https://api.osf.io/v2/nodes/6av7k/","meta":{}}},"data":{"id":"6av7k","type":"nodes"}},"target":{"links":{"related":{"href":"https://api.osf.io/v2/nodes/6av7k/","meta":{"type":"nodes"}}},"data":{"type":"nodes","id":"6av7k"}},"cedar_metadata_records":{"links":{"related":{"href":"https://api.osf.io/v2/files/695d9bca52f3c05b3b8f5115/cedar_metadata_records/","meta":{}}}}},"links":{"info":"https://api.osf.io/v2/files/695d9bca52f3c05b3b8f5115/","move":"https://files.osf.io/v1/resources/6av7k/providers/osfstorage/695d9bca52f3c05b3b8f5115","upload":"https://files.osf.io/v1/resources/6av7k/providers/osfstorage/695d9bca52f3c05b3b8f5115","delete":"https://files.osf.io/v1/resources/6av7k/providers/osfstorage/695d9bca52f3c05b3b8f5115","download":"https://osf.io/download/8wrc4/","render":"https://mfr.osf.io/render?url=https%3A%2F%2Fosf.io%2Fdownload%2F8wrc4%2F%3Fdirect%26mode%3Drender","html":"https://osf.io/6av7k/files/osfstorage/695d9bca52f3c05b3b8f5115","self":"https://api.osf.io/v2/files/695d9bca52f3c05b3b8f5115/","iri":"https://osf.io/8wrc4"}}],"links":{"first":"https://api.osf.io/v2/nodes/6av7k/files/osfstorage/695d9b95cbd854558fdd84b5/","last":"https://api.osf.io/v2/nodes/6av7k/files/osfstorage/695d9b95cbd854558fdd84b5/?page=6","prev":"https://api.osf.io/v2/nodes/6av7k/files/osfstorage/695d9b95cbd854558fdd84b5/","next":"https://api.osf.io/v2/nodes/6av7k/files/osfstorage/695d9b95cbd854558fdd84b5/?page=3","meta":{"total":56,"per_page":10}},"meta":{"version":"2.0"}}