{"data":[{"id":"67d465a9990df0d8bd44b561","type":"files","attributes":{"guid":"ag3r5","checkout":null,"name":"Extracted Data from Original Experiments.xlsx","kind":"file","path":"/67d465a9990df0d8bd44b561","size":24883,"provider":"osfstorage","materialized_path":"/Data/Other Data/Extracted Data from Original Experiments.xlsx","last_touched":null,"date_modified":"2025-03-14T17:21:45.308135","date_created":"2025-03-14T17:21:45.308135Z","extra":{"hashes":{"md5":"f1d1388abd0cd5afea055185944c269f","sha256":"9379a8d980dc51ad08693455acb14e8d852f9df4d826dc19c8d880eb6a6be24a"},"downloads":6},"tags":[],"current_user_can_comment":false,"current_version":1,"show_as_unviewed":false},"relationships":{"parent_folder":{"links":{"related":{"href":"https://api.osf.io/v2/files/67d4658137ce688875a724da/","meta":{}}},"data":{"id":"67d4658137ce688875a724da","type":"files"}},"versions":{"links":{"related":{"href":"https://api.osf.io/v2/files/67d465a9990df0d8bd44b561/versions/","meta":{}}}},"comments":{"links":{"related":{"href":"https://api.osf.io/v2/nodes/6av7k/comments/?filter%5Btarget%5D=ag3r5","meta":{}}}},"node":{"links":{"related":{"href":"https://api.osf.io/v2/nodes/6av7k/","meta":{}}},"data":{"id":"6av7k","type":"nodes"}},"target":{"links":{"related":{"href":"https://api.osf.io/v2/nodes/6av7k/","meta":{"type":"nodes"}}},"data":{"type":"nodes","id":"6av7k"}},"cedar_metadata_records":{"links":{"related":{"href":"https://api.osf.io/v2/files/67d465a9990df0d8bd44b561/cedar_metadata_records/","meta":{}}}}},"links":{"info":"https://api.osf.io/v2/files/67d465a9990df0d8bd44b561/","move":"https://files.osf.io/v1/resources/6av7k/providers/osfstorage/67d465a9990df0d8bd44b561","upload":"https://files.osf.io/v1/resources/6av7k/providers/osfstorage/67d465a9990df0d8bd44b561","delete":"https://files.osf.io/v1/resources/6av7k/providers/osfstorage/67d465a9990df0d8bd44b561","download":"https://osf.io/download/ag3r5/","render":"https://mfr.osf.io/render?url=https%3A%2F%2Fosf.io%2Fdownload%2Fag3r5%2F%3Fdirect%26mode%3Drender","html":"https://osf.io/6av7k/files/osfstorage/67d465a9990df0d8bd44b561","self":"https://api.osf.io/v2/files/67d465a9990df0d8bd44b561/","iri":"https://osf.io/ag3r5"}},{"id":"67d465b7df73ce1c4244b579","type":"files","attributes":{"guid":"96gb5","checkout":null,"name":"table-template.xlsx","kind":"file","path":"/67d465b7df73ce1c4244b579","size":8003,"provider":"osfstorage","materialized_path":"/Data/Other Data/table-template.xlsx","last_touched":null,"date_modified":"2025-03-14T17:21:59.759520","date_created":"2025-03-14T17:21:59.759520Z","extra":{"hashes":{"md5":"c657b93b465b4121e1686ef79bc8d0e2","sha256":"1ec2029d4efbce84168112df37d849183305d1f9ab2215c0e20d0d9ef5378978"},"downloads":2},"tags":[],"current_user_can_comment":false,"current_version":1,"show_as_unviewed":false},"relationships":{"parent_folder":{"links":{"related":{"href":"https://api.osf.io/v2/files/67d4658137ce688875a724da/","meta":{}}},"data":{"id":"67d4658137ce688875a724da","type":"files"}},"versions":{"links":{"related":{"href":"https://api.osf.io/v2/files/67d465b7df73ce1c4244b579/versions/","meta":{}}}},"comments":{"links":{"related":{"href":"https://api.osf.io/v2/nodes/6av7k/comments/?filter%5Btarget%5D=96gb5","meta":{}}}},"node":{"links":{"related":{"href":"https://api.osf.io/v2/nodes/6av7k/","meta":{}}},"data":{"id":"6av7k","type":"nodes"}},"target":{"links":{"related":{"href":"https://api.osf.io/v2/nodes/6av7k/","meta":{"type":"nodes"}}},"data":{"type":"nodes","id":"6av7k"}},"cedar_metadata_records":{"links":{"related":{"href":"https://api.osf.io/v2/files/67d465b7df73ce1c4244b579/cedar_metadata_records/","meta":{}}}}},"links":{"info":"https://api.osf.io/v2/files/67d465b7df73ce1c4244b579/","move":"https://files.osf.io/v1/resources/6av7k/providers/osfstorage/67d465b7df73ce1c4244b579","upload":"https://files.osf.io/v1/resources/6av7k/providers/osfstorage/67d465b7df73ce1c4244b579","delete":"https://files.osf.io/v1/resources/6av7k/providers/osfstorage/67d465b7df73ce1c4244b579","download":"https://osf.io/download/96gb5/","render":"https://mfr.osf.io/render?url=https%3A%2F%2Fosf.io%2Fdownload%2F96gb5%2F%3Fdirect%26mode%3Drender","html":"https://osf.io/6av7k/files/osfstorage/67d465b7df73ce1c4244b579","self":"https://api.osf.io/v2/files/67d465b7df73ce1c4244b579/","iri":"https://osf.io/96gb5"}},{"id":"67d465a7e3bfb3d2d400e803","type":"files","attributes":{"guid":"uq79d","checkout":null,"name":"Coordinating team assessment of difficulties.xlsx","kind":"file","path":"/67d465a7e3bfb3d2d400e803","size":88340,"provider":"osfstorage","materialized_path":"/Data/Other Data/Coordinating team assessment of difficulties.xlsx","last_touched":null,"date_modified":"2025-03-14T17:21:43.162037","date_created":"2025-03-14T17:21:43.162037Z","extra":{"hashes":{"md5":"268a76d5df34a8eb0a6893f1e1e2e7ee","sha256":"4beb93696db94975ba989306dccc8f0b4c3a2e5303a742f830d54a0a1ecb26c0"},"downloads":5},"tags":[],"current_user_can_comment":false,"current_version":1,"show_as_unviewed":false},"relationships":{"parent_folder":{"links":{"related":{"href":"https://api.osf.io/v2/files/67d4658137ce688875a724da/","meta":{}}},"data":{"id":"67d4658137ce688875a724da","type":"files"}},"versions":{"links":{"related":{"href":"https://api.osf.io/v2/files/67d465a7e3bfb3d2d400e803/versions/","meta":{}}}},"comments":{"links":{"related":{"href":"https://api.osf.io/v2/nodes/6av7k/comments/?filter%5Btarget%5D=uq79d","meta":{}}}},"node":{"links":{"related":{"href":"https://api.osf.io/v2/nodes/6av7k/","meta":{}}},"data":{"id":"6av7k","type":"nodes"}},"target":{"links":{"related":{"href":"https://api.osf.io/v2/nodes/6av7k/","meta":{"type":"nodes"}}},"data":{"type":"nodes","id":"6av7k"}},"cedar_metadata_records":{"links":{"related":{"href":"https://api.osf.io/v2/files/67d465a7e3bfb3d2d400e803/cedar_metadata_records/","meta":{}}}}},"links":{"info":"https://api.osf.io/v2/files/67d465a7e3bfb3d2d400e803/","move":"https://files.osf.io/v1/resources/6av7k/providers/osfstorage/67d465a7e3bfb3d2d400e803","upload":"https://files.osf.io/v1/resources/6av7k/providers/osfstorage/67d465a7e3bfb3d2d400e803","delete":"https://files.osf.io/v1/resources/6av7k/providers/osfstorage/67d465a7e3bfb3d2d400e803","download":"https://osf.io/download/uq79d/","render":"https://mfr.osf.io/render?url=https%3A%2F%2Fosf.io%2Fdownload%2Fuq79d%2F%3Fdirect%26mode%3Drender","html":"https://osf.io/6av7k/files/osfstorage/67d465a7e3bfb3d2d400e803","self":"https://api.osf.io/v2/files/67d465a7e3bfb3d2d400e803/","iri":"https://osf.io/uq79d"}},{"id":"67d465aee3bfb3d2d400e807","type":"files","attributes":{"guid":"s8y5n","checkout":null,"name":"Original Experiments Statistical Summaries.tsv","kind":"file","path":"/67d465aee3bfb3d2d400e807","size":31446,"provider":"osfstorage","materialized_path":"/Data/Other Data/Original Experiments Statistical Summaries.tsv","last_touched":null,"date_modified":"2025-03-14T17:21:51.000313","date_created":"2025-03-14T17:21:51.000313Z","extra":{"hashes":{"md5":"0278b53f4de8af0c3ce5c856be472694","sha256":"b8add69af08fb95557732668320fe0ba9b0c484d8fe79924083f0584d498a6ca"},"downloads":7},"tags":[],"current_user_can_comment":false,"current_version":1,"show_as_unviewed":false},"relationships":{"parent_folder":{"links":{"related":{"href":"https://api.osf.io/v2/files/67d4658137ce688875a724da/","meta":{}}},"data":{"id":"67d4658137ce688875a724da","type":"files"}},"versions":{"links":{"related":{"href":"https://api.osf.io/v2/files/67d465aee3bfb3d2d400e807/versions/","meta":{}}}},"comments":{"links":{"related":{"href":"https://api.osf.io/v2/nodes/6av7k/comments/?filter%5Btarget%5D=s8y5n","meta":{}}}},"node":{"links":{"related":{"href":"https://api.osf.io/v2/nodes/6av7k/","meta":{}}},"data":{"id":"6av7k","type":"nodes"}},"target":{"links":{"related":{"href":"https://api.osf.io/v2/nodes/6av7k/","meta":{"type":"nodes"}}},"data":{"type":"nodes","id":"6av7k"}},"cedar_metadata_records":{"links":{"related":{"href":"https://api.osf.io/v2/files/67d465aee3bfb3d2d400e807/cedar_metadata_records/","meta":{}}}}},"links":{"info":"https://api.osf.io/v2/files/67d465aee3bfb3d2d400e807/","move":"https://files.osf.io/v1/resources/6av7k/providers/osfstorage/67d465aee3bfb3d2d400e807","upload":"https://files.osf.io/v1/resources/6av7k/providers/osfstorage/67d465aee3bfb3d2d400e807","delete":"https://files.osf.io/v1/resources/6av7k/providers/osfstorage/67d465aee3bfb3d2d400e807","download":"https://osf.io/download/s8y5n/","render":"https://mfr.osf.io/render?url=https%3A%2F%2Fosf.io%2Fdownload%2Fs8y5n%2F%3Fdirect%26mode%3Drender","html":"https://osf.io/6av7k/files/osfstorage/67d465aee3bfb3d2d400e807","self":"https://api.osf.io/v2/files/67d465aee3bfb3d2d400e807/","iri":"https://osf.io/s8y5n"}},{"id":"67d465b107c940335044bd78","type":"files","attributes":{"guid":"f2bex","checkout":null,"name":"PRED_DATA_SURVEY.csv","kind":"file","path":"/67d465b107c940335044bd78","size":3318,"provider":"osfstorage","materialized_path":"/Data/Other Data/PRED_DATA_SURVEY.csv","last_touched":null,"date_modified":"2025-03-14T17:21:53.493012","date_created":"2025-03-14T17:21:53.493012Z","extra":{"hashes":{"md5":"1c17f2d7d19bda1864805abbd75c7e2c","sha256":"644c43548febc6857d941c8a97b30e1a426493f837d78f126a0d40d75cea7168"},"downloads":2},"tags":[],"current_user_can_comment":false,"current_version":1,"show_as_unviewed":false},"relationships":{"parent_folder":{"links":{"related":{"href":"https://api.osf.io/v2/files/67d4658137ce688875a724da/","meta":{}}},"data":{"id":"67d4658137ce688875a724da","type":"files"}},"versions":{"links":{"related":{"href":"https://api.osf.io/v2/files/67d465b107c940335044bd78/versions/","meta":{}}}},"comments":{"links":{"related":{"href":"https://api.osf.io/v2/nodes/6av7k/comments/?filter%5Btarget%5D=f2bex","meta":{}}}},"node":{"links":{"related":{"href":"https://api.osf.io/v2/nodes/6av7k/","meta":{}}},"data":{"id":"6av7k","type":"nodes"}},"target":{"links":{"related":{"href":"https://api.osf.io/v2/nodes/6av7k/","meta":{"type":"nodes"}}},"data":{"type":"nodes","id":"6av7k"}},"cedar_metadata_records":{"links":{"related":{"href":"https://api.osf.io/v2/files/67d465b107c940335044bd78/cedar_metadata_records/","meta":{}}}}},"links":{"info":"https://api.osf.io/v2/files/67d465b107c940335044bd78/","move":"https://files.osf.io/v1/resources/6av7k/providers/osfstorage/67d465b107c940335044bd78","upload":"https://files.osf.io/v1/resources/6av7k/providers/osfstorage/67d465b107c940335044bd78","delete":"https://files.osf.io/v1/resources/6av7k/providers/osfstorage/67d465b107c940335044bd78","download":"https://osf.io/download/f2bex/","render":"https://mfr.osf.io/render?url=https%3A%2F%2Fosf.io%2Fdownload%2Ff2bex%2F%3Fdirect%26mode%3Drender","html":"https://osf.io/6av7k/files/osfstorage/67d465b107c940335044bd78","self":"https://api.osf.io/v2/files/67d465b107c940335044bd78/","iri":"https://osf.io/f2bex"}},{"id":"67d465aac05323607f5aeaa2","type":"files","attributes":{"guid":"tbkvz","checkout":null,"name":"inclusion_sets.xlsx","kind":"file","path":"/67d465aac05323607f5aeaa2","size":37533,"provider":"osfstorage","materialized_path":"/Data/Other Data/inclusion_sets.xlsx","last_touched":null,"date_modified":"2026-01-30T18:58:46.080078","date_created":"2025-03-14T17:21:46.652660Z","extra":{"hashes":{"md5":"c58114b67ec7ee0e73fb59af23bfb0ec","sha256":"c97a4e08227d27d392bbc365fef537f03b7f4e2f9deca3a4ad86a3e867f79b9f"},"downloads":6},"tags":[],"current_user_can_comment":false,"current_version":4,"show_as_unviewed":false},"relationships":{"parent_folder":{"links":{"related":{"href":"https://api.osf.io/v2/files/67d4658137ce688875a724da/","meta":{}}},"data":{"id":"67d4658137ce688875a724da","type":"files"}},"versions":{"links":{"related":{"href":"https://api.osf.io/v2/files/67d465aac05323607f5aeaa2/versions/","meta":{}}}},"comments":{"links":{"related":{"href":"https://api.osf.io/v2/nodes/6av7k/comments/?filter%5Btarget%5D=tbkvz","meta":{}}}},"node":{"links":{"related":{"href":"https://api.osf.io/v2/nodes/6av7k/","meta":{}}},"data":{"id":"6av7k","type":"nodes"}},"target":{"links":{"related":{"href":"https://api.osf.io/v2/nodes/6av7k/","meta":{"type":"nodes"}}},"data":{"type":"nodes","id":"6av7k"}},"cedar_metadata_records":{"links":{"related":{"href":"https://api.osf.io/v2/files/67d465aac05323607f5aeaa2/cedar_metadata_records/","meta":{}}}}},"links":{"info":"https://api.osf.io/v2/files/67d465aac05323607f5aeaa2/","move":"https://files.osf.io/v1/resources/6av7k/providers/osfstorage/67d465aac05323607f5aeaa2","upload":"https://files.osf.io/v1/resources/6av7k/providers/osfstorage/67d465aac05323607f5aeaa2","delete":"https://files.osf.io/v1/resources/6av7k/providers/osfstorage/67d465aac05323607f5aeaa2","download":"https://osf.io/download/tbkvz/","render":"https://mfr.osf.io/render?url=https%3A%2F%2Fosf.io%2Fdownload%2Ftbkvz%2F%3Fdirect%26mode%3Drender","html":"https://osf.io/6av7k/files/osfstorage/67d465aac05323607f5aeaa2","self":"https://api.osf.io/v2/files/67d465aac05323607f5aeaa2/","iri":"https://osf.io/tbkvz"}},{"id":"67d465adc05323607f5aeaa6","type":"files","attributes":{"guid":"tn7w6","checkout":null,"name":"Manuscript Figure Correspondence.xlsx","kind":"file","path":"/67d465adc05323607f5aeaa6","size":10348,"provider":"osfstorage","materialized_path":"/Data/Other Data/Manuscript Figure Correspondence.xlsx","last_touched":null,"date_modified":"2025-03-14T17:21:49.126369","date_created":"2025-03-14T17:21:49.126369Z","extra":{"hashes":{"md5":"7717e99f8a2e79956ebd131ff3e413ac","sha256":"5a907b9595dbc43e5a0acdc6fcdf8d88e58469ce7007862cee9accf961951f0d"},"downloads":6},"tags":[],"current_user_can_comment":false,"current_version":1,"show_as_unviewed":false},"relationships":{"parent_folder":{"links":{"related":{"href":"https://api.osf.io/v2/files/67d4658137ce688875a724da/","meta":{}}},"data":{"id":"67d4658137ce688875a724da","type":"files"}},"versions":{"links":{"related":{"href":"https://api.osf.io/v2/files/67d465adc05323607f5aeaa6/versions/","meta":{}}}},"comments":{"links":{"related":{"href":"https://api.osf.io/v2/nodes/6av7k/comments/?filter%5Btarget%5D=tn7w6","meta":{}}}},"node":{"links":{"related":{"href":"https://api.osf.io/v2/nodes/6av7k/","meta":{}}},"data":{"id":"6av7k","type":"nodes"}},"target":{"links":{"related":{"href":"https://api.osf.io/v2/nodes/6av7k/","meta":{"type":"nodes"}}},"data":{"type":"nodes","id":"6av7k"}},"cedar_metadata_records":{"links":{"related":{"href":"https://api.osf.io/v2/files/67d465adc05323607f5aeaa6/cedar_metadata_records/","meta":{}}}}},"links":{"info":"https://api.osf.io/v2/files/67d465adc05323607f5aeaa6/","move":"https://files.osf.io/v1/resources/6av7k/providers/osfstorage/67d465adc05323607f5aeaa6","upload":"https://files.osf.io/v1/resources/6av7k/providers/osfstorage/67d465adc05323607f5aeaa6","delete":"https://files.osf.io/v1/resources/6av7k/providers/osfstorage/67d465adc05323607f5aeaa6","download":"https://osf.io/download/tn7w6/","render":"https://mfr.osf.io/render?url=https%3A%2F%2Fosf.io%2Fdownload%2Ftn7w6%2F%3Fdirect%26mode%3Drender","html":"https://osf.io/6av7k/files/osfstorage/67d465adc05323607f5aeaa6","self":"https://api.osf.io/v2/files/67d465adc05323607f5aeaa6/","iri":"https://osf.io/tn7w6"}},{"id":"67d465b68e7fee57fd5af22e","type":"files","attributes":{"guid":"urmwj","checkout":null,"name":"Subjective assessment of reproducibility.xlsx","kind":"file","path":"/67d465b68e7fee57fd5af22e","size":72315,"provider":"osfstorage","materialized_path":"/Data/Other Data/Subjective assessment of reproducibility.xlsx","last_touched":null,"date_modified":"2026-01-23T13:43:18.445913","date_created":"2025-03-14T17:21:58.330360Z","extra":{"hashes":{"md5":"82898ddc7f57bae7c6e32cfceeb80b43","sha256":"3777ab5c18c40ec4a1c6ee54d596c66e963d1a899905cffddd3ee87759897007"},"downloads":2},"tags":[],"current_user_can_comment":false,"current_version":2,"show_as_unviewed":false},"relationships":{"parent_folder":{"links":{"related":{"href":"https://api.osf.io/v2/files/67d4658137ce688875a724da/","meta":{}}},"data":{"id":"67d4658137ce688875a724da","type":"files"}},"versions":{"links":{"related":{"href":"https://api.osf.io/v2/files/67d465b68e7fee57fd5af22e/versions/","meta":{}}}},"comments":{"links":{"related":{"href":"https://api.osf.io/v2/nodes/6av7k/comments/?filter%5Btarget%5D=urmwj","meta":{}}}},"node":{"links":{"related":{"href":"https://api.osf.io/v2/nodes/6av7k/","meta":{}}},"data":{"id":"6av7k","type":"nodes"}},"target":{"links":{"related":{"href":"https://api.osf.io/v2/nodes/6av7k/","meta":{"type":"nodes"}}},"data":{"type":"nodes","id":"6av7k"}},"cedar_metadata_records":{"links":{"related":{"href":"https://api.osf.io/v2/files/67d465b68e7fee57fd5af22e/cedar_metadata_records/","meta":{}}}}},"links":{"info":"https://api.osf.io/v2/files/67d465b68e7fee57fd5af22e/","move":"https://files.osf.io/v1/resources/6av7k/providers/osfstorage/67d465b68e7fee57fd5af22e","upload":"https://files.osf.io/v1/resources/6av7k/providers/osfstorage/67d465b68e7fee57fd5af22e","delete":"https://files.osf.io/v1/resources/6av7k/providers/osfstorage/67d465b68e7fee57fd5af22e","download":"https://osf.io/download/urmwj/","render":"https://mfr.osf.io/render?url=https%3A%2F%2Fosf.io%2Fdownload%2Furmwj%2F%3Fdirect%26mode%3Drender","html":"https://osf.io/6av7k/files/osfstorage/67d465b68e7fee57fd5af22e","self":"https://api.osf.io/v2/files/67d465b68e7fee57fd5af22e/","iri":"https://osf.io/urmwj"}},{"id":"67d465ab8734b5fbdca72b25","type":"files","attributes":{"guid":"5jfea","checkout":null,"name":"intermediate_steps.xlsx","kind":"file","path":"/67d465ab8734b5fbdca72b25","size":16705,"provider":"osfstorage","materialized_path":"/Data/Other Data/intermediate_steps.xlsx","last_touched":null,"date_modified":"2025-03-14T17:21:47.796284","date_created":"2025-03-14T17:21:47.796284Z","extra":{"hashes":{"md5":"feba716cb574f1d4fa4b0a7bdabc5455","sha256":"2e0d24e0682b6a75ce1d1ba558ed8f3dce0d721114f5749aa2f7b7d18f723da7"},"downloads":3},"tags":[],"current_user_can_comment":false,"current_version":1,"show_as_unviewed":false},"relationships":{"parent_folder":{"links":{"related":{"href":"https://api.osf.io/v2/files/67d4658137ce688875a724da/","meta":{}}},"data":{"id":"67d4658137ce688875a724da","type":"files"}},"versions":{"links":{"related":{"href":"https://api.osf.io/v2/files/67d465ab8734b5fbdca72b25/versions/","meta":{}}}},"comments":{"links":{"related":{"href":"https://api.osf.io/v2/nodes/6av7k/comments/?filter%5Btarget%5D=5jfea","meta":{}}}},"node":{"links":{"related":{"href":"https://api.osf.io/v2/nodes/6av7k/","meta":{}}},"data":{"id":"6av7k","type":"nodes"}},"target":{"links":{"related":{"href":"https://api.osf.io/v2/nodes/6av7k/","meta":{"type":"nodes"}}},"data":{"type":"nodes","id":"6av7k"}},"cedar_metadata_records":{"links":{"related":{"href":"https://api.osf.io/v2/files/67d465ab8734b5fbdca72b25/cedar_metadata_records/","meta":{}}}}},"links":{"info":"https://api.osf.io/v2/files/67d465ab8734b5fbdca72b25/","move":"https://files.osf.io/v1/resources/6av7k/providers/osfstorage/67d465ab8734b5fbdca72b25","upload":"https://files.osf.io/v1/resources/6av7k/providers/osfstorage/67d465ab8734b5fbdca72b25","delete":"https://files.osf.io/v1/resources/6av7k/providers/osfstorage/67d465ab8734b5fbdca72b25","download":"https://osf.io/download/5jfea/","render":"https://mfr.osf.io/render?url=https%3A%2F%2Fosf.io%2Fdownload%2F5jfea%2F%3Fdirect%26mode%3Drender","html":"https://osf.io/6av7k/files/osfstorage/67d465ab8734b5fbdca72b25","self":"https://api.osf.io/v2/files/67d465ab8734b5fbdca72b25/","iri":"https://osf.io/5jfea"}},{"id":"67d465b23c5abec2f100e879","type":"files","attributes":{"guid":"cyjsz","checkout":null,"name":"predictor-data.xlsx","kind":"file","path":"/67d465b23c5abec2f100e879","size":69953,"provider":"osfstorage","materialized_path":"/Data/Other Data/predictor-data.xlsx","last_touched":null,"date_modified":"2025-03-14T17:21:54.970702","date_created":"2025-03-14T17:21:54.970702Z","extra":{"hashes":{"md5":"c34fa6a0c65d28cff545adeb05242b1e","sha256":"f2c02217fa39d33e531b8a949d8d07e800b9e3047f39022286df2d09efe618d5"},"downloads":19},"tags":[],"current_user_can_comment":false,"current_version":1,"show_as_unviewed":false},"relationships":{"parent_folder":{"links":{"related":{"href":"https://api.osf.io/v2/files/67d4658137ce688875a724da/","meta":{}}},"data":{"id":"67d4658137ce688875a724da","type":"files"}},"versions":{"links":{"related":{"href":"https://api.osf.io/v2/files/67d465b23c5abec2f100e879/versions/","meta":{}}}},"comments":{"links":{"related":{"href":"https://api.osf.io/v2/nodes/6av7k/comments/?filter%5Btarget%5D=cyjsz","meta":{}}}},"node":{"links":{"related":{"href":"https://api.osf.io/v2/nodes/6av7k/","meta":{}}},"data":{"id":"6av7k","type":"nodes"}},"target":{"links":{"related":{"href":"https://api.osf.io/v2/nodes/6av7k/","meta":{"type":"nodes"}}},"data":{"type":"nodes","id":"6av7k"}},"cedar_metadata_records":{"links":{"related":{"href":"https://api.osf.io/v2/files/67d465b23c5abec2f100e879/cedar_metadata_records/","meta":{}}}}},"links":{"info":"https://api.osf.io/v2/files/67d465b23c5abec2f100e879/","move":"https://files.osf.io/v1/resources/6av7k/providers/osfstorage/67d465b23c5abec2f100e879","upload":"https://files.osf.io/v1/resources/6av7k/providers/osfstorage/67d465b23c5abec2f100e879","delete":"https://files.osf.io/v1/resources/6av7k/providers/osfstorage/67d465b23c5abec2f100e879","download":"https://osf.io/download/cyjsz/","render":"https://mfr.osf.io/render?url=https%3A%2F%2Fosf.io%2Fdownload%2Fcyjsz%2F%3Fdirect%26mode%3Drender","html":"https://osf.io/6av7k/files/osfstorage/67d465b23c5abec2f100e879","self":"https://api.osf.io/v2/files/67d465b23c5abec2f100e879/","iri":"https://osf.io/cyjsz"}}],"links":{"first":null,"last":"https://api.osf.io/v2/nodes/6av7k/files/osfstorage/67d4658137ce688875a724da/?page=2","prev":null,"next":"https://api.osf.io/v2/nodes/6av7k/files/osfstorage/67d4658137ce688875a724da/?page=2","meta":{"total":13,"per_page":10}},"meta":{"version":"2.0"}}